,ID,Parent_ID,Email,Sequence,Version,Date_Created,Date_Modified,Date_Deleted,User_ID
0,02a4effd-de37-43af-8630-f2b076dc10c3,9e908c5b-dfcf-4316-9b7e-1b528049ea94,harding.chrintin@gmail.com,0,0,2014-09-22 12:40:16.627,2014-09-22 12:40:16.627,9999-12-31 23:59:59.997000,7d6c7c2b-5507-485f-a856-8c5eafaf2826
1,02d87d0d-c4f8-4e78-b10a-5dd7e3bb6fc8,f73e6ed7-4c30-4ef4-8306-c2ab453e4a4b,jspears73@aol.com,0,0,2017-02-02 13:32:09.900,2017-02-02 13:32:09.900,9999-12-31 23:59:59.997000,d1208c44-51c2-4916-b239-c88e04cccfb7
2,03693a11-3658-4681-8f85-9316dc610cde,fe60105f-167b-4f80-bbd7-887cc3680cbb,clbright@comcast.net,0,0,2013-05-11 08:09:24.933,2013-05-11 08:09:24.933,9999-12-31 23:59:59.997000,ffffffff-ffff-ffff-ffff-ffffffffffff
3,04eb563e-dff5-433d-a037-f6409e1f9ed0,45877ca6-338c-4061-a251-88f1a3da33db,joel@joelcorcoran.com,0,0,2017-05-04 11:26:40.677,2017-05-04 11:26:40.677,9999-12-31 23:59:59.997000,d1208c44-51c2-4916-b239-c88e04cccfb7
4,07d37102-5e9e-4ac9-8a58-6d213b17fbab,e4ac101f-8cd5-4211-87d8-de281dfa718c,ohca@integrityonline.com,0,0,2013-05-11 08:09:24.933,2013-05-11 08:09:24.933,9999-12-31 23:59:59.997000,ffffffff-ffff-ffff-ffff-ffffffffffff
5,087382fc-203d-4085-a581-bc0f707eedab,8a146de0-c2b5-45d7-a6aa-6758d52303f2,pippycat@msn.com,0,0,2017-08-08 11:49:00.233,2017-08-08 11:49:00.233,9999-12-31 23:59:59.997000,d1208c44-51c2-4916-b239-c88e04cccfb7
6,08cc8791-5b3a-4394-b08c-f01781035d2a,f934d699-6cce-4fb3-af56-3e020ac4f849,avilapam@gmail.com,0,0,2017-05-02 16:28:01.867,2017-05-02 16:28:01.867,9999-12-31 23:59:59.997000,d1208c44-51c2-4916-b239-c88e04cccfb7
7,08d5bf43-a098-409c-a07a-dc8d002ff5ed,5ff0dd15-7984-4ea4-a8a8-aa11a5b23b7f,bearpear@comcast.net,0,0,2014-11-25 14:23:53.173,2014-11-25 14:23:53.173,9999-12-31 23:59:59.997000,7d6c7c2b-5507-485f-a856-8c5eafaf2826
8,097a5254-5732-4b8c-b00c-30225985028d,225bee1b-29ac-47a4-9d8c-8feafc872675,mike_klain@yahoo.com,0,0,2015-10-27 14:56:39.863,2015-10-27 14:56:39.863,9999-12-31 23:59:59.997000,7d6c7c2b-5507-485f-a856-8c5eafaf2826
9,0b591564-a7c2-4502-b345-b0cdba3cf242,0bd53239-5419-4b74-bf45-94382f0a5455,susanmcintyre@att.net,0,0,2014-09-15 16:20:15.690,2014-09-15 16:20:15.690,9999-12-31 23:59:59.997000,7d6c7c2b-5507-485f-a856-8c5eafaf2826
10,0b8a5edc-ebeb-4ac1-b21e-5023623dc073,3ccd3355-3a20-4541-a3bc-0cf62a1c42f5,kakemkr@iinet.com,0,0,2016-06-16 16:10:09.470,2016-06-16 16:10:09.470,9999-12-31 23:59:59.997000,7d6c7c2b-5507-485f-a856-8c5eafaf2826
11,0ba500ed-099f-4dc2-b99a-3bba0575889b,fd8e8d9c-d838-4ae9-a12d-268c5c16fb7d,gstreicker@hotmail.com,0,0,2015-10-06 16:37:05.027,2015-10-06 16:37:05.027,9999-12-31 23:59:59.997000,7d6c7c2b-5507-485f-a856-8c5eafaf2826
12,0bc416a9-9175-4200-9fca-c37531696870,3727c50c-2103-4f6c-a92e-b951ff54b9ae,carriehasnomoney@gmail.com,0,0,2014-07-01 17:31:09.690,2014-07-01 17:31:09.690,9999-12-31 23:59:59.997000,7d6c7c2b-5507-485f-a856-8c5eafaf2826
13,0bd18b1a-1eb0-4e71-b96f-dcce8974d17c,d610b73e-c017-4f1e-a732-6a61f57b06d4,fam_seng@hotmail.com,0,0,2016-04-28 15:29:37.030,2016-04-28 15:29:37.030,9999-12-31 23:59:59.997000,7d6c7c2b-5507-485f-a856-8c5eafaf2826
14,0ca9d853-d3c9-4932-82e3-ebcb7cf723e2,0d6277f2-1fa1-4d1c-b52b-f579b5765261,donahue&coiinc.com,0,0,2013-05-11 08:09:24.933,2013-05-11 08:09:24.933,9999-12-31 23:59:59.997000,ffffffff-ffff-ffff-ffff-ffffffffffff
15,0e000498-f8a7-40f7-b188-57d5a1bee33a,ca258d06-760f-4f8e-adc2-ebf8552a0446,msaville@msn.com,0,0,2013-05-11 08:09:24.933,2013-05-11 08:09:24.933,9999-12-31 23:59:59.997000,ffffffff-ffff-ffff-ffff-ffffffffffff
16,0e5145fc-d6b1-4968-ad6f-c403e2cff086,d8d18b13-a2fd-42b3-871a-e8e32f47c443,mccoyke@gmail.com,0,0,2016-01-05 16:18:33.690,2016-01-05 16:18:33.690,9999-12-31 23:59:59.997000,7d6c7c2b-5507-485f-a856-8c5eafaf2826
17,0eb140e0-64c4-4081-b334-0d7f74a85a22,4fb34b48-4092-4ecd-99ad-8a8a0e74f802,joyckrause@yahoo.com,0,0,2017-01-20 16:39:44.537,2017-01-20 16:39:44.537,9999-12-31 23:59:59.997000,d1208c44-51c2-4916-b239-c88e04cccfb7
18,0eed9949-21ff-47e4-8e57-195978d0b308,be0566c5-b0e2-497d-908b-26c640257201,letsprune@gmail.com,0,0,2015-10-27 15:10:53.280,2015-10-27 15:10:53.280,9999-12-31 23:59:59.997000,7d6c7c2b-5507-485f-a856-8c5eafaf2826
19,0f22250f-19d9-40cb-a436-21a031d648e3,fa636122-6043-49d1-aa2a-8c520653d581,jane@jane.com,0,0,2013-05-17 10:30:41.283,2013-05-17 10:30:41.283,9999-12-31 23:59:59.997000,6788befe-8bcd-4999-ad68-03f315351506
20,0f5e56bf-19e6-495e-830e-b59d62b35670,2d7bb615-124d-4904-ac6d-343b0bee578a,r@ndall.net,0,0,2015-04-16 12:33:14.233,2015-04-16 12:33:14.233,9999-12-31 23:59:59.997000,7d6c7c2b-5507-485f-a856-8c5eafaf2826
21,0f67573d-e080-450d-bc01-f715e90778bc,ec984a55-57d9-4480-a29d-b141013ba579,himoee@q.com,0,0,2018-04-18 15:08:18.037,2018-04-18 15:08:18.037,9999-12-31 23:59:59.997000,d1208c44-51c2-4916-b239-c88e04cccfb7
22,0fd09d77-5745-426c-b614-469fb28ba0b6,76eff766-f5bd-4054-9f0d-9324b098f715,ellienoeln@comcast.net,0,0,2018-03-23 15:40:20.183,2018-03-23 15:40:20.183,9999-12-31 23:59:59.997000,d1208c44-51c2-4916-b239-c88e04cccfb7
23,10ab3e56-6a80-458f-bdfa-3fea05216a39,30937daa-d9eb-4e68-92b0-27d2b264a365,mwilkins@cpimi.com,0,0,2018-01-16 13:16:52.470,2018-01-16 13:16:52.470,9999-12-31 23:59:59.997000,d1208c44-51c2-4916-b239-c88e04cccfb7
24,12369804-7038-4e6c-b701-a3b5876a0aee,f5a83250-7492-4dfa-aed2-a27baa48942c,sheli123@comcast.net,0,0,2015-10-12 08:36:03.747,2015-10-12 08:36:03.747,9999-12-31 23:59:59.997000,7d6c7c2b-5507-485f-a856-8c5eafaf2826
25,1296ea91-b2d0-4273-b051-17734a03ee0b,0e46ff5d-9b69-42d9-a18c-47ac5bf57c55,sherylpage0849@gmail.com,0,0,2014-02-05 13:38:04.777,2014-02-05 13:38:04.777,9999-12-31 23:59:59.997000,03ec4fdc-1f3d-468a-9bf6-685047148424
26,13e11a73-785b-4286-bb6b-4e376c6af3b3,27eafb27-4cdb-444f-95d6-28a4b7374412,mema1996@comcast.net,0,0,2013-05-11 08:09:24.933,2013-05-11 08:09:24.933,9999-12-31 23:59:59.997000,ffffffff-ffff-ffff-ffff-ffffffffffff
27,14eb56ff-6f5b-4bbf-903d-17803f5a9c3e,b36ec2f0-0cf3-4dd1-8045-17066bf4d13e,hspalteholz@cu-portland.edu,0,0,2015-03-18 10:40:20.803,2015-03-18 10:40:20.803,9999-12-31 23:59:59.997000,7d6c7c2b-5507-485f-a856-8c5eafaf2826
28,1655d138-bcf1-4090-ad7c-3b8850445a50,8bb21561-0eb5-49aa-a5a8-05809c6b6cf6,joel@joel.com,0,0,2013-05-17 11:26:54.587,2013-05-17 11:26:54.587,9999-12-31 23:59:59.997000,6788befe-8bcd-4999-ad68-03f315351506
29,17cafa10-9c0d-4700-a49f-8557b9c353aa,2b23f92e-a4d0-4fd2-bf4d-b253d36713a6,shariH@autumncares.com,0,0,2013-08-29 15:37:04.043,2013-08-29 15:37:04.043,9999-12-31 23:59:59.997000,ffffffff-ffff-ffff-ffff-ffffffffffff
30,1952ab93-b1cd-4b7f-b29c-e47db719c066,2bf7db82-6264-4756-9dc5-abd4295f8aa6,allan.howard@sci-us.com,0,0,2013-08-29 15:37:04.043,2013-08-29 15:37:04.043,9999-12-31 23:59:59.997000,ffffffff-ffff-ffff-ffff-ffffffffffff
31,1ab534be-64fa-4a6f-a85e-6f4cbdfa99bd,fffb280d-c4d2-4ef1-8923-51d461c5dfd6,tpldcd@frontier.com,0,0,2018-01-09 14:11:07.680,2018-01-09 14:11:07.680,9999-12-31 23:59:59.997000,d1208c44-51c2-4916-b239-c88e04cccfb7
32,1b748a68-ad1b-45b6-9fe5-05529a6d555e,a9f205dd-67ba-4f6d-946a-d00599dd43eb,reflikkfam@msn.com,0,0,2018-01-09 14:27:01.923,2018-01-09 14:27:01.923,9999-12-31 23:59:59.997000,d1208c44-51c2-4916-b239-c88e04cccfb7
33,1c1ad4fa-b7d7-4e75-ab76-0aa284eaec61,f54137f3-4fe1-4e9e-a9d7-8ee960b6c00e,clbright@comcast.net,0,0,2013-05-11 08:09:24.933,2013-05-11 08:09:24.933,9999-12-31 23:59:59.997000,ffffffff-ffff-ffff-ffff-ffffffffffff
34,1d0648a5-060f-4bcd-bc7a-762d9a6c8b98,c6dc321c-bb19-414f-ae6f-fb9180bc3deb,msbounds@hotmail.com,0,0,2014-09-11 16:14:14.250,2014-09-11 16:14:14.250,9999-12-31 23:59:59.997000,7d6c7c2b-5507-485f-a856-8c5eafaf2826
35,1f9e0a42-3629-49d7-8465-c52a0e13b29e,2baa8ee2-2834-4f1d-ac2b-f4b3cd39f8be,lgvogue@hotmail.com,0,0,2014-06-21 14:01:06.007,2014-06-21 14:01:06.007,9999-12-31 23:59:59.997000,7d6c7c2b-5507-485f-a856-8c5eafaf2826
36,20107c78-6673-46c2-be94-9e15d1588236,fd9e24e0-4e34-4ac8-a58d-f5de7ccf00f8,ali@oneillconstructiongroup.com,0,0,2017-09-18 10:32:05.953,2017-09-18 10:32:05.953,9999-12-31 23:59:59.997000,d1208c44-51c2-4916-b239-c88e04cccfb7
37,21b2d481-625c-4c5c-a241-f68f5e32c251,1d569f38-3837-4569-a3dd-79e339d525f8,legalcarthief@yahoo.com,0,0,2016-08-01 08:18:59.580,2016-08-01 08:18:59.580,9999-12-31 23:59:59.997000,7d6c7c2b-5507-485f-a856-8c5eafaf2826
38,21e74697-776e-4096-9b54-805a7747a61c,f55d05fb-31c1-49b7-87df-7d99c8863f88,clbright@comcast.net,0,0,2013-05-11 08:09:24.933,2013-05-11 08:09:24.933,9999-12-31 23:59:59.997000,ffffffff-ffff-ffff-ffff-ffffffffffff
39,2230574b-ad21-4bd4-a905-c52a6ec822bf,333d4b38-903d-4587-baf7-bfddce280d62,beckydresselhaus@mac.com,0,0,2014-06-30 14:29:33.130,2014-06-30 14:29:33.130,9999-12-31 23:59:59.997000,7d6c7c2b-5507-485f-a856-8c5eafaf2826
40,2263700f-9048-4fbb-a0c2-0578a20a1f8d,8d647fce-59ad-4f1d-b483-ebba30d9222d,orsileg@yahoo.com,0,0,2016-06-21 12:00:27.837,2016-06-21 12:00:27.837,9999-12-31 23:59:59.997000,7d6c7c2b-5507-485f-a856-8c5eafaf2826
41,22bbb391-a00e-4b44-9306-ae13e2eaa064,e56c4eba-c19f-4a24-b246-7c975ccf0a61,clgillick@embarqmail.com,0,0,2013-05-11 08:09:24.933,2013-05-11 08:09:24.933,9999-12-31 23:59:59.997000,ffffffff-ffff-ffff-ffff-ffffffffffff
42,2497722f-a577-4b44-bcbd-277dd029e906,6d16ae72-7b5a-4fa7-b655-4e1ce704ba45,mccormv@teleport.com,0,0,2013-05-11 08:09:24.933,2013-05-11 08:09:24.933,9999-12-31 23:59:59.997000,ffffffff-ffff-ffff-ffff-ffffffffffff
43,25df5cdf-a46d-4748-8862-15f080896765,137d0bb2-acad-4b2c-9457-8f8f4029ad3c,shimiri@comcast.net,0,0,2013-05-11 08:09:24.933,2013-05-11 08:09:24.933,9999-12-31 23:59:59.997000,ffffffff-ffff-ffff-ffff-ffffffffffff
44,2640decd-0033-461c-97b9-42a4d278e098,d8f9d3f1-f17b-41a6-bc38-c4428a4ff954,godseys@localaccess.com,0,0,2013-05-11 08:09:24.933,2013-05-11 08:09:24.933,9999-12-31 23:59:59.997000,ffffffff-ffff-ffff-ffff-ffffffffffff
45,26ea0a6a-63fb-4a28-a4ec-c55b659badf2,e12b5747-c220-48fa-8d41-c05cc7550b2f,imawells@gmail.com,0,0,2015-08-28 09:29:33.007,2015-08-28 09:29:33.007,9999-12-31 23:59:59.997000,7d6c7c2b-5507-485f-a856-8c5eafaf2826
46,27c27878-548f-4a11-a203-81c5b46b1cf8,14d00c61-f189-4500-9b12-87f1b361bdf9,lindysj@msn.com,0,0,2015-08-12 16:35:14.700,2015-08-12 16:35:14.700,9999-12-31 23:59:59.997000,7d6c7c2b-5507-485f-a856-8c5eafaf2826
47,28028b64-199f-43c7-8f56-d144eec6c5c3,16417237-1a55-4ea3-bef6-e82ea103ae71,adeledt@live.com,0,0,2015-09-03 12:59:09.713,2015-09-03 12:59:09.713,9999-12-31 23:59:59.997000,7d6c7c2b-5507-485f-a856-8c5eafaf2826
48,2813134f-455f-4b88-abfe-3ae957aaa39d,3e7b056f-ac5c-4bfe-8152-9cad7a17a644,masgms12@gmail.com,0,0,2017-01-26 15:33:58.883,2017-01-26 15:33:58.883,9999-12-31 23:59:59.997000,d1208c44-51c2-4916-b239-c88e04cccfb7
49,294520dc-58b9-4ba6-bd09-d6dffca35063,2e827475-0a31-459f-a117-5f71acb55ef0,zoenicolina@yahoo.com,0,0,2013-05-11 08:09:24.933,2013-05-11 08:09:24.933,9999-12-31 23:59:59.997000,ffffffff-ffff-ffff-ffff-ffffffffffff
50,29c9df43-237b-4954-8def-623f283ee103,f57e5c5b-1cf6-4cc8-8b1d-e8656c90e71d,jakkers@gci.net,0,0,2017-09-01 16:36:38.780,2017-09-01 16:36:38.780,9999-12-31 23:59:59.997000,d1208c44-51c2-4916-b239-c88e04cccfb7
51,2a8c149e-f0ed-41a3-a560-cd474ef320f6,20f8a9b6-da84-412b-9236-94b2f4ab20f9,pahin7@yahoo.com,0,0,2015-04-16 14:01:31.507,2015-04-16 14:01:31.507,9999-12-31 23:59:59.997000,7d6c7c2b-5507-485f-a856-8c5eafaf2826
52,2ae4a52f-7489-4f24-a385-e3d5779efebc,d4f6cf85-d936-449d-a3d3-ab24f430acdc,best-mark@hotmail.com,0,0,2014-05-15 15:41:45.357,2014-05-15 15:41:45.357,9999-12-31 23:59:59.997000,03ec4fdc-1f3d-468a-9bf6-685047148424
53,2ae6bc75-517b-482d-a610-468f59acd79d,115d9cef-3d8d-4c36-86f0-fdf677678580,sharonsusanka@yahoo.com,0,0,2015-10-12 13:56:09.777,2015-10-12 13:56:09.777,9999-12-31 23:59:59.997000,7d6c7c2b-5507-485f-a856-8c5eafaf2826
54,2bf36505-dd75-4f88-97fe-af8258ba6f0d,a8a9c4a9-dbfa-4f17-8466-25cc150b9d11,mltev@comcast.net,0,0,2016-05-23 12:05:52.003,2016-05-23 12:05:52.003,9999-12-31 23:59:59.997000,7d6c7c2b-5507-485f-a856-8c5eafaf2826
55,2f0d833f-ffa1-48f3-89c4-ea437935db3f,f669fe1a-a6de-4fc3-9758-40d081b3b256,dlbran@aol.com,0,0,2013-05-11 08:09:24.933,2013-05-11 08:09:24.933,9999-12-31 23:59:59.997000,ffffffff-ffff-ffff-ffff-ffffffffffff
56,2f6c681e-774b-4e66-8543-44b7e503c628,3db808f2-bf31-4416-94e3-70a469600e25,5032816689,0,0,2013-05-11 08:09:24.933,2013-05-11 08:09:24.933,9999-12-31 23:59:59.997000,ffffffff-ffff-ffff-ffff-ffffffffffff
57,2fb7ee4b-9eb9-4051-9b4b-aa40e1bcdcb4,ea7f60ca-0f02-41fe-bc72-72b9f2a2ad9e,katieh@clackamas.edu,0,0,2013-05-11 08:09:24.933,2013-05-11 08:09:24.933,9999-12-31 23:59:59.997000,ffffffff-ffff-ffff-ffff-ffffffffffff
58,2ffdae7a-6d21-4d32-966e-54178ec299df,341638a4-c178-4550-884c-9a9b562e329e,dabelyea@frontier.com,0,0,2015-09-03 19:23:54.177,2015-09-03 19:23:54.177,9999-12-31 23:59:59.997000,7d6c7c2b-5507-485f-a856-8c5eafaf2826
59,30787d1b-e561-4afd-acbe-b02de3401c96,376334c4-dd20-482c-a65b-2bd41949cea4,patdeuchar@gmail.com,0,0,2015-10-05 15:04:33.453,2015-10-05 15:04:33.453,9999-12-31 23:59:59.997000,7d6c7c2b-5507-485f-a856-8c5eafaf2826
60,309919bc-8884-4c63-a97a-e0b73aa1795d,8961de79-e532-4709-bafa-cd3a717a2dba,debil@norco-inc.com,0,0,2017-01-31 11:29:54.163,2017-01-31 11:29:54.163,9999-12-31 23:59:59.997000,d1208c44-51c2-4916-b239-c88e04cccfb7
61,30b1a3f8-fbea-4f61-9148-7dd4885a7c17,42a48f8b-681d-4f1e-9902-dd4e738b8f4c,ilifont@hotmail.com,0,0,2013-05-11 08:09:24.933,2013-05-11 08:09:24.933,9999-12-31 23:59:59.997000,ffffffff-ffff-ffff-ffff-ffffffffffff
62,320be394-c9be-4506-9895-59e3a8274b26,97e12f44-281e-48b5-9a5a-08ae1eefe464,simplyshockingllc@gmail.com,0,0,2017-01-31 11:29:54.410,2017-01-31 11:29:54.410,9999-12-31 23:59:59.997000,d1208c44-51c2-4916-b239-c88e04cccfb7
63,347f3f2b-556b-4fff-b717-e373ba68284d,c2944ea6-c7f5-4599-9cac-5b3a1739f256,Loc4868@sci-us.com,0,0,2013-08-29 15:37:04.043,2013-08-29 15:37:04.043,9999-12-31 23:59:59.997000,ffffffff-ffff-ffff-ffff-ffffffffffff
64,3610f19b-052c-4726-b53a-0b4aeecf61e3,85bc7996-c93f-4805-a3a0-a04ea3746ec3,editor@midcountrymemo.com,0,0,2017-03-02 13:47:49.717,2017-03-02 13:47:49.717,9999-12-31 23:59:59.997000,d1208c44-51c2-4916-b239-c88e04cccfb7
65,3677ae32-fa2f-4a8c-bc64-6d7d43a23d5b,ad8fc264-8db2-43cb-839a-feb62ac60655,jennifer_lumber@yahoo.com,0,0,2013-10-23 13:53:35.930,2013-10-23 13:53:35.930,9999-12-31 23:59:59.997000,7d6c7c2b-5507-485f-a856-8c5eafaf2826
66,3714069b-21a2-45c5-a711-cc7a217b8062,5a823add-86d4-4501-9893-b6cbd4b4b2b3,yardslave@wavecable.com,0,0,2013-05-11 08:09:24.933,2013-05-11 08:09:24.933,9999-12-31 23:59:59.997000,ffffffff-ffff-ffff-ffff-ffffffffffff
67,375c9471-5391-418b-9570-3637f66087e5,962b812c-097c-41c7-8482-8a0cfce5c648,malina.neville@gmail.com,0,0,2017-07-05 15:41:43.873,2017-07-05 15:41:43.873,9999-12-31 23:59:59.997000,d1208c44-51c2-4916-b239-c88e04cccfb7
68,37e72ba9-2cc3-4cd1-b69c-ecbaf724e33f,463d532a-39b3-46d2-ba2c-fc042855bbb4,jsdod04@comcast.net,0,0,2015-03-18 19:04:22.563,2015-03-18 19:04:22.563,9999-12-31 23:59:59.997000,7d6c7c2b-5507-485f-a856-8c5eafaf2826
69,37f6fed4-8fe6-4392-9986-393192fe0a60,d425bade-9740-4726-b238-213f9ff18be6,lisahum720@hotmail.com,0,0,2013-05-11 08:09:24.933,2013-05-11 08:09:24.933,9999-12-31 23:59:59.997000,ffffffff-ffff-ffff-ffff-ffffffffffff
70,37fa4f81-ff30-4a95-a518-8ba3237c27e5,56b1a6f6-6676-4f48-beb2-7a7dc51a99f8,w49ers@aol.com,0,0,2017-06-22 16:34:39.383,2017-06-22 16:34:39.383,9999-12-31 23:59:59.997000,d1208c44-51c2-4916-b239-c88e04cccfb7
71,380ad270-0221-4aea-b307-4df530c2cc47,b485767d-449f-42d2-a7f9-0dc1ec533bf0,eric_nelson_@msn.com,0,0,2013-05-11 08:09:24.933,2013-05-11 08:09:24.933,9999-12-31 23:59:59.997000,ffffffff-ffff-ffff-ffff-ffffffffffff
72,3866e0f7-3ffe-4442-8e80-e0af942e94b5,b2291fbb-dd03-491a-a566-ffa477ae480e,greshammemorial@verizon.net,0,0,2013-08-29 15:37:04.043,2013-08-29 15:37:04.043,9999-12-31 23:59:59.997000,ffffffff-ffff-ffff-ffff-ffffffffffff
73,3a0b94c2-fcb4-4c2d-881d-f9793ef5d6f8,a9b9490e-fb91-4fbd-9eac-93928312d3e7,info@terryfamilyfuneralhome.com,0,0,2013-08-29 15:37:04.043,2013-08-29 15:37:04.043,9999-12-31 23:59:59.997000,ffffffff-ffff-ffff-ffff-ffffffffffff
74,3c1126e1-768a-4f85-bbc0-0283a4c3fd64,7d7ffdbb-6126-4df0-88f4-0eeaee905df2,dwight.terry@comcast.net,0,0,2018-07-20 14:59:33.420,2018-07-20 14:59:33.420,9999-12-31 23:59:59.997000,d1208c44-51c2-4916-b239-c88e04cccfb7
75,3d005f88-f341-4fae-9d82-597062b90ef7,a94c9276-9f8a-46bb-ac8e-8d36fa35114d,letsprune@gmail.com,0,0,2015-10-27 15:10:53.590,2015-10-27 15:10:53.590,9999-12-31 23:59:59.997000,7d6c7c2b-5507-485f-a856-8c5eafaf2826
76,3d27ccd1-062a-4068-bf3c-0faec3578f1c,d5520ec1-98a0-48e8-9c69-a91504d78d8e,rhint@stonemor.com,0,0,2015-12-18 12:56:04.557,2015-12-18 12:56:04.557,9999-12-31 23:59:59.997000,d4c888ee-889b-4a27-876d-c146de51ff3a
77,3d8ed5f4-f249-4e68-bcfc-f7c5c261ccec,5384b2fb-2078-44ee-b4a8-835e05c2c4af,kpf3591@hotmail.com,0,0,2017-01-27 16:38:08.137,2017-01-27 16:38:08.137,9999-12-31 23:59:59.997000,d1208c44-51c2-4916-b239-c88e04cccfb7
78,3d965de6-6b5d-43a8-a257-37b5480d21f6,7240245f-ef8b-4c38-b392-96906f1c01f3,Wilmac@aol.com,0,0,2014-03-13 16:05:21.660,2014-03-13 16:05:21.660,9999-12-31 23:59:59.997000,03ec4fdc-1f3d-468a-9bf6-685047148424
79,3f4dd97a-da0c-4546-b891-0e7b4b8f627e,b33eff75-d271-468e-be18-e8f075b18eda,clafky@gmail.com,0,0,2017-05-04 17:02:14.840,2017-05-04 17:02:14.840,9999-12-31 23:59:59.997000,d1208c44-51c2-4916-b239-c88e04cccfb7
80,4002fc9a-1eb4-4e02-8625-0e55e4a2d412,c3cf2374-0c77-4f9a-980b-374b3ba48196,claudeen11@gmail.com,0,0,2017-10-03 16:35:03.080,2017-10-03 16:35:03.080,9999-12-31 23:59:59.997000,d1208c44-51c2-4916-b239-c88e04cccfb7
81,4028805d-5b34-42c4-895a-a3efee51049e,eeb44915-5eca-4c30-82ea-44d2a9f2df82,orangewingnc@gmail.com,0,0,2016-05-06 19:03:31.607,2016-05-06 19:03:31.607,9999-12-31 23:59:59.997000,7d6c7c2b-5507-485f-a856-8c5eafaf2826
82,40ae9075-2e38-4d23-91e4-3025cb6c6694,6854bf70-8f78-41b8-bdb9-fe8469e4c48d,tarasparkman@yahoo.com,0,0,2018-07-17 13:01:15.093,2018-07-17 13:01:15.093,9999-12-31 23:59:59.997000,d1208c44-51c2-4916-b239-c88e04cccfb7
83,414b44e6-ba39-4059-a481-443ec1e18d84,13e0111c-b7ae-4d99-9b06-2cdfff189a2b,mikestarring@yahoo.com,0,0,2018-03-23 15:29:20.257,2018-03-23 15:29:20.257,9999-12-31 23:59:59.997000,d1208c44-51c2-4916-b239-c88e04cccfb7
84,42200bf4-39ce-4fdb-b757-ed9db18a8bae,604500bb-fa92-4f9c-bf33-4b59781fc47f,jjufisher@googlemail.com,0,0,2017-10-20 11:01:27.203,2017-10-20 11:01:27.203,9999-12-31 23:59:59.997000,d1208c44-51c2-4916-b239-c88e04cccfb7
85,422a8a47-0d93-4b1e-8e8b-f7d6a65fcde1,ac32836a-962b-4591-a758-5f884fa39631,majlis@aol.com,0,0,2017-11-02 18:55:23.420,2017-11-02 18:55:23.420,9999-12-31 23:59:59.997000,d1208c44-51c2-4916-b239-c88e04cccfb7
86,427165f5-03f0-4a22-842d-610bb80a5bc3,54e25678-baec-4603-8864-aacd1dab2bec,gpabbs@aol.com,0,0,2018-03-08 17:43:39.970,2018-03-08 17:43:39.970,9999-12-31 23:59:59.997000,d1208c44-51c2-4916-b239-c88e04cccfb7
87,44343b2a-f002-46cf-8d1f-fcb1976f3e66,06a23c59-fdac-477f-bcd4-e9a7aec5e4b9,skvk47@gmail.com,0,0,2018-07-25 17:01:52.693,2018-07-25 17:01:52.693,9999-12-31 23:59:59.997000,d1208c44-51c2-4916-b239-c88e04cccfb7
88,44e0768c-2fef-4889-b0b6-4f8d652c4271,b1f958c8-1eb2-47e8-a72b-69096ffc1a6c,godseys@localaccess.com,0,0,2013-05-11 08:09:24.933,2013-05-11 08:09:24.933,9999-12-31 23:59:59.997000,ffffffff-ffff-ffff-ffff-ffffffffffff
89,457b7338-b459-4657-801b-7cdebedc4cd5,60aabbc9-7310-4e9a-bc08-7399eb440a21,mlwtran@gmail.com,0,0,2013-05-11 08:09:24.933,2013-05-11 08:09:24.933,9999-12-31 23:59:59.997000,ffffffff-ffff-ffff-ffff-ffffffffffff
90,45fc9626-9785-47d7-8160-0078962e3217,f3047d78-f26c-45b4-8700-52fc4a0ab272,theskyismyfather@gmail.com,0,0,2015-08-03 15:27:37.963,2015-08-03 15:27:37.963,9999-12-31 23:59:59.997000,7d6c7c2b-5507-485f-a856-8c5eafaf2826
91,461423eb-f519-4c4e-a55e-01f22e92113c,4350babf-96d7-43be-a108-84ee0e9e1121,yagerp@uw.edu,0,0,2018-07-17 12:53:21.980,2018-07-17 12:53:21.980,9999-12-31 23:59:59.997000,d1208c44-51c2-4916-b239-c88e04cccfb7
92,4b408845-b2ba-4ed4-ae71-7686206f2168,2a5d5677-8051-4732-a88e-23d11f012b43,starinkmax@yahoo.com,0,0,2015-05-06 14:56:34.967,2015-05-06 14:56:34.967,9999-12-31 23:59:59.997000,7d6c7c2b-5507-485f-a856-8c5eafaf2826
93,4baf9413-aad1-41ee-9e6d-221ad49deb86,eaa6c965-e6e5-4a6b-bc75-693134e87bec,JacobsenM50@gmail.com,0,0,2015-04-29 15:39:54.017,2015-04-29 15:39:54.017,9999-12-31 23:59:59.997000,7d6c7c2b-5507-485f-a856-8c5eafaf2826
94,4c034d60-ab8b-459d-9175-61c3e74ec806,c46473b1-109b-4863-96fd-c408fac60605,jcswlyons@q.com,0,0,2017-02-06 14:20:26.810,2017-02-06 14:20:26.810,9999-12-31 23:59:59.997000,d1208c44-51c2-4916-b239-c88e04cccfb7
95,4c34db21-a27c-4dcc-a756-d0faa4fdcdae,90de9ff3-d1d1-4801-a473-943eb18bff36,Natasha.tjaarda@dignitymemorial.com,0,0,2013-08-29 15:37:04.043,2013-08-29 15:37:04.043,9999-12-31 23:59:59.997000,ffffffff-ffff-ffff-ffff-ffffffffffff
96,4d4a8763-dce3-458b-8808-3000bdd3f044,37650395-cc86-4be6-bb14-e87c2bcbc8ff,beckersm53@gmail.com,0,0,2014-03-31 12:59:36.530,2014-03-31 12:59:36.530,9999-12-31 23:59:59.997000,03ec4fdc-1f3d-468a-9bf6-685047148424
97,4d4dd5c7-1a68-4662-a0d8-f79095217d1a,ff7c459b-7519-4939-a4af-25178997080f,chipentannet@gmail.com,0,0,2017-04-07 16:21:30.077,2017-04-07 16:21:30.077,9999-12-31 23:59:59.997000,d1208c44-51c2-4916-b239-c88e04cccfb7
98,4db88dc4-79ec-4181-a905-7627b2ec7ce3,94ade846-2fd8-4e48-87b6-ffa57afd1779,rosecitycemetery@qwestoffice.net,0,0,2013-08-29 15:37:04.043,2013-08-29 15:37:04.043,9999-12-31 23:59:59.997000,ffffffff-ffff-ffff-ffff-ffffffffffff
99,4e0e4475-193e-4659-8577-1fc2c662b786,5f21839f-2fc4-4074-82e1-cd079d3d16c6,stepa7@netzero.net,0,0,2016-02-02 11:20:12.380,2016-02-02 11:20:12.380,9999-12-31 23:59:59.997000,7d6c7c2b-5507-485f-a856-8c5eafaf2826
100,4e8d6352-6959-4037-a99f-38b3f371116e,4a6a167c-ee48-440d-93ef-716f399c88af,loonery@yahoo.com,0,0,2013-05-11 08:09:24.933,2013-05-11 08:09:24.933,9999-12-31 23:59:59.997000,ffffffff-ffff-ffff-ffff-ffffffffffff
101,4f69514a-3dfb-4eca-a3d0-d23508cff738,d081a0b9-c5c0-4a80-a8c8-bb88931a9a03,shirleyrackner@comcast.net,0,0,2014-07-01 17:04:39.113,2014-07-01 17:04:39.113,9999-12-31 23:59:59.997000,7d6c7c2b-5507-485f-a856-8c5eafaf2826
102,4fff1c14-3086-491e-b93e-415dc5c38721,6f2b0d3b-66bf-489c-9afc-2ac3b7b0e7b6,billnverlie@gmail.com,0,0,2015-12-28 13:53:14.487,2015-12-28 13:53:14.487,9999-12-31 23:59:59.997000,7d6c7c2b-5507-485f-a856-8c5eafaf2826
103,50b42b76-ae96-4b73-ad78-11446ab1a119,28e9eb06-c7d7-4f6c-8d9b-3d2b44a4e628,reiff.john@gmail.com,0,0,2014-03-13 16:21:21.483,2014-03-13 16:21:21.483,9999-12-31 23:59:59.997000,03ec4fdc-1f3d-468a-9bf6-685047148424
104,510a8c23-1654-45dd-918e-d11974ca5082,2809d5a5-f21e-4f30-93ad-4157e84892de,john.malowney@pgn.com,0,0,2014-12-26 15:30:10.917,2014-12-26 15:30:10.917,9999-12-31 23:59:59.997000,7d6c7c2b-5507-485f-a856-8c5eafaf2826
105,5120d242-8378-4413-b20e-09aa564de2b6,692d6cdd-0595-4a64-b692-95d61a3ec6d2,billiedtig@yahoo.com,0,0,2014-11-17 10:59:19.257,2014-11-17 10:59:19.257,9999-12-31 23:59:59.997000,7d6c7c2b-5507-485f-a856-8c5eafaf2826
106,52b2f6a2-6bc3-4c1c-9fb8-427fbdc720aa,13d50d11-ada4-415e-a7d4-2563fc10725a,jnoecker@iinet.com,0,0,2015-03-30 10:06:32.230,2015-03-30 10:06:32.230,9999-12-31 23:59:59.997000,7d6c7c2b-5507-485f-a856-8c5eafaf2826
107,53edd37d-7ca0-4abe-a498-a6f4267f7b0c,74f96713-b495-4667-8c8b-f84d064e19ea,lindakayneal@gmail.com,0,0,2015-08-28 10:27:27.870,2015-08-28 10:27:27.870,9999-12-31 23:59:59.997000,7d6c7c2b-5507-485f-a856-8c5eafaf2826
108,55bb8d1a-43fc-4355-838f-5339fc3e1d8b,25b5d302-6a32-46ab-8521-c33b2b30263f,lawrence.conrad@comcast.net,0,0,2015-06-17 15:50:47.370,2015-06-17 15:50:47.370,9999-12-31 23:59:59.997000,7d6c7c2b-5507-485f-a856-8c5eafaf2826
109,560dc6d2-3a0a-480a-9548-018d395c5cf6,c14dacbf-ef2d-4639-a54e-14b37327d245,jdt@sunnysidechimes.com,0,0,2013-08-29 15:37:04.043,2013-08-29 15:37:04.043,9999-12-31 23:59:59.997000,ffffffff-ffff-ffff-ffff-ffffffffffff
110,5675de6d-82a8-4685-8e95-6fa988e49ca9,a1216627-1a27-4130-bfb2-b5f4e61df3b5,hustadfuneralhome@gmail.com,0,0,2013-08-29 15:37:04.043,2013-08-29 15:37:04.043,9999-12-31 23:59:59.997000,ffffffff-ffff-ffff-ffff-ffffffffffff
111,56e24efd-7231-4888-9310-45aabf443d83,61242ca6-b38b-4678-9926-c2abefe007aa,Swells24496@gmail.com,0,0,2013-08-29 15:37:04.043,2013-08-29 15:37:04.043,9999-12-31 23:59:59.997000,ffffffff-ffff-ffff-ffff-ffffffffffff
112,5700c54c-12c7-4a49-bf7e-28678e63e696,db3e6a56-3f92-4ef8-8c7d-6f07c3aeeff6,rubinjand@yahoo.com,0,0,2013-05-11 08:09:24.933,2013-05-11 08:09:24.933,9999-12-31 23:59:59.997000,ffffffff-ffff-ffff-ffff-ffffffffffff
113,577e3afc-9451-4a43-8e41-a15f2df6389a,33508c82-a818-47fb-a6b7-3129a92fd014,chehalisbrown@yahoo.com,0,0,2015-04-27 13:53:29.283,2015-04-27 13:53:29.283,9999-12-31 23:59:59.997000,7d6c7c2b-5507-485f-a856-8c5eafaf2826
114,57b69158-68de-458d-81ed-7c6ffa679cc2,6af5ad18-b40b-4b3b-931f-e6380c1c12fb,zarinavn@yahoo.com,0,0,2015-01-26 14:38:32.690,2015-01-26 14:38:32.690,9999-12-31 23:59:59.997000,7d6c7c2b-5507-485f-a856-8c5eafaf2826
115,57fda0f3-55ad-41cf-ae41-9848156a5518,31b8a940-238e-46f4-85ae-8cc0fcdefee6,plehne@earthlink.net,0,0,2013-05-11 08:09:24.933,2013-05-11 08:09:24.933,9999-12-31 23:59:59.997000,ffffffff-ffff-ffff-ffff-ffffffffffff
116,5a8d32f5-c5d5-4230-82e2-4a8d52e8763d,774428a8-3cb8-4391-8eb5-7d592d6657ff,steveraftopoulos@me.com,0,0,2018-07-06 17:05:18.497,2018-07-06 17:05:18.497,9999-12-31 23:59:59.997000,d1208c44-51c2-4916-b239-c88e04cccfb7
117,5b6ddaa9-cbc5-46fe-8487-868ebd5e90fb,5668840b-a937-4bc5-ba44-6ac772512093,jhnhns@aol.com,0,0,2017-01-20 13:41:36.927,2017-01-20 13:41:36.927,9999-12-31 23:59:59.997000,d1208c44-51c2-4916-b239-c88e04cccfb7
118,5c442734-213b-4f88-8840-74dadb7e624b,73b1e940-3daf-44ee-93e3-29a31b2124d2,clbright@comcast.net,0,0,2013-05-11 08:09:24.933,2013-05-11 08:09:24.933,9999-12-31 23:59:59.997000,ffffffff-ffff-ffff-ffff-ffffffffffff
119,5c4c4359-a0e8-460f-9965-13b0033000b8,7a6306e3-7d30-4859-a1e6-853ea64f3113,charlessturdavant@gmail.com,0,0,2017-06-26 13:49:57.590,2017-06-26 13:49:57.590,9999-12-31 23:59:59.997000,d1208c44-51c2-4916-b239-c88e04cccfb7
120,5cd8919a-dc33-4aba-bdb3-0e75eeaa7c8b,cad38a28-c832-43eb-97a6-587f1987940c,emailterryd@yahoo.com,0,0,2014-08-05 15:28:46.327,2014-08-05 15:28:46.327,9999-12-31 23:59:59.997000,7d6c7c2b-5507-485f-a856-8c5eafaf2826
121,5d824cc2-85a3-46ea-ae4b-8a852b2682e7,8020291c-a780-4ff3-b9ac-97ac06ddd325,bjhsjh@netzero.net,0,0,2017-06-26 14:07:33.347,2017-06-26 14:07:33.347,9999-12-31 23:59:59.997000,d1208c44-51c2-4916-b239-c88e04cccfb7
122,5e316f6a-f719-4a79-bb25-4bb88151b7c9,d5800e2a-62f6-4338-a0af-8a5f95450cf8,barthmaier@comcast.net,0,0,2014-04-14 13:05:39.433,2014-04-14 13:05:39.433,9999-12-31 23:59:59.997000,03ec4fdc-1f3d-468a-9bf6-685047148424
123,5e756b5e-4b19-4f07-844a-3d4ef7e139c3,e8812180-afd3-4620-ad1a-678002d94ccd,siegelg@pdx.edu,0,0,2015-03-30 12:20:30.807,2015-03-30 12:20:30.807,9999-12-31 23:59:59.997000,7d6c7c2b-5507-485f-a856-8c5eafaf2826
124,5e98da1f-8bd4-41e2-87e8-d777a14d7475,378844f9-e57d-4eb2-937b-cb011317712d,jamesfwhite4@aol.com,0,0,2013-05-11 08:09:24.933,2013-05-11 08:09:24.933,9999-12-31 23:59:59.997000,ffffffff-ffff-ffff-ffff-ffffffffffff
125,60c1da53-5f5e-428d-bc5b-e1b31cda4a3a,4a2322df-6252-43c6-87a4-d874677521b5,carolspeak@yahoo.com,0,0,2017-10-16 12:57:47.223,2017-10-16 12:57:47.223,9999-12-31 23:59:59.997000,d1208c44-51c2-4916-b239-c88e04cccfb7
126,62cb712e-5ef7-4670-9394-58d24077e81c,d2d135a4-8c77-4da2-b8be-2ae383fb1aac,dena.wilson@multco.us,0,0,2013-12-26 13:15:06.107,2013-12-26 13:15:06.107,9999-12-31 23:59:59.997000,03ec4fdc-1f3d-468a-9bf6-685047148424
127,62d077bd-40a6-4ae8-a93e-b1c2d9661bb0,b39d7173-bf3c-4255-bca3-2963af401b4b,sharonpalmer1@live.com,0,0,2017-05-04 16:38:17.913,2017-05-04 16:38:17.913,9999-12-31 23:59:59.997000,d1208c44-51c2-4916-b239-c88e04cccfb7
128,62ed83e2-37cc-433c-8bd5-84cb3492fab3,ec54d793-3784-40ae-99be-5cb41c16747f,cassandra.lea78@gmail.com,0,0,2017-03-03 16:05:07.323,2017-03-03 16:05:07.323,9999-12-31 23:59:59.997000,d1208c44-51c2-4916-b239-c88e04cccfb7
129,653af9d9-e299-4eb3-b84e-0feb9220506f,4f081e62-0711-4131-8f9e-d5b8e6006677,shawnatanner@yahoo.com,0,0,2013-08-29 15:37:04.043,2013-08-29 15:37:04.043,9999-12-31 23:59:59.997000,ffffffff-ffff-ffff-ffff-ffffffffffff
130,66c79048-4b93-472f-add7-ae216a8c2b67,2c471f37-7f32-4725-9b80-bc245c4e97f0,meikamlee@gmail.com,0,0,2017-09-01 12:44:39.513,2017-09-01 12:44:39.513,9999-12-31 23:59:59.997000,d1208c44-51c2-4916-b239-c88e04cccfb7
131,66cdcb62-d2b6-4740-82c3-3a0a8e391207,09811cb2-434f-493f-b5c9-12012954d771,psheehey@comcast.net,0,0,2017-01-20 13:54:57.080,2017-01-20 13:54:57.080,9999-12-31 23:59:59.997000,d1208c44-51c2-4916-b239-c88e04cccfb7
132,66f45cd1-d75d-4524-b2f4-e5dad4e544b9,689dd08f-0231-4897-930c-afb8150f606a,jbade617@yahoo.com,0,0,2017-06-26 13:14:56.300,2017-06-26 13:14:56.300,9999-12-31 23:59:59.997000,d1208c44-51c2-4916-b239-c88e04cccfb7
133,670ed699-fe83-41c9-aa27-7ddeb63ea80d,befb2d48-f7d6-49a1-8c12-4b95bf10774a,meckel.traver@gmail.com,0,0,2017-05-05 11:40:13.680,2017-05-05 11:40:13.680,9999-12-31 23:59:59.997000,d1208c44-51c2-4916-b239-c88e04cccfb7
134,67d5ccb0-974e-4cbf-9131-210f5d73b4cc,8c06d572-9a07-454c-85cc-9b66b74368e8,jnt@springerandson.com,0,0,2013-08-29 15:37:04.043,2013-08-29 15:37:04.043,9999-12-31 23:59:59.997000,ffffffff-ffff-ffff-ffff-ffffffffffff
135,67d65eb7-788e-4c8d-a93c-c816def1c3c4,dd6def3c-58ec-4bff-912d-cd558ac317c5,emilymwilson&comcast.net,0,0,2013-05-11 08:09:24.933,2013-05-11 08:09:24.933,9999-12-31 23:59:59.997000,ffffffff-ffff-ffff-ffff-ffffffffffff
136,681f1b4e-c68c-4a32-b67e-05e709c8f052,f401e015-fce8-416e-9d19-e9cf0016a388,melhobgood@hotmail.com,0,0,2013-05-11 08:09:24.933,2013-05-11 08:09:24.933,9999-12-31 23:59:59.997000,ffffffff-ffff-ffff-ffff-ffffffffffff
137,68f001a6-af08-4363-8fb9-7bb0c787602b,f24e4832-7961-46a0-93b6-c154bceb762b,liemam.noel@gmail.com,0,0,2017-04-07 16:21:30.153,2017-04-07 16:21:30.153,9999-12-31 23:59:59.997000,d1208c44-51c2-4916-b239-c88e04cccfb7
138,69e5102d-2b99-46df-b5bf-84f1aa8cee48,b9f219c6-e7c5-466f-973c-5204d001a4dc,jharper_55@msn.com,0,0,2016-07-22 13:28:40.657,2016-07-22 13:28:40.657,9999-12-31 23:59:59.997000,7d6c7c2b-5507-485f-a856-8c5eafaf2826
139,6b5a2335-bc19-4539-b102-aaa7115a2d6f,92b15903-a664-44b1-8bdd-02e1198157a1,plehne@earthlink.net,0,0,2013-05-11 08:09:24.933,2013-05-11 08:09:24.933,9999-12-31 23:59:59.997000,ffffffff-ffff-ffff-ffff-ffffffffffff
140,6c494683-635e-4510-9db7-1e1040216037,32d2ea77-3511-48af-a700-1b752b3f44a7,bobtail26us@yahoo.com,0,0,2013-05-11 08:09:24.933,2013-05-11 08:09:24.933,9999-12-31 23:59:59.997000,ffffffff-ffff-ffff-ffff-ffffffffffff
141,6c7842e1-0ee0-4af2-a91d-9e864bab6131,a8ab6e5d-17dc-4635-a4d7-9860dc7a40f0,liyasafonova@yahoo.com,0,0,2018-01-16 13:01:58.570,2018-01-16 13:01:58.570,9999-12-31 23:59:59.997000,d1208c44-51c2-4916-b239-c88e04cccfb7
142,6ce4e818-11ed-430c-b4f0-bccfe4a4839c,b19eb853-8f8c-46d1-93f9-4cfa4be23569,beaverbase@aol.com,0,0,2013-05-11 08:09:24.933,2013-05-11 08:09:24.933,9999-12-31 23:59:59.997000,ffffffff-ffff-ffff-ffff-ffffffffffff
143,6cf7d1d2-89de-48e6-ba5f-4737025812ba,d89c94fe-521b-4960-a6b0-bb6af5c87945,zanki44@netzero.com,0,0,2015-11-18 12:01:39.690,2015-11-18 12:01:39.690,9999-12-31 23:59:59.997000,7d6c7c2b-5507-485f-a856-8c5eafaf2826
144,6d4b6d76-0a36-4ae5-8b1b-d3d8c172ab01,2e1ab066-8bc4-4d45-9162-cbccbe5d10cf,leemcintyre@rcn.com,0,1,2014-09-25 17:13:16.393,2014-10-10 13:59:35.180,9999-12-31 23:59:59.997000,7d6c7c2b-5507-485f-a856-8c5eafaf2826
145,6f3d1c35-4c5c-4b36-8f8d-49aa4279dfaf,b118e111-04dc-4a25-9d22-4de38e9d0288,lo.phai@gmail.com,0,0,2017-01-27 15:52:59.687,2017-01-27 15:52:59.687,9999-12-31 23:59:59.997000,d1208c44-51c2-4916-b239-c88e04cccfb7
146,7118a45b-2102-4972-977a-757fad64b091,84fc7aad-fcbd-4289-aaf8-c263259198a5,pahin7@yahoo.com,0,0,2017-01-26 10:50:37.193,2017-01-26 10:50:37.193,9999-12-31 23:59:59.997000,d1208c44-51c2-4916-b239-c88e04cccfb7
147,71e09b7b-1029-4100-9e2b-b53376c9cb91,1712fd38-d99a-4dd7-8f9c-39c0b58b96ea,lemanti@pacinfo.com,0,0,2013-05-11 08:09:24.933,2013-05-11 08:09:24.933,9999-12-31 23:59:59.997000,ffffffff-ffff-ffff-ffff-ffffffffffff
148,72d2d899-9844-42a8-96fa-d87a73b5f0ac,251cf7c3-7e75-4241-b9da-4164193c326f,jscrafford123@gmail.com,0,0,2018-08-01 15:50:52.693,2018-08-01 15:50:52.693,9999-12-31 23:59:59.997000,d1208c44-51c2-4916-b239-c88e04cccfb7
149,733fa1c2-6c3c-4faa-aae8-00b48c8279ba,6f3164d5-d8ca-4bc0-ada7-d3b05e9b79d5,kcav421@gmail.com,0,0,2015-08-26 12:54:11.273,2015-08-26 12:54:11.273,9999-12-31 23:59:59.997000,7d6c7c2b-5507-485f-a856-8c5eafaf2826
150,736b9d6e-bb46-41e2-a541-c42b4904583b,93835681-d314-4a7e-b093-a799f0bf7397,emoreland@hershnerhunter.com,0,0,2015-05-06 13:46:15.763,2015-05-06 13:46:15.763,9999-12-31 23:59:59.997000,7d6c7c2b-5507-485f-a856-8c5eafaf2826
151,7501248e-705f-4210-b7c0-9d18a8991270,2ff10ed1-c9ff-4dc7-8392-c99cf8a3f63a,belsey@comcast.net,0,0,2015-04-14 14:33:20.763,2015-04-14 14:33:20.763,9999-12-31 23:59:59.997000,7d6c7c2b-5507-485f-a856-8c5eafaf2826
152,75115eb6-a2a8-497a-acb9-ab860c74fb24,c1d30e0c-d292-4814-b590-8137d6adafdd,smueller@spiritone.com,0,0,2017-01-20 14:11:36.750,2017-01-20 14:11:36.750,9999-12-31 23:59:59.997000,d1208c44-51c2-4916-b239-c88e04cccfb7
153,7548089c-f077-42f7-aa99-842df5cc795b,b264422c-d29f-419a-ae70-9c48ee545609,Zellerchapeloftheroses@stei.com,0,0,2013-08-29 15:37:04.043,2013-08-29 15:37:04.043,9999-12-31 23:59:59.997000,ffffffff-ffff-ffff-ffff-ffffffffffff
154,759d1178-4fee-4f47-80d6-dcb3667cc23a,56d1f16c-da61-4dad-9658-7dc1ae69c653,ggfunk@emeraldcomputing.com,0,0,2013-05-11 08:09:24.933,2013-05-11 08:09:24.933,9999-12-31 23:59:59.997000,ffffffff-ffff-ffff-ffff-ffffffffffff
155,76c5f804-78c6-4796-9f68-6da0999dd59a,d1a2269c-732b-41d9-8d0f-633c3a851561,ellienoeln@comcast.net,0,0,2018-03-23 15:40:20.077,2018-03-23 15:40:20.077,9999-12-31 23:59:59.997000,d1208c44-51c2-4916-b239-c88e04cccfb7
156,76f78108-49e1-4869-9e55-915edbf406f4,50dc4519-c84e-46e1-b644-81034cd24f64,bskrypzak@comcast.net,0,0,2018-01-22 16:05:56.340,2018-01-22 16:05:56.340,9999-12-31 23:59:59.997000,d1208c44-51c2-4916-b239-c88e04cccfb7
157,7725f8a6-e98d-46f8-add9-2b97375e2446,d6dc5198-9c57-401b-a826-125a3ca80644,clbright@comcast.net,0,0,2013-05-11 08:09:24.933,2013-05-11 08:09:24.933,9999-12-31 23:59:59.997000,ffffffff-ffff-ffff-ffff-ffffffffffff
158,77e3f221-5ce9-44c9-bc3b-329bab505f5b,99742cff-5b81-4e9a-a33c-0a2c281804b9,mjpiett@msn.com,0,0,2013-05-11 08:09:24.933,2013-05-11 08:09:24.933,9999-12-31 23:59:59.997000,ffffffff-ffff-ffff-ffff-ffffffffffff
159,78823810-1d8a-462f-a9c6-f13366dcb2a3,1105f68c-cd19-46f1-bd2e-f183dc0568c6,lemanit@pacinfo.com,0,0,2013-05-11 08:09:24.933,2013-05-11 08:09:24.933,9999-12-31 23:59:59.997000,ffffffff-ffff-ffff-ffff-ffffffffffff
160,78ef9f6f-55f4-4c00-9baf-f81cd8611c13,3dcd23d2-d050-4bc3-b25c-bfbfbda7a5df,ggfunk@emeraldcomputing.com,0,0,2013-05-11 08:09:24.933,2013-05-11 08:09:24.933,9999-12-31 23:59:59.997000,ffffffff-ffff-ffff-ffff-ffffffffffff
161,7935a2ef-efc5-46ec-b001-133dc3f124f3,caa224e2-f0d7-4e67-ac31-d0fa4c26cde2,dalewilhelm@att.net,0,0,2013-05-11 08:09:24.933,2013-05-11 08:09:24.933,9999-12-31 23:59:59.997000,ffffffff-ffff-ffff-ffff-ffffffffffff
162,79bdbc8a-11a6-4e2d-a7a5-e89878eaedaf,de2e1b69-4ba5-462a-acb6-11218b89e953,,0,0,2015-06-23 13:38:00.977,2015-06-23 13:38:00.977,9999-12-31 23:59:59.997000,7d6c7c2b-5507-485f-a856-8c5eafaf2826
163,7a3f0e64-8e6b-4d71-a727-bffea93fc4da,8c7ab95c-ea3d-48d7-b5b7-d5d8169221b5,aewkarsian@gmail.com,0,0,2015-08-06 15:16:32.833,2015-08-06 15:16:32.833,9999-12-31 23:59:59.997000,7d6c7c2b-5507-485f-a856-8c5eafaf2826
164,7a4f12a2-d218-46c5-9b31-2e133655f830,cb5f743d-e062-48ca-b543-61a0e8acd9ba,lemanit@pacinfo.com,0,0,2013-05-11 08:09:24.933,2013-05-11 08:09:24.933,9999-12-31 23:59:59.997000,ffffffff-ffff-ffff-ffff-ffffffffffff
165,7b7e61f7-eda1-4369-b38d-d7f5f2c5af4e,931da04e-bc0e-4ea0-9afa-cb341effe55a,lalyfisher@msn.com,0,0,2017-10-20 11:01:27.093,2017-10-20 11:01:27.093,9999-12-31 23:59:59.997000,d1208c44-51c2-4916-b239-c88e04cccfb7
166,7bc4e7c2-d344-4baf-8d6a-4d506273b46b,d7693c04-2682-40bd-a0ea-cebc9ed4919b,b.stedman@cox.net,0,0,2017-09-01 12:26:53.383,2017-09-01 12:26:53.383,9999-12-31 23:59:59.997000,d1208c44-51c2-4916-b239-c88e04cccfb7
167,7ce2bcd5-0eab-4a49-ab2c-7f52c1a7d1a0,5151bcd8-34cc-484c-9997-61377c809167,claywellzoo@gmail.com,0,0,2015-10-12 14:02:20.370,2015-10-12 14:02:20.370,9999-12-31 23:59:59.997000,7d6c7c2b-5507-485f-a856-8c5eafaf2826
168,7dbc2659-a4e7-46fb-8780-9762b9455417,8e61d52c-3f20-4bca-8e33-ec3a2dd8c646,crina@comforthospice.org,0,0,2017-11-30 09:59:56.943,2017-11-30 09:59:56.943,9999-12-31 23:59:59.997000,d1208c44-51c2-4916-b239-c88e04cccfb7
169,7dd1c1fd-d3b6-427e-a8ba-9bc77f06493e,93f7aa00-8c6b-41e0-a0dc-2041e1d263c7,george.gtautorepair@gmail.com,0,0,2015-09-07 15:20:55.793,2015-09-07 15:20:55.793,9999-12-31 23:59:59.997000,7d6c7c2b-5507-485f-a856-8c5eafaf2826
170,7f3a6614-fade-4eca-9d1f-423ab9e85a97,51d1ab89-f1d7-4e06-b9f1-d711bfc3eaaa,jmoeller@ftconnect.com,0,0,2013-05-11 08:09:24.933,2013-05-11 08:09:24.933,9999-12-31 23:59:59.997000,ffffffff-ffff-ffff-ffff-ffffffffffff
171,8011589f-fd6f-4b87-b93c-5c00243bc5fb,122c1594-d5b4-4a36-9516-326bf673d72e,cassandra.lea78@gmail.com,0,0,2017-03-03 16:05:07.480,2017-03-03 16:05:07.480,9999-12-31 23:59:59.997000,d1208c44-51c2-4916-b239-c88e04cccfb7
172,81067380-2d40-4590-b7b4-bbba650bb2d8,bbfe7006-2f5a-408d-8cd0-de6fd32ad08d,angiejauregui@yahoo.com,0,0,2015-08-28 13:09:12.333,2015-08-28 13:09:12.333,9999-12-31 23:59:59.997000,7d6c7c2b-5507-485f-a856-8c5eafaf2826
173,815eebfd-0d9a-4211-9292-ba13ce97c5be,333c7860-1c5e-45b0-ae14-51df04d77be0,clbright@comcast.net,0,0,2013-05-11 08:09:24.933,2013-05-11 08:09:24.933,9999-12-31 23:59:59.997000,ffffffff-ffff-ffff-ffff-ffffffffffff
174,82988a86-a2d9-4caa-ae70-09dd730d9424,14a6ea1a-26a6-4d03-85e7-4c16b5d164eb,sebriskin@gmail.com,0,0,2017-01-31 11:53:23.490,2017-01-31 11:53:23.490,9999-12-31 23:59:59.997000,d1208c44-51c2-4916-b239-c88e04cccfb7
175,82fd0ec8-9e74-4dbc-a6a6-8865a4c84931,aa80a65b-5081-4c6c-b0c9-07c9bfe4c9b7,Elizabeth@cornerstonefuneral.com,0,0,2013-08-29 15:37:04.043,2013-08-29 15:37:04.043,9999-12-31 23:59:59.997000,ffffffff-ffff-ffff-ffff-ffffffffffff
176,832c9944-08eb-4748-909c-7582ff2c0321,0b42c2ea-9dfd-4926-8c8a-a8b165b8c280,lfonthal@hotmail.com,0,0,2013-05-11 08:09:24.933,2013-05-11 08:09:24.933,9999-12-31 23:59:59.997000,ffffffff-ffff-ffff-ffff-ffffffffffff
177,83614a11-ba0f-4782-8b35-3c2b53383e39,e8efd52f-7c95-455d-ae53-536e2d1aa907,carma.debernardi@gmail.com,0,0,2016-05-31 09:21:23.167,2016-05-31 09:21:23.167,9999-12-31 23:59:59.997000,7d6c7c2b-5507-485f-a856-8c5eafaf2826
178,84088c64-5e59-436f-b40c-c3ca2b207912,f2744c4b-46ff-44b8-a078-5d0e7544dfaf,leone.barbaral@gmail.com,0,0,2017-11-09 16:40:13.180,2017-11-09 16:40:13.180,9999-12-31 23:59:59.997000,d1208c44-51c2-4916-b239-c88e04cccfb7
179,8651306b-ab3d-46a8-95f3-4549ec014bb3,d650de7c-94fa-4f23-9182-052f06b8b9d1,brendlerterri@comcast.net,0,0,2017-05-25 18:03:00.410,2017-05-25 18:03:00.410,9999-12-31 23:59:59.997000,d1208c44-51c2-4916-b239-c88e04cccfb7
180,8739dc52-3b5a-4e63-8bd7-7622a195e986,c16646e9-ae8e-4021-b687-632b49173121,jennellshanobe66@live.com,0,0,2015-05-22 16:22:29.137,2015-05-22 16:22:29.137,9999-12-31 23:59:59.997000,7d6c7c2b-5507-485f-a856-8c5eafaf2826
181,875e4671-4494-4045-b027-066284cf0a57,60d589a9-d26d-4444-b200-6e13c16ff9e1,Info@holmansfuneralservice.com,0,0,2013-08-29 15:37:04.043,2013-08-29 15:37:04.043,9999-12-31 23:59:59.997000,ffffffff-ffff-ffff-ffff-ffffffffffff
182,87a60445-153d-4a1e-b344-21ac1d293ec4,b1749cf8-f085-4f3f-89cc-9edfa92fde3d,laurenupinpdx@gmail.com,0,0,2015-03-10 17:42:56.407,2015-03-10 17:42:56.407,9999-12-31 23:59:59.997000,7d6c7c2b-5507-485f-a856-8c5eafaf2826
183,884b88fc-919b-4ab9-867d-06ba465d12b6,c5ed3fa1-b751-46b1-be6c-79f5e22f5887,mashe@westernmgt.com,0,0,2013-08-29 15:37:04.043,2013-08-29 15:37:04.043,9999-12-31 23:59:59.997000,ffffffff-ffff-ffff-ffff-ffffffffffff
184,894c170b-786a-4dcf-8fcc-d245706173bb,2857e917-5697-45b1-bba2-35d31ed48d80,deby@powellvalley.org,0,0,2015-12-21 13:02:07.087,2015-12-21 13:02:07.087,9999-12-31 23:59:59.997000,7d6c7c2b-5507-485f-a856-8c5eafaf2826
185,8a140f7a-ec96-46da-a2c9-b1493af6df31,84b5f535-2ca7-4a3e-af5d-f282709970c3,503.297.9247,0,0,2015-05-21 10:16:14.593,2015-05-21 10:16:14.593,9999-12-31 23:59:59.997000,7d6c7c2b-5507-485f-a856-8c5eafaf2826
186,8a32d7ff-1e51-4ef0-be44-b9de7ae18bec,6a99611c-4246-4a42-aa5b-080de2b0399d,nwroughcut@comcast.net,0,0,2015-12-16 11:24:46.357,2015-12-16 11:24:46.357,9999-12-31 23:59:59.997000,d4c888ee-889b-4a27-876d-c146de51ff3a
187,8bcfad56-fbaf-4fd8-b6d3-5f8087f8b04b,91348439-1d61-4cd0-8017-aed2ce273fcc,oliviasiteawalters@gmail.com,0,0,2017-09-18 16:58:27.960,2017-09-18 16:58:27.960,9999-12-31 23:59:59.997000,d1208c44-51c2-4916-b239-c88e04cccfb7
188,8c595eb8-af5a-4bb4-a6d7-d81f0f1bb0b2,4e007e6a-850d-4594-a257-849d48739fd0,sherylpdx@gmail.com,0,0,2015-09-30 10:26:36.277,2015-09-30 10:26:36.277,9999-12-31 23:59:59.997000,7d6c7c2b-5507-485f-a856-8c5eafaf2826
189,8c5f1b6d-c379-4c8b-bdf1-67957d3e4db1,2d835949-3ede-4a5c-a45e-b19849b4e59d,sethheadgate@yahoo.com,0,0,2014-07-29 17:15:29.690,2014-07-29 17:15:29.690,9999-12-31 23:59:59.997000,7d6c7c2b-5507-485f-a856-8c5eafaf2826
190,8c8c7d44-96e7-452f-a20c-0b32e2b1255c,7e14da76-ff2b-4847-9c7f-05d5eb308050,lfarrington01@hotmail.com,0,0,2014-05-30 13:08:49.713,2014-05-30 13:08:49.713,9999-12-31 23:59:59.997000,7d6c7c2b-5507-485f-a856-8c5eafaf2826
191,8cba9b40-45ff-4062-a21d-684ceb2533a2,11111111-1111-1111-1111-111111111101,cemetery@oregonmetro.gov,0,0,2013-08-06 14:50:19.263,2013-08-06 14:50:19.263,9999-12-31 23:59:59.997000,7d6c7c2b-5507-485f-a856-8c5eafaf2826
192,8defcd0e-5bb0-4ec1-b544-61853ba055e6,bc651f58-3cb5-4890-8a7d-9226cfe6f36f,tomellendoo@aol.com,0,0,2017-04-07 16:40:24.333,2017-04-07 16:40:24.333,9999-12-31 23:59:59.997000,d1208c44-51c2-4916-b239-c88e04cccfb7
193,8e431f5f-0a8c-4681-b6b2-6937a5040630,470994c9-b7b3-4b6f-93fc-fa2c645c3455,olgake@man.com,0,0,2018-05-04 12:40:15.023,2018-05-04 12:40:15.023,9999-12-31 23:59:59.997000,d1208c44-51c2-4916-b239-c88e04cccfb7
194,8fce9619-5256-4f7f-abac-cd04c8993d84,3cff467e-c5ef-4167-90df-f0dc63645c4c,godseys@localaccess.com,0,0,2013-05-11 08:09:24.933,2013-05-11 08:09:24.933,9999-12-31 23:59:59.997000,ffffffff-ffff-ffff-ffff-ffffffffffff
195,8ff7ec17-05b5-4289-ba52-e7d5cd597030,96bb75a9-8b02-4cfa-acae-5c35d75344a6,sgers13@gmail.com,0,0,2018-05-29 16:48:37.300,2018-05-29 16:48:37.300,9999-12-31 23:59:59.997000,d1208c44-51c2-4916-b239-c88e04cccfb7
196,9267d8f4-09e7-407d-9ffc-baca81e02f30,f1fbbfbe-0115-4de4-b4fa-a9345ba0f82c,prudence1115@yahoo.com,0,0,2013-05-11 08:09:24.933,2013-05-11 08:09:24.933,9999-12-31 23:59:59.997000,ffffffff-ffff-ffff-ffff-ffffffffffff
197,93b4ca43-72ab-4495-9541-b91f71855f9e,486ae4cb-ad3d-4948-9279-d62556293508,matamakloe@gmail.com,0,0,2014-03-24 14:31:54.547,2014-03-24 14:31:54.547,9999-12-31 23:59:59.997000,03ec4fdc-1f3d-468a-9bf6-685047148424
198,948186b0-5c96-4ac7-94cc-05e2dc6889d1,3e7b056f-ac5c-4bfe-8152-9cad7a17a644,masgms12@gmail.com,0,0,2017-01-26 15:33:58.883,2017-01-26 15:33:58.883,9999-12-31 23:59:59.997000,d1208c44-51c2-4916-b239-c88e04cccfb7
199,94c79e92-8fb9-4ae2-80ea-3265a4c2ab76,091be1e7-4f92-4cfe-8262-8270e75f2691,gopigrace@yahoo.com,0,0,2015-10-22 14:04:41.963,2015-10-22 14:04:41.963,9999-12-31 23:59:59.997000,7d6c7c2b-5507-485f-a856-8c5eafaf2826
200,955349e0-bd68-4c15-8c83-2ef0da1ed9f6,969c835e-51c1-45a2-bf48-1301193b7a45,inquiry_omegafuneral@msn.com,0,0,2013-08-29 15:37:04.043,2013-08-29 15:37:04.043,9999-12-31 23:59:59.997000,ffffffff-ffff-ffff-ffff-ffffffffffff
201,95705f26-1519-4caa-aa59-1afdac809110,e77823dd-da83-4d76-a208-c7cd588cff84,sherry@seamstofit.com,0,0,2017-11-02 17:42:58.727,2017-11-02 17:42:58.727,9999-12-31 23:59:59.997000,d1208c44-51c2-4916-b239-c88e04cccfb7
202,96d92a95-da84-4e9b-9dc2-373dbb3c4398,4fa2aecb-1004-41d6-8c1a-35ef7cbc45f7,FSRIDGE@aol.com,0,0,2013-05-11 08:09:24.933,2013-05-11 08:09:24.933,9999-12-31 23:59:59.997000,ffffffff-ffff-ffff-ffff-ffffffffffff
203,978eec0d-f8a0-420d-b170-c66c1c8513e0,20264902-7153-490d-b794-c1374c459665,franka@spiritone.com,0,0,2013-05-11 08:09:24.933,2013-05-11 08:09:24.933,9999-12-31 23:59:59.997000,ffffffff-ffff-ffff-ffff-ffffffffffff
204,985331d3-c2f3-4d1a-972f-482c405f3e21,232f3918-d57e-4300-9da1-4254b02d7103,clbright@comcast.net,0,0,2013-05-11 08:09:24.933,2013-05-11 08:09:24.933,9999-12-31 23:59:59.997000,ffffffff-ffff-ffff-ffff-ffffffffffff
205,9a531bf6-76c9-4ef1-94ad-946cfadeb0f9,889d1586-8668-41b5-9659-f510819411fd,ssabin@qwestoffice.net,0,0,2013-08-29 15:37:04.043,2013-08-29 15:37:04.043,9999-12-31 23:59:59.997000,ffffffff-ffff-ffff-ffff-ffffffffffff
206,9aed636d-fdae-449a-b2ee-b42306431612,8b26883a-f375-4840-a6f9-b26067af963b,bgfriends@gmail.com,0,0,2017-01-20 11:11:36.720,2017-01-20 11:11:36.720,9999-12-31 23:59:59.997000,d1208c44-51c2-4916-b239-c88e04cccfb7
207,9bc9d846-428e-4d9c-89dd-c00b2e000f1f,23a6c9b2-9112-4fab-8d41-3d6efa1c8479,david-mcbride@hoffmancorp.com,0,0,2016-07-11 15:22:27.053,2016-07-11 15:22:27.053,9999-12-31 23:59:59.997000,7d6c7c2b-5507-485f-a856-8c5eafaf2826
208,9c093a74-1201-424d-84a0-6600d603be61,eb05a891-6b01-4aee-80c8-a23fe9b214f1,grrratetiger@gmail.com,0,0,2015-04-29 13:37:22.270,2015-04-29 13:37:22.270,9999-12-31 23:59:59.997000,7d6c7c2b-5507-485f-a856-8c5eafaf2826
209,9c9854ab-8593-49d9-ae09-019285543137,7de0d9f0-beb6-42e7-bb44-a471ab46fedf,riverskr@yahoo.com,0,0,2015-06-01 14:18:17.157,2015-06-01 14:18:17.157,9999-12-31 23:59:59.997000,7d6c7c2b-5507-485f-a856-8c5eafaf2826
210,9d441cf7-3d7a-45ff-8278-51b8d77a3580,5c511aa8-0446-491d-b322-be522ce58236,ImAFreeSpirit52@aol.com,0,0,2016-02-17 15:17:50.947,2016-02-17 15:17:50.947,9999-12-31 23:59:59.997000,7d6c7c2b-5507-485f-a856-8c5eafaf2826
211,9ebbfcaf-d62e-4df5-813d-e3c53a16966e,58a6d9fa-93df-43e1-99ac-9ad8cc2addb5,lidiamihalut@yahoo.com,0,0,2016-06-08 10:11:13.260,2016-06-08 10:11:13.260,9999-12-31 23:59:59.997000,7d6c7c2b-5507-485f-a856-8c5eafaf2826
212,9f4ab393-d073-4d15-8f35-ca640f244e12,3281edf2-5eb4-46ca-95c3-d8983b51343f,503-807-4321,0,0,2017-04-25 13:58:31.730,2017-04-25 13:58:31.730,9999-12-31 23:59:59.997000,d1208c44-51c2-4916-b239-c88e04cccfb7
213,9fca4ac0-d018-48eb-a6da-8eb0bd42a308,c42cf252-6664-482b-9f12-56e31dffd62c,annieneal@yahoo.com,0,0,2015-01-23 11:41:01.190,2015-01-23 11:41:01.190,9999-12-31 23:59:59.997000,7d6c7c2b-5507-485f-a856-8c5eafaf2826
214,a02be29c-9304-43b5-98be-68eb951c860a,4a2bdd22-6399-4b91-89c7-69f80fe32a3e,linda@tgeinc.com,0,0,2015-03-18 18:28:47.867,2015-03-18 18:28:47.867,9999-12-31 23:59:59.997000,7d6c7c2b-5507-485f-a856-8c5eafaf2826
215,a02be6e6-fa35-4c6d-8630-2aa22e51ffde,5c794cef-3188-4bb2-b9fd-49638d19062d,dbarenberg@gmail.com,0,0,2016-03-02 18:57:23.443,2016-03-02 18:57:23.443,9999-12-31 23:59:59.997000,7d6c7c2b-5507-485f-a856-8c5eafaf2826
216,a3b5f365-a6ac-4d41-a9ce-b53ffa5413c7,5194496f-0c55-4a29-bc3c-6fcb5139d45a,yrkjnny1218@gmail.com,0,0,2015-08-28 13:24:40.647,2015-08-28 13:24:40.647,9999-12-31 23:59:59.997000,7d6c7c2b-5507-485f-a856-8c5eafaf2826
217,a3f1dc4b-cdf7-43da-bd27-64620fb98eda,d964f5c7-ecc7-4e6e-a951-6aa49790a6ae,jkohana@comcast.net,0,0,2015-10-12 14:54:11.793,2015-10-12 14:54:11.793,9999-12-31 23:59:59.997000,7d6c7c2b-5507-485f-a856-8c5eafaf2826
218,a468a06e-a409-4160-adf9-579b80f116fd,e1c64954-40ae-4d55-aa8c-ecec2b2d7583,cnkcnk@frontier.com,0,0,2014-04-01 13:08:35.720,2014-04-01 13:08:35.720,9999-12-31 23:59:59.997000,03ec4fdc-1f3d-468a-9bf6-685047148424
219,a48dfda6-008d-4e5c-8944-66200a2cde39,33e8d017-8fc6-4121-8c97-2df499dd9bff,William.burns@sci-us.com,0,0,2013-08-29 15:37:04.043,2013-08-29 15:37:04.043,9999-12-31 23:59:59.997000,ffffffff-ffff-ffff-ffff-ffffffffffff
220,a51959d6-40f9-4098-9a95-41615b7a903f,f9c693ff-01d0-4e3d-ad3d-0a668c2bc721,cdproser@sbcglobal.net,0,0,2015-09-03 18:54:51.260,2015-09-03 18:54:51.260,9999-12-31 23:59:59.997000,7d6c7c2b-5507-485f-a856-8c5eafaf2826
221,a6ca3380-3a13-4fe1-bd19-9a88d3d3a93b,acc29d85-a060-4f8f-84c7-a49b5cfd4afd,buddy.powell@gmail.com,0,0,2014-10-07 15:44:26.903,2014-10-07 15:44:26.903,9999-12-31 23:59:59.997000,7d6c7c2b-5507-485f-a856-8c5eafaf2826
222,a8273725-b43e-4562-a5d5-e89222b3bec1,38224b9f-795a-4a93-91ab-d67f5c34bf71,irinabrodsky9@msn.com,0,0,2018-02-12 15:25:21.793,2018-02-12 15:25:21.793,9999-12-31 23:59:59.997000,d1208c44-51c2-4916-b239-c88e04cccfb7
223,a8a0f6f7-9a9d-4a82-ae2f-26870f565683,9ad56d34-42cd-4600-9593-8ed10db53b19,terry@reigelridge.com,0,0,2013-05-11 08:09:24.933,2013-05-11 08:09:24.933,9999-12-31 23:59:59.997000,ffffffff-ffff-ffff-ffff-ffffffffffff
224,a93741be-f066-4cd4-a951-c75509a8fac2,45fd9c0e-960e-4891-acde-0f8f2d9a2bf3,burgess7967@comcast.net,0,0,2017-08-02 16:01:15.593,2017-08-02 16:01:15.593,9999-12-31 23:59:59.997000,d1208c44-51c2-4916-b239-c88e04cccfb7
225,aa5978f6-18c9-4dbb-b17a-fefaf2115e84,cdb9a1c6-57ec-4ff6-a809-0ebdc47b1e94,lawler5305@sbcglobal.net,0,0,2017-01-20 17:02:04.470,2017-01-20 17:02:04.470,9999-12-31 23:59:59.997000,d1208c44-51c2-4916-b239-c88e04cccfb7
226,aad9943c-3e60-4e2d-a225-6fd28d6049c1,baf511fa-3d8a-4519-99bd-a67f42a366e8,pegymclass@aol.com,0,0,2014-03-07 15:37:48.407,2014-03-07 15:37:48.407,9999-12-31 23:59:59.997000,03ec4fdc-1f3d-468a-9bf6-685047148424
227,ab4a38da-8d06-4323-a494-249b59da8ffc,7300fe2d-8d52-4cb6-a28e-056259f0307c,michaelpadgett@kp.com,0,0,2014-06-17 17:55:27.720,2014-06-17 17:55:27.720,9999-12-31 23:59:59.997000,7d6c7c2b-5507-485f-a856-8c5eafaf2826
228,ab85ff81-4256-4ad3-8d27-789b2e0b39bb,51d141be-b132-42e8-b49f-9c1375b0f63a,kiaiil@hotmail.com,0,0,2015-03-04 13:49:12.770,2015-03-04 13:49:12.770,9999-12-31 23:59:59.997000,7d6c7c2b-5507-485f-a856-8c5eafaf2826
229,abeeadf8-316b-4257-960b-44b038d47c42,c56fb2d7-71c0-416f-8eb0-59b514bcf44a,marv_72@yahoo.com,0,0,2016-02-23 12:14:57.383,2016-02-23 12:14:57.383,9999-12-31 23:59:59.997000,7d6c7c2b-5507-485f-a856-8c5eafaf2826
230,ac55389c-2886-4873-adcc-9f09b0a809c2,a53496b0-b9e4-43b9-bf98-2b66fd182736,finfeohamblin@gmail.com,0,0,2018-06-18 15:07:34.433,2018-06-18 15:07:34.433,9999-12-31 23:59:59.997000,d1208c44-51c2-4916-b239-c88e04cccfb7
231,ade90fed-7987-43c4-aebf-ee5686305e93,612302fd-3b98-4a0f-a5a7-f92a038065d2,gbowder@verizon.net,0,0,2014-06-24 16:43:22.477,2014-06-24 16:43:22.477,9999-12-31 23:59:59.997000,7d6c7c2b-5507-485f-a856-8c5eafaf2826
232,adfc15f0-5d47-4451-9594-727d256515f0,8f75a1d0-4813-42ca-a66c-3a807c76c33a,cathy22759@msn.com,0,0,2017-04-24 13:26:46.007,2017-04-24 13:26:46.007,9999-12-31 23:59:59.997000,d1208c44-51c2-4916-b239-c88e04cccfb7
233,ae22e230-173a-4bd7-a0ea-367027d335ff,1d466c86-74a2-4c06-b0b7-d72863e43a2d,ruzyy@aol.com,0,0,2015-09-03 19:15:35.657,2015-09-03 19:15:35.657,9999-12-31 23:59:59.997000,7d6c7c2b-5507-485f-a856-8c5eafaf2826
234,aea21e90-ceba-4608-b689-decc9a120f87,07b2520e-4baa-4bc3-9fb0-c542237aabe7,info@ajcremation.com,0,0,2013-08-29 15:37:04.043,2013-08-29 15:37:04.043,9999-12-31 23:59:59.997000,ffffffff-ffff-ffff-ffff-ffffffffffff
235,aef49364-571f-4f15-8aa2-df8f9db43740,2971d470-a597-4bba-a4bf-563d17a738c8,s.goodstein@comcast.net,0,0,2013-05-11 08:09:24.933,2013-05-11 08:09:24.933,9999-12-31 23:59:59.997000,ffffffff-ffff-ffff-ffff-ffffffffffff
236,af6d7f9e-8d93-43cf-b3ae-c947ba8adf3f,fa3fa4a8-e381-4cb7-9602-8a1b6cdd2b87,laurierelling@comcast.net,0,0,2017-03-08 16:21:23.190,2017-03-08 16:21:23.190,9999-12-31 23:59:59.997000,d1208c44-51c2-4916-b239-c88e04cccfb7
237,b1bd0c24-d8a0-49fe-a2d1-6fd612b5f836,d04dbec1-01aa-4618-8f4f-69d01d13472e,jws64@yahoo.com,0,0,2013-05-11 08:09:24.933,2013-05-11 08:09:24.933,9999-12-31 23:59:59.997000,ffffffff-ffff-ffff-ffff-ffffffffffff
238,b1d5670a-a94f-46da-9e03-5c771e92ffd7,dca9ec15-5414-47b5-babd-9dc88f4a9e45,reproest@marzena.org,0,0,2017-03-10 16:55:21.927,2017-03-10 16:55:21.927,9999-12-31 23:59:59.997000,d1208c44-51c2-4916-b239-c88e04cccfb7
239,b1db2df8-814c-4165-b6d3-b810e062f054,3f36c5b5-16c8-4925-8bb8-338cb4a5d3a4,linda.jensen@providence.org,0,0,2017-04-07 15:44:03.043,2017-04-07 15:44:03.043,9999-12-31 23:59:59.997000,d1208c44-51c2-4916-b239-c88e04cccfb7
240,b2b5e807-7b8f-4b07-bc79-29d8f9d1314e,d3694684-bdc8-473d-b536-d729e285eb64,handy4362@comcast.net,0,0,2014-10-28 11:25:43.490,2014-10-28 11:25:43.490,9999-12-31 23:59:59.997000,7d6c7c2b-5507-485f-a856-8c5eafaf2826
241,b36f0bf5-10d9-407b-af32-92ad3fd03064,2fd66323-fa18-4fd4-aba5-d573b469c7d0,corrie.mattison@gmail.com,0,0,2016-05-07 09:24:36.660,2016-05-07 09:24:36.660,9999-12-31 23:59:59.997000,7d6c7c2b-5507-485f-a856-8c5eafaf2826
242,b5a8e762-eb47-429f-a249-81fdd0982b88,17322a1b-e25a-4c74-be46-acb6342f3139,andrew7474@live.com,0,0,2013-08-29 15:37:04.043,2013-08-29 15:37:04.043,9999-12-31 23:59:59.997000,ffffffff-ffff-ffff-ffff-ffffffffffff
243,b89203e3-f7a3-4c21-affc-24efb14fcdfc,351812c0-4d44-465b-afe6-ab52cd55f219,emilymwilson&comcast.net,0,0,2013-05-11 08:09:24.933,2013-05-11 08:09:24.933,9999-12-31 23:59:59.997000,ffffffff-ffff-ffff-ffff-ffffffffffff
244,b89e9ca5-977d-4260-8a2e-1f9509cfcc13,e6e743df-bd6e-4c90-a135-ca45e6f23f4e,almayiselhernandez@gmail.com,0,0,2017-04-07 15:07:06.643,2017-04-07 15:07:06.643,9999-12-31 23:59:59.997000,d1208c44-51c2-4916-b239-c88e04cccfb7
245,b8e55647-8c06-4993-bd62-2062c1f1f4ed,ad9371a6-d400-42ec-aac6-0a19caced8fa,andrea@networkredux.com,0,0,2014-05-15 14:43:14.963,2014-05-15 14:43:14.963,9999-12-31 23:59:59.997000,03ec4fdc-1f3d-468a-9bf6-685047148424
246,b94b6904-7c89-485e-a174-20e59525f120,f0513706-a085-4604-b52a-aa421086a647,slslorain@gmail.com,0,0,2018-07-26 16:05:15.577,2018-07-26 16:05:15.577,9999-12-31 23:59:59.997000,d1208c44-51c2-4916-b239-c88e04cccfb7
247,ba0089d2-79a7-4d06-a6b4-aa817d7e09d2,7dc8bffa-0e6b-4c48-a6ab-e3579d44fece,itauschl@yahoo.com,0,0,2015-03-30 11:29:21.363,2015-03-30 11:29:21.363,9999-12-31 23:59:59.997000,7d6c7c2b-5507-485f-a856-8c5eafaf2826
248,bd61eebd-a87b-492e-9499-6f88d87aae50,236bd442-d4bc-4a93-934c-a0b3eb50c5b2,pgurnari@comcast.net,0,0,2017-03-08 15:59:47.527,2017-03-08 15:59:47.527,9999-12-31 23:59:59.997000,d1208c44-51c2-4916-b239-c88e04cccfb7
249,bd92fae0-a3e7-4c40-b8e8-43abebced7f4,f5066d20-84ba-4ad9-a857-70b43acae3dc,avarylj@yahoo.com,0,0,2016-05-07 08:53:28.517,2016-05-07 08:53:28.517,9999-12-31 23:59:59.997000,7d6c7c2b-5507-485f-a856-8c5eafaf2826
250,be0f6dc4-b0cf-4223-8388-9d244fa274c0,d3fc61dd-cd00-4533-8dae-20248023f21e,lorraybruner@gmail.com,0,0,2018-07-30 13:31:57.170,2018-07-30 13:31:57.170,9999-12-31 23:59:59.997000,d1208c44-51c2-4916-b239-c88e04cccfb7
251,bea24eb1-160f-4e49-9418-f176feca07f9,7505461e-523c-4efc-b8df-972f4f25f33e,itsmecuchi@gmail.com,0,0,2014-06-02 17:29:21.650,2014-06-02 17:29:21.650,9999-12-31 23:59:59.997000,7d6c7c2b-5507-485f-a856-8c5eafaf2826
252,beb05640-de4a-4217-b399-000a2e508d8c,1ed8d9ec-cbea-4dcc-9061-66aa9b0001d1,little-sea@hotmail.com,0,0,2017-04-12 16:34:58.790,2017-04-12 16:34:58.790,9999-12-31 23:59:59.997000,d1208c44-51c2-4916-b239-c88e04cccfb7
253,bfac3587-2ff7-4710-ae05-e43455fccd41,7d9fe499-3d58-4771-bbdb-8e1bfa4c22ee,donahue&coiinc.com,0,0,2013-05-11 08:09:24.933,2013-05-11 08:09:24.933,9999-12-31 23:59:59.997000,ffffffff-ffff-ffff-ffff-ffffffffffff
254,bff8bd50-8db2-486c-b0e3-831ef9e98fd0,18b3cbf6-fee2-465b-9fc2-598da5ff96ee,jeff@gottfried.net,0,0,2016-03-15 10:39:56.203,2016-03-15 10:39:56.203,9999-12-31 23:59:59.997000,7d6c7c2b-5507-485f-a856-8c5eafaf2826
255,c04b4536-8c08-452d-91c3-9444d8cb30cd,82d3e3fe-b80f-45ae-8a4c-4678b7b7f726,pinqueen42@aol.com,0,0,2014-03-13 16:31:56.417,2014-03-13 16:31:56.417,9999-12-31 23:59:59.997000,03ec4fdc-1f3d-468a-9bf6-685047148424
256,c0ba82f4-1798-4d66-a0f1-002f00f401ef,06dc224d-bb00-4a62-854b-9f54e01b9d2d,info@riverviewcemeteryfuneralhome.com,0,0,2013-08-29 15:37:04.043,2013-08-29 15:37:04.043,9999-12-31 23:59:59.997000,ffffffff-ffff-ffff-ffff-ffffffffffff
257,c108c667-aec6-4924-9487-ac3ee4df5d1c,4c638606-9ca5-4824-8db8-fbb9952ce3af,gaylemaze@gmail.com,0,0,2014-03-13 16:25:44.817,2014-03-13 16:25:44.817,9999-12-31 23:59:59.997000,03ec4fdc-1f3d-468a-9bf6-685047148424
258,c15e53eb-d9d4-4aa3-bd67-04cd0fc4d07a,f219b30f-4c40-40a1-886a-ceb733fff103,rogerlk@attbi.com,0,0,2013-05-11 08:09:24.933,2013-05-11 08:09:24.933,9999-12-31 23:59:59.997000,ffffffff-ffff-ffff-ffff-ffffffffffff
259,c170931a-5a8e-4c53-ac97-3f421a5d138b,3e6689b8-296d-4441-aefc-5e52613c6204,beverlymccormick@gmail.com,0,0,2014-11-17 16:18:36.390,2014-11-17 16:18:36.390,9999-12-31 23:59:59.997000,7d6c7c2b-5507-485f-a856-8c5eafaf2826
260,c19960d9-db48-407a-9477-2c3753b9982c,ca859da1-5f42-46a4-8aef-b682ed405aa8,503-286-4018,0,0,2017-03-03 16:15:20.193,2017-03-03 16:15:20.193,9999-12-31 23:59:59.997000,d1208c44-51c2-4916-b239-c88e04cccfb7
261,c28b3353-58b2-4475-abbb-74ecd9e1a439,57fb2988-1345-48bf-b7f8-2c84c398b958,timcrump3461@gmail.com,0,0,2017-05-02 16:28:01.990,2017-05-02 16:28:01.990,9999-12-31 23:59:59.997000,d1208c44-51c2-4916-b239-c88e04cccfb7
262,c3f1808d-33ba-4c4f-a8b2-aada492b3717,eb3f76ed-fe4c-4439-b03e-78b6df8689d6,starlettejacobi@yahoo.com,0,0,2018-04-27 16:07:09.440,2018-04-27 16:07:09.440,9999-12-31 23:59:59.997000,d1208c44-51c2-4916-b239-c88e04cccfb7
263,c452f634-f69c-4a7c-8b9f-07b07b188095,f2afccff-6b86-4308-b23c-aa905e263d18,ginnya@pacifier.com,0,0,2014-09-25 17:36:26.973,2014-09-25 17:36:26.973,9999-12-31 23:59:59.997000,7d6c7c2b-5507-485f-a856-8c5eafaf2826
264,c66ddc9d-415f-452e-afa0-31c9544c7e2f,3ea28504-5d52-4539-8774-3c9ceb94d5e7,lewis97055@frontier.com,0,0,2015-03-10 18:12:15.570,2015-03-10 18:12:15.570,9999-12-31 23:59:59.997000,7d6c7c2b-5507-485f-a856-8c5eafaf2826
265,c6a4ff2c-a64d-4593-afda-4318fc8e177d,2dca9f72-409d-42f3-84a0-21905fda3086,dbs1369@juno.com,0,0,2013-05-11 08:09:24.933,2013-05-11 08:09:24.933,9999-12-31 23:59:59.997000,ffffffff-ffff-ffff-ffff-ffffffffffff
266,c6cded2c-e03e-4f2d-a84d-aa9dbae635ed,e29fbb88-8a8b-42ef-b43d-9800ef14f43c,redragon&rosenet.net,0,0,2013-05-11 08:09:24.933,2013-05-11 08:09:24.933,9999-12-31 23:59:59.997000,ffffffff-ffff-ffff-ffff-ffffffffffff
267,c8284a21-c27e-437a-bf3f-d4ecc4774f4f,6957f789-5cab-4912-b43f-9cb2c3db9c5b,andrahenriques@hotmail.com,0,0,2017-06-19 16:48:10.243,2017-06-19 16:48:10.243,9999-12-31 23:59:59.997000,d1208c44-51c2-4916-b239-c88e04cccfb7
268,c91c2b17-d9fa-47d0-acab-181ac8eddffa,0bd34e7f-620a-42c5-8d97-ef5c2d020cb7,newman@hevanet.com,0,0,2015-09-30 16:56:56.833,2015-09-30 16:56:56.833,9999-12-31 23:59:59.997000,7d6c7c2b-5507-485f-a856-8c5eafaf2826
269,c9e10034-8d87-4d37-8831-b6e0a60e1aaa,ddd884ca-617e-49a1-8aa1-ebfe1d28a7e2,ohca@integrityonline.com,0,0,2013-05-11 08:09:24.933,2013-05-11 08:09:24.933,9999-12-31 23:59:59.997000,ffffffff-ffff-ffff-ffff-ffffffffffff
270,c9eade4f-1080-44e7-ac3f-d7292910f8da,d116f493-04ae-4c1a-8f4f-efd5b08e5111,diannejean@live.com,0,0,2017-03-09 11:34:13.780,2017-03-09 11:34:13.780,9999-12-31 23:59:59.997000,d1208c44-51c2-4916-b239-c88e04cccfb7
271,ca714b40-0dcd-4b36-bb4a-6db3bbd682d8,5260e2da-2575-4b7e-9311-eb3cebeb6f6a,finleysunsethills@stei.com,0,0,2013-08-29 15:37:04.043,2013-08-29 15:37:04.043,9999-12-31 23:59:59.997000,ffffffff-ffff-ffff-ffff-ffffffffffff
272,cb85aa0a-e2af-473c-8c1a-4d755f6f8624,e9889094-e297-4c90-94b3-467449899a2a,drotenkomaksim@gmail.com,0,0,2017-05-04 15:13:01.400,2017-05-04 15:13:01.400,9999-12-31 23:59:59.997000,d1208c44-51c2-4916-b239-c88e04cccfb7
273,cc04c8d5-4e1b-4a2e-9e65-e5f466b0f069,f025e6cd-e114-4208-9853-0394a0085e1c,godseys@localaccess.com,0,0,2013-05-11 08:09:24.933,2013-05-11 08:09:24.933,9999-12-31 23:59:59.997000,ffffffff-ffff-ffff-ffff-ffffffffffff
274,ccded066-7bb6-4f59-b98e-e5921e405a1e,8faedeaf-d76b-4466-bf54-da3670c9ea9b,ancientjiml@yahoo.com,0,0,2014-10-27 16:08:32.227,2014-10-27 16:08:32.227,9999-12-31 23:59:59.997000,7d6c7c2b-5507-485f-a856-8c5eafaf2826
275,cdd416c0-6968-4471-a74b-95bae5c1c9f2,3529f1fd-b7fa-4830-a02c-862026d72ce0,damcem@comcast.net,0,0,2013-05-11 08:09:24.933,2013-05-11 08:09:24.933,9999-12-31 23:59:59.997000,ffffffff-ffff-ffff-ffff-ffffffffffff
276,cf03b7cf-46e9-47cc-8b7e-e7303cc20c94,e3770432-029d-4e00-a32e-b04cc8c80383,sandyfuneralhome@yahoo.com ,0,0,2013-08-29 15:37:04.043,2013-08-29 15:37:04.043,9999-12-31 23:59:59.997000,ffffffff-ffff-ffff-ffff-ffffffffffff
277,cf2309aa-405c-4ebf-8139-e992ce036849,cf4cc20a-c05e-4a8f-a5ff-091ff2f72ae2,linda.jensen@providence.org,0,0,2017-04-07 15:44:02.560,2017-04-07 15:44:02.560,9999-12-31 23:59:59.997000,d1208c44-51c2-4916-b239-c88e04cccfb7
278,d0c23022-7905-4c53-a33e-3c32a6bdc994,7d64151d-4033-4aa5-a1b9-a67e0cb364ab,njdoty@gmail.com,0,0,2018-03-07 15:09:49.553,2018-03-07 15:09:49.553,9999-12-31 23:59:59.997000,d1208c44-51c2-4916-b239-c88e04cccfb7
279,d386fa55-b6da-4362-8a90-febda3d68c6a,14a846fd-c286-43c1-ba5f-bdb4c127d3ad,ashley.klump@gmail.com,0,0,2017-08-11 16:29:28.360,2017-08-11 16:29:28.360,9999-12-31 23:59:59.997000,d1208c44-51c2-4916-b239-c88e04cccfb7
280,d5293f37-ee71-4ef7-bf6e-0f6251eec7b3,957449f5-5a4e-4a28-8de6-e3e52cbe1d5f,classicalmorgans@msn.com,0,0,2014-03-31 13:04:14.260,2014-03-31 13:04:14.260,9999-12-31 23:59:59.997000,03ec4fdc-1f3d-468a-9bf6-685047148424
281,d555e592-dd64-4ec8-807c-580b17bc4eb6,30942e59-5efd-4317-a79f-2a1be6a1e4e4,dzman@uw.edu,0,0,2017-01-04 15:10:56.973,2017-01-04 15:10:56.973,9999-12-31 23:59:59.997000,d1208c44-51c2-4916-b239-c88e04cccfb7
282,d5cf3f9c-d173-4f59-a078-fb116fbda763,3e2a5c9c-3d85-4975-af7d-284b6fc199e7,peter.aaa@gmail.com,0,0,2014-11-04 15:20:23.507,2014-11-04 15:20:23.507,9999-12-31 23:59:59.997000,7d6c7c2b-5507-485f-a856-8c5eafaf2826
283,d6107e5a-501e-4586-a51f-a049ec49d8ba,cbce15ea-3b4c-4caf-96cb-c40f02e5d10d,rburns@pccstructurals.com,0,0,2013-05-11 08:09:24.933,2013-05-11 08:09:24.933,9999-12-31 23:59:59.997000,ffffffff-ffff-ffff-ffff-ffffffffffff
284,d6672990-e3a2-4e45-b51d-eec2fae991af,e4711abf-178f-4ec4-a689-70cc7c1cde96,sallyiadarola@gmail.com,0,0,2015-09-15 12:27:07.490,2015-09-15 12:27:07.490,9999-12-31 23:59:59.997000,7d6c7c2b-5507-485f-a856-8c5eafaf2826
285,d8113ca0-1f47-4b71-bbf4-de6e25a66617,3b8a29f5-e396-4089-8a54-b921a7cde920,lemati@pacinfo.com,0,0,2013-05-11 08:09:24.933,2013-05-11 08:09:24.933,9999-12-31 23:59:59.997000,ffffffff-ffff-ffff-ffff-ffffffffffff
286,d99f3943-b0b0-41c8-9b5f-f1cf29d22fdd,6fbf2a61-a53c-467f-925f-2a7c186f101d,cclarke@ccfiduciary.com,0,0,2018-04-05 15:06:10.360,2018-04-05 15:06:10.360,9999-12-31 23:59:59.997000,d1208c44-51c2-4916-b239-c88e04cccfb7
287,d9b4e621-85df-4b4f-9c90-052cfe147f02,ef9c912b-d260-4555-aaf6-f382fae4e9a9,tinahall5247@comcast.net,0,0,2015-12-16 09:14:41.960,2015-12-16 09:14:41.960,9999-12-31 23:59:59.997000,d4c888ee-889b-4a27-876d-c146de51ff3a
288,da5ec094-4cc7-435c-9ae0-389041b9f80d,bd563b41-01f8-4e12-a801-2cc2a2384a48,safier@comcast.net,0,0,2015-09-03 12:53:57.793,2015-09-03 12:53:57.793,9999-12-31 23:59:59.997000,7d6c7c2b-5507-485f-a856-8c5eafaf2826
289,daacbe82-a0d5-4fc9-8b4e-4a34b06bb057,ccfbbfca-dcaf-414e-969e-53491b4ebb51,lora.phillippi@gmail.com,0,0,2014-01-10 16:40:09.410,2014-01-10 16:40:09.410,9999-12-31 23:59:59.997000,03ec4fdc-1f3d-468a-9bf6-685047148424
290,dce238c5-bfe6-4705-93e6-2e5be2d1e833,81c2dd2c-e26d-4713-8567-c14983cdc9a0,annegoldberg6@gmail.com,0,0,2018-02-15 15:57:11.357,2018-02-15 15:57:11.357,9999-12-31 23:59:59.997000,d1208c44-51c2-4916-b239-c88e04cccfb7
291,dd717334-a84e-4289-9e5d-97a7f0524fb2,93c99284-5a7c-4a50-9cea-b62f4a496713,hgbotoe@yahoo.com,0,0,2017-09-05 17:09:25.780,2017-09-05 17:09:25.780,9999-12-31 23:59:59.997000,d1208c44-51c2-4916-b239-c88e04cccfb7
292,dde095e5-884e-405f-b709-47a782578f36,e000a588-49bd-4e63-a0f1-9b9802e67fbc,harrybrod@gmail.com,0,0,2014-10-28 11:15:24.220,2014-10-28 11:15:24.220,9999-12-31 23:59:59.997000,7d6c7c2b-5507-485f-a856-8c5eafaf2826
293,decaebc1-21da-4113-b397-63c11391fd99,12752f72-901e-4026-8bee-62159dad89b6,jmoeller@ftconnect.com,0,0,2013-05-11 08:09:24.933,2013-05-11 08:09:24.933,9999-12-31 23:59:59.997000,ffffffff-ffff-ffff-ffff-ffffffffffff
294,df4a80f3-386e-4be8-88cb-25817b0652cf,c9c41e26-561a-4f12-8293-130a23e304c9,clbright@comcast.net,0,0,2013-05-11 08:09:24.933,2013-05-11 08:09:24.933,9999-12-31 23:59:59.997000,ffffffff-ffff-ffff-ffff-ffffffffffff
295,df4d3292-5686-483b-81ee-48ea61247444,4a38b63c-ee1a-4046-9d27-9fa0e41c4150,ccastrignano17@gmail.com,0,0,2015-06-24 11:48:14.083,2015-06-24 11:48:14.083,9999-12-31 23:59:59.997000,7d6c7c2b-5507-485f-a856-8c5eafaf2826
296,dfa6c474-ef4c-4e1e-83de-fe574c122129,cc1d04ca-8a06-4fa5-b4a2-5aade0d0a1b2,skybird@teleport.com,0,0,2015-01-27 19:10:03.283,2015-01-27 19:10:03.283,9999-12-31 23:59:59.997000,7d6c7c2b-5507-485f-a856-8c5eafaf2826
297,e0442da7-9a1c-474f-bd43-4fbf635da62a,6a67ed81-e6fb-495d-ac95-c6fd24d4ccfa,bertsmail3@gmail.com,0,0,2014-07-22 12:09:02.917,2014-07-22 12:09:02.917,9999-12-31 23:59:59.997000,7d6c7c2b-5507-485f-a856-8c5eafaf2826
298,e1b2b378-85f1-4ea8-85fd-fbcfe19054aa,7d626ad4-130a-45f1-b2cb-ad1c7eeac450,anutkas25@yahoo.com,0,0,2015-08-26 13:29:19.057,2015-08-26 13:29:19.057,9999-12-31 23:59:59.997000,7d6c7c2b-5507-485f-a856-8c5eafaf2826
299,e2a1d851-6b78-4a33-8724-eddcb956f960,9bd32101-6c75-475c-9a8a-fda39417f5f4,503.231.8203,0,0,2015-09-07 14:51:24.780,2015-09-07 14:51:24.780,9999-12-31 23:59:59.997000,7d6c7c2b-5507-485f-a856-8c5eafaf2826
300,e3a35791-fbd3-4e86-8e46-b534faf4b5c5,00c3956b-be5c-4b85-9127-b12cec1969de,rebecca@tiffanyandoshea.com,0,0,2014-03-21 10:36:46.403,2014-03-21 10:36:46.403,9999-12-31 23:59:59.997000,7d6c7c2b-5507-485f-a856-8c5eafaf2826
301,e44c6a3e-9ab1-43c1-9607-4fd789ca0485,14f5a2df-e79c-4c59-9651-9fa3fbf70228,rebecca@tiffanyandoshea.com,0,0,2014-03-21 10:36:46.623,2014-03-21 10:36:46.623,9999-12-31 23:59:59.997000,7d6c7c2b-5507-485f-a856-8c5eafaf2826
302,e4741e0b-c506-496f-a031-c505a73dcd7e,5033d016-783d-43ce-ad71-b11208c291c3,pattyrocs@msn.com,0,0,2013-05-11 08:09:24.933,2013-05-11 08:09:24.933,9999-12-31 23:59:59.997000,ffffffff-ffff-ffff-ffff-ffffffffffff
303,e49313ab-2c2d-412d-829d-1c293aed957f,b91460d0-d016-4323-bab4-f80e97a9931d,diane_carlsen@comcast.net,0,0,2014-11-07 12:38:38.483,2014-11-07 12:38:38.483,9999-12-31 23:59:59.997000,7d6c7c2b-5507-485f-a856-8c5eafaf2826
304,e49956e1-e73d-4012-80b9-e5c6754d78eb,30fdf52a-301f-4f04-be80-15729de57fb4,mr.vincent.johnson@aol.com,0,0,2016-03-02 18:02:14.310,2016-03-02 18:02:14.310,9999-12-31 23:59:59.997000,7d6c7c2b-5507-485f-a856-8c5eafaf2826
305,e661ce31-5f5a-463a-aba1-89c42d4c63f0,fc530d82-7013-478c-91ea-4a923e4c97a3,irishrj@gmail.com,0,0,2018-06-18 15:57:24.533,2018-06-18 15:57:24.533,9999-12-31 23:59:59.997000,d1208c44-51c2-4916-b239-c88e04cccfb7
306,e7bf8934-5f67-4cc9-88fc-cf476f1a83ef,ed6aa109-7bd6-4f23-bbab-5b3f24b9cf34,info@lapalomafuneralservices.com,0,0,2017-05-03 14:33:38.650,2017-05-03 14:33:38.650,9999-12-31 23:59:59.997000,0dba0371-9d0f-4c86-a9a4-d870e359531c
307,e7c136e5-2b2d-4e5f-9801-cb3a3793cf66,38fdfb79-e44a-45e1-80b3-788e707e070c,merlene.drapela@sci-us.com,0,0,2013-08-29 15:37:04.043,2013-08-29 15:37:04.043,9999-12-31 23:59:59.997000,ffffffff-ffff-ffff-ffff-ffffffffffff
308,e8c7bf2b-65d9-488e-8a62-b71ff3a51114,a10399aa-9419-4948-aaf4-acf99e31a966,m.mckenney@hotmail.com,0,0,2018-01-22 10:57:30.980,2018-01-22 10:57:30.980,9999-12-31 23:59:59.997000,d1208c44-51c2-4916-b239-c88e04cccfb7
309,e92fe8b7-205d-4b50-9555-b3f26d3cf498,6b9a9e92-559f-401e-b997-175fe8b623cf,mbarrio64@yahoo.com,0,0,2017-01-26 15:12:47.730,2017-01-26 15:12:47.730,9999-12-31 23:59:59.997000,d1208c44-51c2-4916-b239-c88e04cccfb7
310,e95a6158-1ec0-4b81-a436-a60514dd28a2,1e820046-62b4-4cb7-98bf-39cd036731d7,staverlocomotive@spiritone.com,0,0,2013-05-11 08:09:24.933,2013-05-11 08:09:24.933,9999-12-31 23:59:59.997000,ffffffff-ffff-ffff-ffff-ffffffffffff
311,ea2e9cfa-da4f-4f4e-ba9e-14c635e04038,b44f831a-31ce-4318-baab-c14221d5310c,gintee@aol.com,0,0,2015-10-22 14:40:27.713,2015-10-22 14:40:27.713,9999-12-31 23:59:59.997000,7d6c7c2b-5507-485f-a856-8c5eafaf2826
312,eabdf4a6-fed5-4268-aa34-9f88f5330b48,7322125e-1400-483a-876b-5483fa989063,oregon1@suhor.com,0,0,2013-08-29 15:37:04.043,2013-08-29 15:37:04.043,9999-12-31 23:59:59.997000,ffffffff-ffff-ffff-ffff-ffffffffffff
313,eb06df5f-13a5-492e-a368-e518cda0a360,9f13650d-b3ab-400a-90e0-551e8778734e,lisa@mcd-law.com,0,0,2015-05-18 13:40:20.413,2015-05-18 13:40:20.413,9999-12-31 23:59:59.997000,7d6c7c2b-5507-485f-a856-8c5eafaf2826
314,ebf865fe-66b6-44c5-8a1e-5172d2f31007,3281edf2-5eb4-46ca-95c3-d8983b51343f,herb.sorensen@gmail.com,0,0,2017-04-25 13:58:31.747,2017-04-25 13:58:31.747,9999-12-31 23:59:59.997000,d1208c44-51c2-4916-b239-c88e04cccfb7
315,ec4954d8-b0dd-4efc-8072-9f8248f942b9,227fe502-5985-42cc-b0eb-c6e379692ac4,kellykester@live.com,0,0,2014-03-13 16:45:10.253,2014-03-13 16:45:10.253,9999-12-31 23:59:59.997000,03ec4fdc-1f3d-468a-9bf6-685047148424
316,ecdeee7a-b6bd-43d9-a512-50c756cdb43d,33da5300-3fba-4d54-b578-4fc0106fa7dd,kscott4662@comcast.net,0,0,2015-02-02 16:07:32.060,2015-02-02 16:07:32.060,9999-12-31 23:59:59.997000,7d6c7c2b-5507-485f-a856-8c5eafaf2826
317,ed9186fa-b293-4e84-9164-c3fcbe00e1f6,34f9d4db-579e-4421-9bbb-8582eff94339,godseys@localaccess.com,0,0,2013-05-11 08:09:24.933,2013-05-11 08:09:24.933,9999-12-31 23:59:59.997000,ffffffff-ffff-ffff-ffff-ffffffffffff
318,ee054478-d16f-4555-8760-c934e50b58e9,5cc3f4c1-a896-4117-8712-e2f5b99fbd2f,x227,0,0,2013-05-11 08:09:24.933,2013-05-11 08:09:24.933,9999-12-31 23:59:59.997000,ffffffff-ffff-ffff-ffff-ffffffffffff
319,ee5de963-c8d8-4d0b-8269-9a0a75d60bee,d5a1e554-40c8-4c72-8138-5538cbebcfc8,emily.cohen@comcast.net,0,0,2018-03-23 16:10:10.610,2018-03-23 16:10:10.610,9999-12-31 23:59:59.997000,d1208c44-51c2-4916-b239-c88e04cccfb7
320,ef1ed5c0-3da9-4c43-9e3e-487e965e72ab,7b753dd5-cbbe-41c3-964f-089a9c4ca274,kheath10@aol.com,0,0,2013-05-11 08:09:24.933,2013-05-11 08:09:24.933,9999-12-31 23:59:59.997000,ffffffff-ffff-ffff-ffff-ffffffffffff
321,ef4fe1ae-52e3-488e-9978-260c286f9eb2,4da9b0c8-b829-4dc0-9ba6-b199a76bb0da,alaskasnow2002@hotmail.com,0,0,2016-01-28 14:08:14.090,2016-01-28 14:08:14.090,9999-12-31 23:59:59.997000,7d6c7c2b-5507-485f-a856-8c5eafaf2826
322,ef9d1525-5c55-4b59-beed-076397bdcb15,ffd445cb-e0db-4def-8701-f45c39036598,pbelgarde@gmail.com,0,0,2016-05-20 17:37:18.757,2016-05-20 17:37:18.757,9999-12-31 23:59:59.997000,7d6c7c2b-5507-485f-a856-8c5eafaf2826
323,efab1357-3eb8-4d7b-a5fb-0c49455b28da,32fc1861-7a54-4bfb-87b8-4d1e05c1eed4,temirt2@comcast.net,0,0,2017-09-13 15:43:57.820,2017-09-13 15:43:57.820,9999-12-31 23:59:59.997000,d1208c44-51c2-4916-b239-c88e04cccfb7
324,efbd52b6-de22-419d-8daf-17c0850c6b89,6ae6c857-d69b-4ba1-97ba-b88a7ac25ede,bunnywade@comcast.net,0,0,2014-04-21 13:20:51.203,2014-04-21 13:20:51.203,9999-12-31 23:59:59.997000,03ec4fdc-1f3d-468a-9bf6-685047148424
325,f1838f1f-14e3-4fc5-a8c0-70f6287b68c8,c69e0582-5c8c-4f5c-97ca-d56e31e04a2f,connick@sonic.net,0,0,2016-05-20 16:45:47.923,2016-05-20 16:45:47.923,9999-12-31 23:59:59.997000,7d6c7c2b-5507-485f-a856-8c5eafaf2826
326,f27ae4d8-ef6c-4d7c-a233-436b94c68565,91ed6ce0-0293-41f5-98b0-71d69a5b4046,annavasaril@aol.com,0,0,2014-11-13 11:02:10.183,2014-11-13 11:02:10.183,9999-12-31 23:59:59.997000,7d6c7c2b-5507-485f-a856-8c5eafaf2826
327,f3036ccd-3db4-4d75-9d0a-42b707932a6b,28bdcadc-be89-4aaf-b4d6-098da2eab911,ejcook8833@aol.com,0,0,2015-03-02 12:54:31.373,2015-03-02 12:54:31.373,9999-12-31 23:59:59.997000,7d6c7c2b-5507-485f-a856-8c5eafaf2826
328,f3bea060-95c7-43e2-b7d4-34930f9d5002,50651e92-3707-44e2-a54e-bbbc032bc92e,jonrodquin@yahoo.com,0,0,2017-05-04 16:51:36.057,2017-05-04 16:51:36.057,9999-12-31 23:59:59.997000,d1208c44-51c2-4916-b239-c88e04cccfb7
329,f57a8414-73a3-4eb9-a10c-06c56493b3aa,665f41eb-6d61-44b2-8227-ada2956111a9,mlwtran@gmail.com,0,0,2013-05-11 08:09:24.933,2013-05-11 08:09:24.933,9999-12-31 23:59:59.997000,ffffffff-ffff-ffff-ffff-ffffffffffff
330,f65a7b47-6bf3-4331-813f-9d51d1cd5949,7b356a21-f2f3-4c05-ba4c-2c3b314f3185,trailspring@gmail.com,0,0,2013-05-11 08:09:24.933,2013-05-11 08:09:24.933,9999-12-31 23:59:59.997000,ffffffff-ffff-ffff-ffff-ffffffffffff
331,f90996ba-8ce0-4413-8c1d-e8902b0ffe3e,5ee16705-f404-4901-a90b-5c25bc6d14e2,pooh@100acre.com,0,0,2013-05-17 10:25:14.747,2013-05-17 10:25:14.747,9999-12-31 23:59:59.997000,6788befe-8bcd-4999-ad68-03f315351506
332,f9c3904a-4659-4e25-a294-ebbb29b6c6c8,7a419329-459c-4fe6-bd9f-7ebf5eaf7f9f,wagontire@yahoo.com,0,0,2013-05-11 08:09:24.933,2013-05-11 08:09:24.933,9999-12-31 23:59:59.997000,ffffffff-ffff-ffff-ffff-ffffffffffff
333,fa4e1a1c-09a1-4512-8142-a182af376b1e,f1089754-12e3-4025-b1db-4903525ea56a,john.dumitru@hotmail.com,0,0,2015-01-23 12:13:50.520,2015-01-23 12:13:50.520,9999-12-31 23:59:59.997000,7d6c7c2b-5507-485f-a856-8c5eafaf2826
334,fb141d28-0474-4abc-8284-2b525c6bc93e,f0a36b4a-41ee-49e2-a5ce-01604c7e1efc,j.wilsonglass@yahoo.com,0,0,2018-07-19 16:45:23.053,2018-07-19 16:45:23.053,9999-12-31 23:59:59.997000,d1208c44-51c2-4916-b239-c88e04cccfb7
335,fc17bbda-4d23-44a6-a236-9a57447c68b1,2dea020e-d005-4d9a-a44d-0eb75f2e1a65,jennifer_koontz@newyorker.com,0,0,2017-05-22 16:05:28.193,2017-05-22 16:05:28.193,9999-12-31 23:59:59.997000,d1208c44-51c2-4916-b239-c88e04cccfb7
336,ff706775-edae-45bb-8682-8afba818b406,3cf4b9d5-7259-42a3-b76e-f5d3bbc40907,jschwoerer72@gmail.com,0,0,2018-05-14 14:44:07.433,2018-05-14 14:44:07.433,9999-12-31 23:59:59.997000,d1208c44-51c2-4916-b239-c88e04cccfb7
337,ff9ad73e-e52d-499d-85d6-6df2c582435d,f7e3738f-dff5-4a79-9238-3976163cd592,gskinner@willamette.edu,0,0,2017-06-08 15:53:24.057,2017-06-08 15:53:24.057,9999-12-31 23:59:59.997000,d1208c44-51c2-4916-b239-c88e04cccfb7
