,ID,Business_ID,Map_Address,Map_Display,Map_Layers,Transparent
0,7afed2cf-3e33-4192-b04c-ee602a0ef612,4f1b8fe7-39ae-4e21-a7bb-eac931d909ad,http://192.168.10.74:8080/geoserver/www/cemetery.html,Cemetery,"Aerial,Grave,Block",0.8
1,caddaee7-cda4-4155-9478-900584547b2f,4f1b8fe7-39ae-4e21-a7bb-eac931d909ad,http://localhost:8080/geoserver/www/sosCol.html,Columbaria,,1.0
