,ID,Class_Type,Date_Start,Person_ID,Cemetery_ID,Agent_ID,DaysOfHold,Reference_Number,Memo,Version,Date_Created,Date_Modified,Date_Deleted,User_ID
0,3c03b89f-0581-44d5-bed2-491c6c028f6b,THold,5373484.499988,,11111111-1111-1111-1111-111111111111,81fbb82c-6bfa-4c6c-a265-35f239f512da,0,H0000000002,Unavailable,1,2017-07-10 08:23:33.723,2017-09-08 16:40:01.503,2017-09-08 16:40:01.507000,d1208c44-51c2-4916-b239-c88e04cccfb7
1,c600b7a2-cf96-4e06-912a-969ef84059b4,THold,5373484.499988,,11111111-1111-1111-1111-111111111111,d1208c44-51c2-4916-b239-c88e04cccfb7,0,H0000000001,,0,2016-09-13 16:55:07.610,2016-09-13 16:55:07.610,9999-12-31 23:59:59.997000,d1208c44-51c2-4916-b239-c88e04cccfb7
2,cee8993c-6f0f-4c07-9711-bfb207314a01,THold,2456430.1367708333,,11111111-1111-1111-1111-111111111101,00000000-0000-0000-0000-000000000000,60,H0000000001,,0,2013-05-17 15:18:55.110,2013-05-17 15:18:55.110,9999-12-31 23:59:59.997000,cbdb8cf1-31e9-4bbc-84b8-4a9df9c85834
