,ID,Site_ID,Kind_ID,Name,Date,Image_Path,Memo,Version,Date_Created,Date_Modified,Date_Deleted,User_ID
0,01e14dd5-df0f-466e-ba52-3a9e672fe64e,ba366456-c835-4575-b811-270d5633aab5,0edfce5b-09ac-40c7-9111-5cb20bb4fac8,Margaret Odermann,5373484.499988,"M:\PN\Teams\Cemeteries\Markers\Marker Applications\Installation photos\Memorial\Odermann, Margaret.jpg",,0,2018-01-10 15:50:21.963,2018-01-10 15:50:21.963,9999-12-31 23:59:59.997000,d1208c44-51c2-4916-b239-c88e04cccfb7
1,03b7b02d-6ec6-44db-9069-b4f999545972,455f2829-f5c8-4a88-a1df-d46fe7bb570f,4b3aa8fc-15f8-497b-bde3-fd36b02c5a87,"Arnold, Margaret, and Wanita Rise",5373484.499988,"M:\PN\Teams\Cemeteries\Markers\Marker Applications\Installation photos\Engraving\Rise, Wanita.jpg",,0,2018-02-05 16:12:29.453,2018-02-05 16:12:29.453,9999-12-31 23:59:59.997000,d1208c44-51c2-4916-b239-c88e04cccfb7
2,073e5d15-120b-40f5-a1c2-6b2b8fd7161a,c4b0349b-70e6-4b74-b42b-714c7fe59c1d,3f8c4a61-de5a-4288-b588-5ae5053c5c89,Ruth Leichtman Rosenfeld,5373484.499988,"M:\PN\Teams\Cemeteries\Markers\Marker Applications\Installation photos\Memorial\Rosenfeld, Ruth.jpg",,0,2017-02-08 13:01:02.490,2017-02-08 13:01:02.490,9999-12-31 23:59:59.997000,d1208c44-51c2-4916-b239-c88e04cccfb7
3,0812c5eb-e85c-443e-b2c4-aa90eff10188,fd89ace3-72cf-4907-ac3b-450c522e410e,613c745c-8e08-403d-ad60-a8d08707d81c,Rainold Roda,5373484.499988,"M:\PN\Teams\Cemeteries\Markers\Marker Applications\Installation photos\Memorial\Roda, Rainold.JPG",,0,2017-05-24 13:06:44.760,2017-05-24 13:06:44.760,9999-12-31 23:59:59.997000,d1208c44-51c2-4916-b239-c88e04cccfb7
4,08719f68-88a8-461c-903b-333ee16528a2,cbbe730b-5403-4a75-99d5-33b06a53e460,8ee335fa-4ceb-461b-aafc-a133ea0910fd,Balderson family,5373484.499988,M:\PN\Teams\Cemeteries\Markers\Marker Applications\Installation photos\Memorial\Balderson.JPG,,0,2017-05-24 13:14:59.987,2017-05-24 13:14:59.987,9999-12-31 23:59:59.997000,d1208c44-51c2-4916-b239-c88e04cccfb7
5,08eafb9f-c51f-4ec0-9ffc-9f0e63141f41,839b7720-5df9-432d-9ecf-8b51b3dc2104,a1097993-037e-4c45-91d5-40a0934f1caa,Kendra James,5373484.499988,"M:\PN\Teams\Cemeteries\Markers\Marker Applications\Installation photos\Memorial\James, Kendra.jpg",,0,2017-07-10 16:57:55.330,2017-07-10 16:57:55.330,9999-12-31 23:59:59.997000,d1208c44-51c2-4916-b239-c88e04cccfb7
6,095eeb57-2fe2-405e-928d-db65e5fd4632,e92dcf5a-1cc4-4ab2-bcda-9de5c8fae2d5,4b3aa8fc-15f8-497b-bde3-fd36b02c5a87,Joseph Miller,5373484.499988,"M:\PN\Teams\Cemeteries\Markers\Marker Applications\Installation photos\Memorial\Miller, Joseph.jpg",,0,2018-01-11 13:40:12.420,2018-01-11 13:40:12.420,9999-12-31 23:59:59.997000,d1208c44-51c2-4916-b239-c88e04cccfb7
7,0a009f0d-86e3-48c2-bc95-361bba8f3edd,67de26a6-1106-4059-a8ae-124e980d549e,5bf5acea-7c67-4e22-9dea-35c4c891dc8c,Phyllis Register-Buss,5373484.499988,"M:\PN\Teams\Cemeteries\Markers\Marker Applications\Installation photos\Memorial\Register Buss, Phyllis.jpg",,0,2017-02-08 10:51:12.563,2017-02-08 10:51:12.563,9999-12-31 23:59:59.997000,d1208c44-51c2-4916-b239-c88e04cccfb7
8,0a7d4cb4-d6f6-49ab-a01a-6988c64ddfb3,8066accc-3697-4e4c-b3c7-535bfa7b3490,e31ecaee-73d5-4b62-a2db-5662213e7121,David Benton and Scott Steele,5373484.499988,"M:\PN\Teams\Cemeteries\Markers\Marker Applications\Installation photos\Memorial\Benton, David and Steele, Scott.jpg",,0,2018-05-25 16:19:07.553,2018-05-25 16:19:07.553,9999-12-31 23:59:59.997000,d1208c44-51c2-4916-b239-c88e04cccfb7
9,0b2df17c-85cc-43e0-974d-ad9505c105d6,f3a4da35-40de-415b-97dc-972a622b0321,80aad530-2395-4224-b0c2-c4578124cbeb,Tim Sell and Marjorie Mitchell,5373484.499988,"M:\PN\Teams\Cemeteries\Markers\Marker Applications\Installation photos\Memorial\Sell, Mitchell.jpg",,0,2017-12-07 08:48:25.577,2017-12-07 08:48:25.577,9999-12-31 23:59:59.997000,d1208c44-51c2-4916-b239-c88e04cccfb7
10,0cdf16ed-f48f-4f9f-999f-963f09ec8b6a,6d95653c-9176-4d87-84f0-25b7664ee3da,00000000-0000-0000-0000-000000000000,Oliver Sitea,5373484.499988,M:\PN\Teams\Cemeteries\Markers\Marker Applications\Installation photos\Engraving\Sieta and Jessing.jpg,,0,2017-09-14 13:33:14.193,2017-09-14 13:33:14.193,9999-12-31 23:59:59.997000,d1208c44-51c2-4916-b239-c88e04cccfb7
11,0cfc8114-8400-4ef3-bc73-7836498b75aa,8c7d9aa4-c5af-4d31-b210-e119c08fc5f5,13616a00-c168-49d3-9c62-4618499510dd,Mey Choy Saechao,5373484.499988,"M:\PN\Teams\Cemeteries\Markers\Marker Applications\Installation photos\Memorial\Saechao, Mey Choy.jpg",,0,2018-05-29 14:10:17.607,2018-05-29 14:10:17.607,9999-12-31 23:59:59.997000,d1208c44-51c2-4916-b239-c88e04cccfb7
12,0f783b8b-1109-405e-a637-fa09239660a4,6ffdce18-181d-4668-a577-3f6d6cd631ea,4b3aa8fc-15f8-497b-bde3-fd36b02c5a87,Katriel Yekaterina Dmitrievna Goncharuk,5373484.499988,"M:\PN\Teams\Cemeteries\Markers\Marker Applications\Installation photos\Memorial\Goncharuk, Katriel.jpg",,0,2018-04-11 07:03:20.870,2018-04-11 07:03:20.870,9999-12-31 23:59:59.997000,d1208c44-51c2-4916-b239-c88e04cccfb7
13,0ff5a717-73db-4416-8b05-b9270f9f5060,4cc146c8-147b-4159-8283-1d65cfa59107,4e96bb4e-0f00-4021-bc9b-362f8c22a72b,Chan Ta Saephanh,5373484.499988,"M:\PN\Teams\Cemeteries\Markers\Marker Applications\Installation photos\Memorial\Saephan, Chan Ta.jpg",,0,2018-05-31 07:57:28.740,2018-05-31 07:57:28.740,9999-12-31 23:59:59.997000,d1208c44-51c2-4916-b239-c88e04cccfb7
14,10ed9f54-8a31-4c13-9f0b-140acec5f216,9efe2825-74e5-4f25-a2b0-e3e6d98fc9e6,e31ecaee-73d5-4b62-a2db-5662213e7121,Shirley Ann Moss,5373484.499988,"M:\PN\Teams\Cemeteries\Markers\Marker Applications\Installation photos\Memorial\Moss, Shirley Ann.JPG",,1,2017-03-31 13:33:30.050,2017-03-31 13:36:28.240,9999-12-31 23:59:59.997000,d1208c44-51c2-4916-b239-c88e04cccfb7
15,138f6005-15fe-4411-9c16-3f899f473a70,04ca170e-9283-4085-b6a9-77987f5b5253,4e96bb4e-0f00-4021-bc9b-362f8c22a72b,Yoon Chio Saechao,5373484.499988,"M:\PN\Teams\Cemeteries\Markers\Marker Applications\Installation photos\Memorial\Saechao, Yen and Yoon.jpg",,0,2018-05-22 12:39:19.243,2018-05-22 12:39:19.243,9999-12-31 23:59:59.997000,d1208c44-51c2-4916-b239-c88e04cccfb7
16,16e2e4de-4afb-43ed-ad03-28f99192d2e3,c6b435b6-7c6d-4860-a846-97395f3eb97c,80aad530-2395-4224-b0c2-c4578124cbeb,Evelyn Schmidt,5373484.499988,"M:\PN\Teams\Cemeteries\Markers\Marker Applications\Installation photos\Memorial\Schmidt, Evelyn.jpg",,0,2018-07-30 10:55:53.270,2018-07-30 10:55:53.270,9999-12-31 23:59:59.997000,d1208c44-51c2-4916-b239-c88e04cccfb7
17,172f7e64-da99-45a2-a6c9-55f52e560250,f5ef83ae-03e2-40ce-b29e-ae7aa73d040a,80aad530-2395-4224-b0c2-c4578124cbeb,Bill and Connie Register,5373484.499988,"M:\PN\Teams\Cemeteries\Markers\Marker Applications\Installation photos\Memorial\Register, Bill and Connie.jpg",,0,2017-06-08 16:20:44.820,2017-06-08 16:20:44.820,9999-12-31 23:59:59.997000,d1208c44-51c2-4916-b239-c88e04cccfb7
18,188cb7d1-d4d7-469d-a1f4-d1a4d31bee7e,02944e67-e54a-4d0e-94af-52ac22375135,d96874d9-558c-40de-a4e7-77f7bc03e410,Nikolay Mits,5373484.499988,"M:\PN\Teams\Cemeteries\Markers\Marker Applications\Installation photos\Memorial\Mits, Nikolay.jpg",,0,2018-01-10 09:43:30.250,2018-01-10 09:43:30.250,9999-12-31 23:59:59.997000,d1208c44-51c2-4916-b239-c88e04cccfb7
19,19065176-74f2-40a7-93fa-e424b73814af,040dc102-0234-4e1b-94cb-b95f99cf91c0,d96874d9-558c-40de-a4e7-77f7bc03e410,Alonzo Cady,5373484.499988,"M:\PN\Teams\Cemeteries\Markers\Marker Applications\Installation photos\Memorial\Cady, Alonzo.JPG",,0,2017-04-14 12:53:46.080,2017-04-14 12:53:46.080,9999-12-31 23:59:59.997000,d1208c44-51c2-4916-b239-c88e04cccfb7
20,19507337-5d73-4adc-9d86-2b7f70236939,b422826e-2c7f-44a1-aa74-45d2c1821c67,8ee335fa-4ceb-461b-aafc-a133ea0910fd,Blakeley family,5373484.499988,"M:\PN\Teams\Cemeteries\Markers\Marker Applications\Installation photos\Memorial\Blakeley, Sherrie.jpg",,0,2018-05-22 12:41:41.503,2018-05-22 12:41:41.503,9999-12-31 23:59:59.997000,d1208c44-51c2-4916-b239-c88e04cccfb7
21,198f900d-b5fa-4c36-8c06-afb3d2a62eeb,7567f8dd-6c46-4c09-a07d-da7244b55863,00000000-0000-0000-0000-000000000000,John Moore,5373484.499988,"M:\PN\Teams\Cemeteries\Markers\Marker Applications\Installation photos\Engraving\Moore, John.jpg",,0,2018-08-01 15:30:56.317,2018-08-01 15:30:56.317,9999-12-31 23:59:59.997000,d1208c44-51c2-4916-b239-c88e04cccfb7
22,19cae9cf-306d-4a65-a2a2-9af002a991d7,5c2801e7-f1f7-4902-a1a8-5114336f2d50,e0883f98-a16b-44fa-afe8-c80eb744f2f4,John Gordon Randolph,5373484.499988,"M:\PN\Teams\Cemeteries\Markers\Marker Applications\Installation photos\Memorial\Randolph, John.jpg",,0,2018-04-20 11:41:35.463,2018-04-20 11:41:35.463,9999-12-31 23:59:59.997000,d1208c44-51c2-4916-b239-c88e04cccfb7
23,1c0246d4-5b22-418e-995e-e47152cac3e5,7f1cf4e8-ee98-4575-a843-c6691990f968,d96874d9-558c-40de-a4e7-77f7bc03e410,Okonyan,5373484.499988,M:\PN\Teams\Cemeteries\Markers\Marker Applications\Installation photos\Memorial\Okonya.jpg,,0,2018-05-22 12:43:46.963,2018-05-22 12:43:46.963,9999-12-31 23:59:59.997000,d1208c44-51c2-4916-b239-c88e04cccfb7
24,1cf45fa9-0e04-4762-a510-3c9236dda037,9fa344c5-17b9-4276-a677-6bbe63f8fcf0,80aad530-2395-4224-b0c2-c4578124cbeb,Melody Hobgood and Christopher Price,5373484.499988,M:\PN\Teams\Cemeteries\Markers\Marker Applications\Installation photos\Memorial\Hobgood and Price.jpg,,0,2018-07-30 11:56:51.207,2018-07-30 11:56:51.207,9999-12-31 23:59:59.997000,d1208c44-51c2-4916-b239-c88e04cccfb7
25,1d0fbae0-722d-4449-8803-a3061f9fcb7d,ea95c912-0427-4ea3-bd0e-483c0ea4e978,8ee335fa-4ceb-461b-aafc-a133ea0910fd,Ivan Mironichenko,5373484.499988,"M:\PN\Teams\Cemeteries\Markers\Marker Applications\Installation photos\Memorial\Mironichenko, Ivan.jpg",,0,2018-01-11 13:41:01.887,2018-01-11 13:41:01.887,9999-12-31 23:59:59.997000,d1208c44-51c2-4916-b239-c88e04cccfb7
26,1f086820-3e74-44f8-9e34-935f43ae5dd6,07b05f27-9580-44bf-94e2-fb64427499f5,80aad530-2395-4224-b0c2-c4578124cbeb,Robert and Jeanene Stickney,5373484.499988,"M:\PN\Teams\Cemeteries\Markers\Marker Applications\Installation photos\Memorial\Stickney, Robert and Jeanene.jpg",,0,2018-07-30 10:58:00.070,2018-07-30 10:58:00.070,9999-12-31 23:59:59.997000,d1208c44-51c2-4916-b239-c88e04cccfb7
27,1fb6bb02-e5a5-4a59-bb4c-3865085e6cdc,dae8b2f5-9ba9-4808-8f01-2dbfb99e0dec,00000000-0000-0000-0000-000000000000,Jessica Valentine,5373484.499988,"M:\PN\Teams\Cemeteries\Markers\Marker Applications\Installation photos\Engraving\Valentine, Jessica.jpg",,0,2017-11-13 17:48:19.333,2017-11-13 17:48:19.333,9999-12-31 23:59:59.997000,d1208c44-51c2-4916-b239-c88e04cccfb7
28,22777c98-c8ba-4596-b632-fbaf752dc7ed,155a73cb-f13e-437d-af31-95455fad3655,b8cedff7-0c51-4b83-b980-7316e2996c3b,Joyce Maidenberg,5373484.499988,"M:\PN\Teams\Cemeteries\Markers\Marker Applications\Installation photos\Memorial\Maidenberg, Joyce.JPG",,0,2017-05-03 15:28:42.667,2017-05-03 15:28:42.667,9999-12-31 23:59:59.997000,d1208c44-51c2-4916-b239-c88e04cccfb7
29,230803c9-f38f-4385-9a7d-f361bdec773d,907d8c63-744c-49d3-a626-382b4b0c17f9,8ee335fa-4ceb-461b-aafc-a133ea0910fd,Nina and Konstantin Gudev,5373484.499988,M:\PN\Teams\Cemeteries\Markers\Marker Applications\Installation photos\Memorial\Gudev.JPG,,0,2017-05-24 13:08:05.900,2017-05-24 13:08:05.900,9999-12-31 23:59:59.997000,d1208c44-51c2-4916-b239-c88e04cccfb7
30,23a282a1-e8f0-450f-8be8-621ea95082c3,c6a8df3d-392f-4a4f-b40c-f252cd951c9d,80aad530-2395-4224-b0c2-c4578124cbeb,Kenneth and Nancy Krebs,5373484.499988,"M:\PN\Teams\Cemeteries\Markers\Marker Applications\Installation photos\Memorial\Krebs, Kenneth and Nancy.jpg",,0,2018-06-12 10:38:19.743,2018-06-12 10:38:19.743,9999-12-31 23:59:59.997000,d1208c44-51c2-4916-b239-c88e04cccfb7
31,2813b274-6c6a-4b2e-aa06-7a8a6546bb0a,962aa9ef-8b31-4239-aa9d-a2a8503aa3d1,eccb51be-7a4b-4263-bdcc-dea0e004fc9c,Engrid Nelson,5373484.499988,"M:\PN\Teams\Cemeteries\Markers\Marker Applications\Installation photos\Memorial\Nelson, Mary Frances Engrid.jpg",,0,2017-11-13 17:41:47.203,2017-11-13 17:41:47.203,9999-12-31 23:59:59.997000,d1208c44-51c2-4916-b239-c88e04cccfb7
32,282f4ca6-3610-4fbe-89ca-d2ea402611fd,51d7d3bc-681a-403b-a2f7-cccbfeee4761,e0883f98-a16b-44fa-afe8-c80eb744f2f4,Lillie Bell Francis,5373484.499988,"M:\PN\Teams\Cemeteries\Markers\Marker Applications\Installation photos\Memorial\Francis, Lillie Bell.JPG",,0,2017-05-02 15:05:01.417,2017-05-02 15:05:01.417,9999-12-31 23:59:59.997000,d1208c44-51c2-4916-b239-c88e04cccfb7
33,28ffd475-68c0-492f-8f00-ae178ec74071,bcef1e1d-09b6-4021-aa51-b7c546efa09f,53d08ed4-3bd0-43fd-8dac-8bf3475f7c7e,Noel Travilla,5373484.499988,"M:\PN\Teams\Cemeteries\Markers\Marker Applications\Installation photos\Memorial\Travilla, Pacifico, Dinah, Noel.jpg",,0,2018-05-29 14:09:22.130,2018-05-29 14:09:22.130,9999-12-31 23:59:59.997000,d1208c44-51c2-4916-b239-c88e04cccfb7
34,290c6461-0434-43f3-a439-001031a87a57,7e3b0638-14b2-461b-8e14-ac491332b68f,4e96bb4e-0f00-4021-bc9b-362f8c22a72b,Vera and Ivan Nikiforov,5373484.499988,"M:\PN\Teams\Cemeteries\Markers\Marker Applications\Installation photos\Memorial\Nikiforov, Vera and Ivan.JPG",,0,2017-05-03 15:43:50.747,2017-05-03 15:43:50.747,9999-12-31 23:59:59.997000,d1208c44-51c2-4916-b239-c88e04cccfb7
35,29567d0a-31d5-4a7f-b771-5da18c97a9ce,c7ececf5-c095-45a2-94b1-a69fb8fadb2d,d96874d9-558c-40de-a4e7-77f7bc03e410,Lidiya Basaraba,5373484.499988,"M:\PN\Teams\Cemeteries\Markers\Marker Applications\Installation photos\Memorial\Basaraba, Lidiya.JPG","Vase not approved, needs to be filled in.",0,2017-09-12 10:27:41.620,2017-09-12 10:27:41.620,9999-12-31 23:59:59.997000,d1208c44-51c2-4916-b239-c88e04cccfb7
36,2c82e6f5-d7bd-4c1e-b663-faae36c58e23,37ed5e80-70a1-48a0-8087-52767437018b,e0883f98-a16b-44fa-afe8-c80eb744f2f4,Jerry Martin,5373484.499988,"M:\PN\Teams\Cemeteries\Markers\Marker Applications\Installation photos\Memorial\Martin, Jerry.jpg",,0,2017-06-08 16:20:04.333,2017-06-08 16:20:04.333,9999-12-31 23:59:59.997000,d1208c44-51c2-4916-b239-c88e04cccfb7
37,2d279e82-879f-4b95-8d2d-77cdf70fe5c9,128e053e-d443-48e5-9472-9dea965625cd,0edfce5b-09ac-40c7-9111-5cb20bb4fac8,Amanda Christine Pederson,5373484.499988,"M:\PN\Teams\Cemeteries\Markers\Marker Applications\Installation photos\Memorial\Pederson, Amanda.jpg",,0,2018-01-11 09:54:20.630,2018-01-11 09:54:20.630,9999-12-31 23:59:59.997000,d1208c44-51c2-4916-b239-c88e04cccfb7
38,2d8690c9-70b8-4049-bdbc-c991c7787b87,513d6157-e5d8-46ec-8dd5-8725200b4202,d96874d9-558c-40de-a4e7-77f7bc03e410,Marcel Iylian,5373484.499988,"M:\PN\Teams\Cemeteries\Markers\Marker Applications\Installation photos\Memorial\Ciochina, Marcel.jpg",,0,2018-05-09 07:17:39.770,2018-05-09 07:17:39.770,9999-12-31 23:59:59.997000,d1208c44-51c2-4916-b239-c88e04cccfb7
39,2e477beb-6aa1-4295-8656-39d0626d5423,2b61d128-35db-4784-8e32-52f446801881,00000000-0000-0000-0000-000000000000,New Marker,5373484.499988,,Vase,0,2014-08-24 11:36:03.587,2014-08-24 11:36:03.587,9999-12-31 23:59:59.997000,7d6c7c2b-5507-485f-a856-8c5eafaf2826
40,3106836e-d35e-4636-9eca-e73675df268d,27a9b50f-c961-4a8d-921c-88291f5f667b,832de24f-d35d-43b4-8504-22976ec9b0ba,Betty Wilcox,5373484.499988,"M:\PN\Teams\Cemeteries\Markers\Marker Applications\Installation photos\Memorial\Wilcox, Betty.jpg",,0,2018-05-22 15:00:09.590,2018-05-22 15:00:09.590,9999-12-31 23:59:59.997000,d1208c44-51c2-4916-b239-c88e04cccfb7
41,358af48b-2e9e-4c1f-90d3-d1cece2b32a7,2135ec54-c879-40c1-81ee-8fad64501aab,00000000-0000-0000-0000-000000000000,Pamela Jessing,5373484.499988,M:\PN\Teams\Cemeteries\Markers\Marker Applications\Installation photos\Engraving\Sieta and Jessing.jpg,,0,2017-09-14 13:32:03.697,2017-09-14 13:32:03.697,9999-12-31 23:59:59.997000,d1208c44-51c2-4916-b239-c88e04cccfb7
42,35eb066e-84f6-4dbb-aa59-db852138f956,29d1662b-0f7c-4416-83a4-e38b3d93698f,00000000-0000-0000-0000-000000000000,"Updright Marker in gr.2S, L.13, Bl.21.",5373484.499988,,,0,2014-08-08 08:43:15.163,2014-08-08 08:43:15.163,9999-12-31 23:59:59.997000,615670ba-3bd1-4a0b-a137-049c544df806
43,360b4530-118d-4637-8d49-bbd758d09d46,c2ed2fb9-019c-4bc9-a592-14f1c7eb12b3,80aad530-2395-4224-b0c2-c4578124cbeb,Alvin and Rose Janis,5373484.499988,"M:\PN\Teams\Cemeteries\Markers\Marker Applications\Installation photos\Memorial\Janie, Alvin and Rose.jpg",,0,2017-07-19 16:07:08.253,2017-07-19 16:07:08.253,9999-12-31 23:59:59.997000,d1208c44-51c2-4916-b239-c88e04cccfb7
44,362950d7-ede1-480f-9d06-a5bb2eb8ffcf,e2c890ba-120a-4f18-9a56-c357a3543984,d96874d9-558c-40de-a4e7-77f7bc03e410,Nikolay Tkachenko,5373484.499988,"M:\PN\Teams\Cemeteries\Markers\Marker Applications\Installation photos\Memorial\Tkachenko, Nikolay.JPG",,0,2017-03-31 13:42:07.270,2017-03-31 13:42:07.270,9999-12-31 23:59:59.997000,d1208c44-51c2-4916-b239-c88e04cccfb7
45,36a468c5-4576-4c2f-8c96-d13fb1801644,5ac9090b-9e60-4bf3-bb39-47149e5fa7ae,a1097993-037e-4c45-91d5-40a0934f1caa,Lydumila Volsky,5373484.499988,"M:\PN\Teams\Cemeteries\Markers\Marker Applications\Installation photos\Memorial\Volsky, Lyudmila.JPG",,0,2017-03-31 13:38:58.393,2017-03-31 13:38:58.393,9999-12-31 23:59:59.997000,d1208c44-51c2-4916-b239-c88e04cccfb7
46,36c270ad-64b2-4d9e-85ec-a5fa46022691,3048f1d6-4fbf-4f30-98f6-ae8520053722,80aad530-2395-4224-b0c2-c4578124cbeb,Natashia Germinaro,5373484.499988,"M:\PN\Teams\Cemeteries\Markers\Marker Applications\Installation photos\Memorial\Germinaro, Natashia.jpg",,0,2018-01-11 10:02:39.830,2018-01-11 10:02:39.830,9999-12-31 23:59:59.997000,d1208c44-51c2-4916-b239-c88e04cccfb7
47,36d6920b-b131-449a-88e7-06f5b03f0f11,904e54b7-0215-43b1-a978-e30967dc168e,a154f36f-7896-4cfe-b542-7fb6bb9828ec,Cipriano Diaz Delgado,5373484.499988,"M:\PN\Teams\Cemeteries\Markers\Marker Applications\Installation photos\Memorial\Delgado, Cipriano.jpg",,0,2017-07-11 17:04:11.353,2017-07-11 17:04:11.353,9999-12-31 23:59:59.997000,d1208c44-51c2-4916-b239-c88e04cccfb7
48,3a92b048-01a9-4768-bcff-1664f68af6fa,975a6929-0254-40a2-87e9-f1ce72e496bd,a1097993-037e-4c45-91d5-40a0934f1caa,Mary and Donald Bieker,5373484.499988,"M:\PN\Teams\Cemeteries\Markers\Marker Applications\Installation photos\Memorial\Bieker, Mary and Donald.JPG",,0,2017-03-23 12:55:01.343,2017-03-23 12:55:01.343,9999-12-31 23:59:59.997000,d1208c44-51c2-4916-b239-c88e04cccfb7
49,3c6ebf90-b1cd-4685-bdff-b023624fcdd4,feff6166-db2f-4e4b-93ea-df00873f5043,eccb51be-7a4b-4263-bdcc-dea0e004fc9c,Mildred K. Gibson,5373484.499988,"M:\PN\Teams\Cemeteries\Markers\Marker Applications\Installation photos\Memorial\Gibson, Mildred.jpg",,0,2017-02-08 13:03:36.373,2017-02-08 13:03:36.373,9999-12-31 23:59:59.997000,d1208c44-51c2-4916-b239-c88e04cccfb7
50,3d7cfeeb-6f29-4204-acd7-e8228a26ab78,c03512a4-a0fe-43ef-865d-c3b9336833bb,8ee335fa-4ceb-461b-aafc-a133ea0910fd,Andrey and Anna Tasmaly,5373484.499988,"M:\PN\Teams\Cemeteries\Markers\Marker Applications\Installation photos\Memorial\Tasmaly, Andrey and Anna.jpg",,0,2018-05-22 12:37:34.673,2018-05-22 12:37:34.673,9999-12-31 23:59:59.997000,d1208c44-51c2-4916-b239-c88e04cccfb7
51,3fc1df76-1cf6-4a45-b7be-28d9ea194c72,63b2941c-1617-476a-a75b-08f1e31d7be2,80aad530-2395-4224-b0c2-c4578124cbeb,Jeanne Burgess-Magiera,5373484.499988,"M:\PN\Teams\Cemeteries\Markers\Marker Applications\Installation photos\Memorial\Burgess-Magiera, Jeanne Marie.jpg",,0,2017-10-11 14:54:44.093,2017-10-11 14:54:44.093,9999-12-31 23:59:59.997000,d1208c44-51c2-4916-b239-c88e04cccfb7
52,4188d595-2e44-4054-a7e6-5fcd6a1afcc0,fdfcbcbd-b6c0-4917-968a-9a32ca81c13d,80aad530-2395-4224-b0c2-c4578124cbeb,Lora and Walter Cox,5373484.499988,"M:\PN\Teams\Cemeteries\Markers\Marker Applications\Installation photos\Memorial\Cox, Laura and Walt.jpg",,0,2018-01-10 09:45:27.347,2018-01-10 09:45:27.347,9999-12-31 23:59:59.997000,d1208c44-51c2-4916-b239-c88e04cccfb7
53,41d1ae7a-00a8-4c9b-b289-eff5b68166e9,ad35d90b-b53c-4599-ae45-7d1a91597163,00000000-0000-0000-0000-000000000000,"McHenry, Charles and Mildred",5373484.499988,"M:\PN\Teams\Cemeteries\Markers\Marker Applications\Installation photos\Engraving\McHenry, Charles and Mildred.jpg",,0,2017-08-02 13:30:00.570,2017-08-02 13:30:00.570,9999-12-31 23:59:59.997000,d1208c44-51c2-4916-b239-c88e04cccfb7
54,422cd0a6-bb60-446a-82a0-f3f045906183,a9373ba2-4803-4cc1-a8d0-9971ff52ae39,80aad530-2395-4224-b0c2-c4578124cbeb,Polly and James Carl,5373484.499988,"M:\PN\Teams\Cemeteries\Markers\Marker Applications\Installation photos\Memorial\Carl, Polly and James.jpg",,0,2018-01-11 10:04:32.917,2018-01-11 10:04:32.917,9999-12-31 23:59:59.997000,d1208c44-51c2-4916-b239-c88e04cccfb7
55,45813d81-e5fd-4258-82c2-d63cd50d4ef8,dccc4242-8433-4a55-91ed-0fff2236531a,e0883f98-a16b-44fa-afe8-c80eb744f2f4,Virginia and Theodore Koontz,5373484.499988,"M:\PN\Teams\Cemeteries\Markers\Marker Applications\Installation photos\Memorial\Koontz, Virginia and Theodore.jpg",,0,2017-09-13 15:56:07.717,2017-09-13 15:56:07.717,9999-12-31 23:59:59.997000,d1208c44-51c2-4916-b239-c88e04cccfb7
56,4862c055-e6b4-4d8d-ac16-5c8b785e4702,1e963898-fe8e-487a-86cd-8668bf873701,d96874d9-558c-40de-a4e7-77f7bc03e410,Frank and Gloria,5373484.499988,"M:\PN\Teams\Cemeteries\Markers\Marker Applications\Installation photos\Memorial\Falk, Frank and Gloria.jpg",,0,2018-05-14 16:09:51.527,2018-05-14 16:09:51.527,9999-12-31 23:59:59.997000,d1208c44-51c2-4916-b239-c88e04cccfb7
57,4ab77d9d-c64a-45b1-8f1f-d8efdec78306,9c735167-8043-44f3-95c4-1740a571d856,80aad530-2395-4224-b0c2-c4578124cbeb,Lavada and Rick Wilkins,5373484.499988,"M:\PN\Teams\Cemeteries\Markers\Marker Applications\Installation photos\Memorial\Wilkins, Lavada and Rick.jpg",,0,2018-03-01 16:01:07.180,2018-03-01 16:01:07.180,9999-12-31 23:59:59.997000,d1208c44-51c2-4916-b239-c88e04cccfb7
58,4b1ad6be-dfd9-4523-888b-ed2f61bb89f5,0e58a0e6-50f4-4ffb-8d1f-add3fa2e4c7b,85c96d05-4fe5-42df-bbf3-bce3c63f9288,Galina Guzenko,5373484.499988,"M:\PN\Teams\Cemeteries\Markers\Marker Applications\Installation photos\Memorial\Guzenko, Galina.jpg",,0,2017-05-24 13:17:30.610,2017-05-24 13:17:30.610,9999-12-31 23:59:59.997000,d1208c44-51c2-4916-b239-c88e04cccfb7
59,4b3dee81-62b1-4a54-b822-6c0eabc20db9,20fd3fc0-d377-405b-84d8-249d92f73584,80aad530-2395-4224-b0c2-c4578124cbeb,Loyal and Anne Marie Buroker,5373484.499988,"M:\PN\Teams\Cemeteries\Markers\Marker Applications\Installation photos\Memorial\Buroker, Loyal and Anne.jpg",,0,2017-07-19 16:06:00.843,2017-07-19 16:06:00.843,9999-12-31 23:59:59.997000,d1208c44-51c2-4916-b239-c88e04cccfb7
60,4bf22939-8c9a-427b-ba16-b43303635868,c8ab1635-b771-48ec-af89-712274953d2f,e0883f98-a16b-44fa-afe8-c80eb744f2f4,Clifton Leroy Fisher Jr.,5373484.499988,"M:\PN\Teams\Cemeteries\Markers\Marker Applications\Installation photos\Memorial\Fisher, Clifton.jpg",,0,2018-01-26 11:35:07.430,2018-01-26 11:35:07.430,9999-12-31 23:59:59.997000,d1208c44-51c2-4916-b239-c88e04cccfb7
61,4c0922b6-0442-42dd-89fb-a48023f8608e,c0cae4b7-e489-4dd9-b065-78bd173a9e9f,85c96d05-4fe5-42df-bbf3-bce3c63f9288,Vladimir Kozakevich,5373484.499988,"M:\PN\Teams\Cemeteries\Markers\Marker Applications\Installation photos\Memorial\Kozakevich, Vladimir.JPG",,0,2017-05-24 13:09:01.593,2017-05-24 13:09:01.593,9999-12-31 23:59:59.997000,d1208c44-51c2-4916-b239-c88e04cccfb7
62,4d575285-6dd8-4158-a032-a26096b0cf00,8467ebbe-ec2c-47aa-a29a-78a5a82910fd,e0883f98-a16b-44fa-afe8-c80eb744f2f4,Judy and Dan Kelner,5373484.499988,"M:\PN\Teams\Cemeteries\Markers\Marker Applications\Installation photos\Memorial\Kelner, Judy and Daniel.JPG",Niche engraving,0,2017-09-12 10:23:21.047,2017-09-12 10:23:21.047,9999-12-31 23:59:59.997000,d1208c44-51c2-4916-b239-c88e04cccfb7
63,4d8a8906-952e-4f00-9e33-65f57f86988b,e6e5cb72-1a31-4caf-801b-6e90fb6f6dc0,a154f36f-7896-4cfe-b542-7fb6bb9828ec,Pando Shorrow,5373484.499988,"M:\PN\Teams\Cemeteries\Markers\Marker Applications\Installation photos\Memorial\Shorrow, pando.jpg",,0,2017-12-07 08:50:12.547,2017-12-07 08:50:12.547,9999-12-31 23:59:59.997000,d1208c44-51c2-4916-b239-c88e04cccfb7
64,4db4c95b-1b1f-49f3-a387-6d0ec4b255e8,a0fc4885-8476-4c4b-8be7-fe75fcebdac8,a154f36f-7896-4cfe-b542-7fb6bb9828ec,Helson Asimi,5373484.499988,"M:\PN\Teams\Cemeteries\Markers\Marker Applications\Installation photos\Memorial\Asimi, Helson.JPG",,0,2017-09-18 12:32:20.750,2017-09-18 12:32:20.750,9999-12-31 23:59:59.997000,d1208c44-51c2-4916-b239-c88e04cccfb7
65,52a46e79-095f-465f-8a17-b0b52f4b9585,02944e67-e54a-4d0e-94af-52ac22375135,00000000-0000-0000-0000-000000000000,New Marker,5373484.499988,"M:\PN\Teams\Cemeteries\Markers\Marker Applications\Installation photos\Memorial\Mits, Nikolay.jpg",,1,2018-01-10 09:41:47.537,2018-01-10 09:42:11.140,2018-01-10 09:42:11.097000,d1208c44-51c2-4916-b239-c88e04cccfb7
66,58b482af-d6b4-4e79-ba52-2be3988e1a1f,7bc41325-1f48-4fc4-8385-9216d6764752,d96874d9-558c-40de-a4e7-77f7bc03e410,Viktor Shevstov,5373484.499988,"M:\PN\Teams\Cemeteries\Markers\Marker Applications\Installation photos\Memorial\Shevstov, Viktor.jpg",,0,2018-01-10 10:18:22.233,2018-01-10 10:18:22.233,9999-12-31 23:59:59.997000,d1208c44-51c2-4916-b239-c88e04cccfb7
67,5b63210b-37ee-484b-8a46-6189d41f7308,2c5ab9aa-3f5a-47ea-b925-00ba8dd89adc,80aad530-2395-4224-b0c2-c4578124cbeb,Jean Robinson,5373484.499988,"M:\PN\Teams\Cemeteries\Markers\Marker Applications\Installation photos\Memorial\Robinson, Jean.jpg",,0,2018-07-30 12:03:48.173,2018-07-30 12:03:48.173,9999-12-31 23:59:59.997000,d1208c44-51c2-4916-b239-c88e04cccfb7
68,606ec1e0-1f5a-4517-8ee7-826917283a6b,cfde21f8-2d8b-4da8-8e8e-d1126d1a1409,80aad530-2395-4224-b0c2-c4578124cbeb,Thelma Trude Jacobsen,5373484.499988,"M:\PN\Teams\Cemeteries\Markers\Marker Applications\Installation photos\Memorial\Jacobsen, Thelma Trude.jpg",,0,2018-01-26 14:11:11.910,2018-01-26 14:11:11.910,9999-12-31 23:59:59.997000,d1208c44-51c2-4916-b239-c88e04cccfb7
69,623843b1-f7d1-482a-bfc8-21d552d09721,ce8da036-2398-4675-b5df-01f1fa04be17,613c745c-8e08-403d-ad60-a8d08707d81c,Larry and Barbara Miller,5373484.499988,"M:\PN\Teams\Cemeteries\Markers\Marker Applications\Installation photos\Memorial\Miller, Larry and Barbara.jpg",,0,2018-01-22 14:42:47.810,2018-01-22 14:42:47.810,9999-12-31 23:59:59.997000,d1208c44-51c2-4916-b239-c88e04cccfb7
70,629fe93f-6d3a-43a3-9e6e-d621ca788be0,37a321c3-6c6c-4ba2-a3de-102e18aef987,8ee335fa-4ceb-461b-aafc-a133ea0910fd,Balderson family,5373484.499988,M:\PN\Teams\Cemeteries\Markers\Marker Applications\Installation photos\Memorial\Balderson.JPG,,0,2017-05-24 13:15:30.907,2017-05-24 13:15:30.907,9999-12-31 23:59:59.997000,d1208c44-51c2-4916-b239-c88e04cccfb7
71,64430bbf-026d-49ee-aa75-46dc4051f408,e0a4a682-fc1b-4669-8f1a-f3e2ed9eed72,e0883f98-a16b-44fa-afe8-c80eb744f2f4,Lois Taylor-Davis,5373484.499988,"M:\PN\Teams\Cemeteries\Markers\Marker Applications\Installation photos\Memorial\Taylor-Davis, Lois.jpg",,0,2017-12-26 10:40:02.747,2017-12-26 10:40:02.747,9999-12-31 23:59:59.997000,d1208c44-51c2-4916-b239-c88e04cccfb7
72,652a036c-7305-4a75-8148-c5d3d82666e2,88d7a6bf-f856-447e-b289-bdaa3ac90d40,e0883f98-a16b-44fa-afe8-c80eb744f2f4,Donald Godman,5373484.499988,"M:\PN\Teams\Cemeteries\Markers\Marker Applications\Installation photos\Memorial\Godman, Donald.jpg",,0,2018-05-01 13:32:13.180,2018-05-01 13:32:13.180,9999-12-31 23:59:59.997000,d1208c44-51c2-4916-b239-c88e04cccfb7
73,6645072e-3da2-46ac-9d8a-a6033834b9f6,64e608b5-fe0a-4281-875d-e392728b2046,0edfce5b-09ac-40c7-9111-5cb20bb4fac8,Evelyn DeYoung,5373484.499988,"M:\PN\Teams\Cemeteries\Markers\Marker Applications\Installation photos\Memorial\DeYoung, Byron and Evelyn.jpg",Memorial marker only,0,2018-01-10 15:48:27.583,2018-01-10 15:48:27.583,9999-12-31 23:59:59.997000,d1208c44-51c2-4916-b239-c88e04cccfb7
74,677390cc-1d34-4b51-9333-b46b0cd508f5,c3e26334-307c-404f-8f8a-9bd9a8296d67,0edfce5b-09ac-40c7-9111-5cb20bb4fac8,Sp. Marcus M. Mark,5373484.499988,"M:\PN\Teams\Cemeteries\Markers\Marker Applications\Installation photos\Memorial\Mark, Marcus.jpg",,0,2018-01-11 09:53:37.810,2018-01-11 09:53:37.810,9999-12-31 23:59:59.997000,d1208c44-51c2-4916-b239-c88e04cccfb7
75,68b3fbd1-2878-47c6-8c77-7f7e8eda0427,055ce544-ad9e-4f51-8f4d-431673cfa1bc,00000000-0000-0000-0000-000000000000,Jesus Misael Maldonado Garcia,5373484.499988,"M:\PN\Teams\Cemeteries\Markers\Marker Applications\Installation photos\Memorial\Garcia, Jesus.jpg",,0,2018-03-07 12:47:19.370,2018-03-07 12:47:19.370,9999-12-31 23:59:59.997000,d1208c44-51c2-4916-b239-c88e04cccfb7
76,691e0e4d-4d60-4d8d-a30c-b5cd4bb26793,77739e3e-e39f-4af8-a424-63018dc8c012,d96874d9-558c-40de-a4e7-77f7bc03e410,Erik Davis,5373484.499988,"M:\PN\Teams\Cemeteries\Markers\Marker Applications\Installation photos\Memorial\Davis, Erik.jpg",,0,2018-03-29 13:50:17.543,2018-03-29 13:50:17.543,9999-12-31 23:59:59.997000,d1208c44-51c2-4916-b239-c88e04cccfb7
77,6a3e5eb6-4fc6-4ef7-876f-1ed800e24ba9,4563d920-52e9-4fff-b96d-0e78144ba49d,8ee335fa-4ceb-461b-aafc-a133ea0910fd,Dmitriy and Emiliya Fayevtsev,5373484.499988,"M:\PN\Teams\Cemeteries\Markers\Marker Applications\Installation photos\Memorial\Fayevtsev, Dmitriy and Emiliya.jpg",,0,2018-01-22 14:43:50.007,2018-01-22 14:43:50.007,9999-12-31 23:59:59.997000,d1208c44-51c2-4916-b239-c88e04cccfb7
78,6a4b47cb-a376-4b79-a88c-6523cf88f318,14c66618-49d0-4c38-a916-63e92fc79041,e0883f98-a16b-44fa-afe8-c80eb744f2f4,Juan Francisco Galaviz,5373484.499988,"M:\PN\Teams\Cemeteries\Markers\Marker Applications\Installation photos\Memorial\Galaviz, Juan.JPG",,0,2017-09-05 16:48:29.900,2017-09-05 16:48:29.900,9999-12-31 23:59:59.997000,d1208c44-51c2-4916-b239-c88e04cccfb7
79,6a73bddc-9549-41f9-9026-7d05d6da3ba0,1a1b05bd-f064-4fb3-b0a7-113bb6d2b315,00000000-0000-0000-0000-000000000000,Mengke Kou,5373484.499988,"M:\PN\Teams\Cemeteries\Markers\Marker Applications\Installation photos\Engraving\Kou, Mengke.jpg",,0,2017-03-31 13:34:29.910,2017-03-31 13:34:29.910,9999-12-31 23:59:59.997000,d1208c44-51c2-4916-b239-c88e04cccfb7
80,6b1397c1-454f-4378-8197-2ba2fc5d8562,53d82f39-38b8-4a54-83c1-66592ab2054c,0edfce5b-09ac-40c7-9111-5cb20bb4fac8,Byron DeYong,5373484.499988,"M:\PN\Teams\Cemeteries\Markers\Marker Applications\Installation photos\Memorial\DeYoung, Byron and Evelyn.jpg",Memorial marker only,0,2018-01-10 15:49:07.537,2018-01-10 15:49:07.537,9999-12-31 23:59:59.997000,d1208c44-51c2-4916-b239-c88e04cccfb7
81,6b2c1bae-63a3-45d9-9bfb-0e6c70e7cab3,2385a336-ddd4-4e53-8a3b-87be895b14d0,00000000-0000-0000-0000-000000000000,Richard Shafford,5373484.499988,"M:\PN\Teams\Cemeteries\Markers\Marker Applications\Installation photos\Engraving\Scrafford, Richard.jpg",,0,2018-08-01 15:51:23.880,2018-08-01 15:51:23.880,9999-12-31 23:59:59.997000,d1208c44-51c2-4916-b239-c88e04cccfb7
82,6c20feda-acd0-405f-af28-8403d1bb54b4,ab7919cc-0027-4a05-b017-e10784e4825f,4e96bb4e-0f00-4021-bc9b-362f8c22a72b,Fou Lin Vang Saephan,5373484.499988,"M:\PN\Teams\Cemeteries\Markers\Marker Applications\Installation photos\Memorial\Saephan, Fou Lin Vang.jpg",,0,2018-05-25 16:19:54.870,2018-05-25 16:19:54.870,9999-12-31 23:59:59.997000,d1208c44-51c2-4916-b239-c88e04cccfb7
83,6c4c48f8-a2ce-4163-bab6-2ab672a2a47d,978e0040-1c32-420e-8680-790d6ac9e03b,80aad530-2395-4224-b0c2-c4578124cbeb,Enrique Cuevas,5373484.499988,"M:\PN\Teams\Cemeteries\Markers\Marker Applications\Installation photos\Memorial\Cuevas, Enrique.jpg",,0,2017-05-22 12:58:03.780,2017-05-22 12:58:03.780,9999-12-31 23:59:59.997000,d1208c44-51c2-4916-b239-c88e04cccfb7
84,6c6544fe-196f-4494-a8e6-4641f022030d,2f88f348-877e-44ab-8c77-ecd89746c1ed,bfce545a-85f6-4d51-b395-23b56614e692,Dorothy Stanley and Etheljane Quinn,5373484.499988,M:\PN\Teams\Cemeteries\Markers\Marker Applications\Installation photos\Memorial\Quinn and Stanley.JPG,,0,2017-09-05 16:52:25.903,2017-09-05 16:52:25.903,9999-12-31 23:59:59.997000,d1208c44-51c2-4916-b239-c88e04cccfb7
85,6eabbd43-0741-4d1d-8987-d37e57d98e54,9a36f345-731e-4cf1-8d03-6608cad764c2,d96874d9-558c-40de-a4e7-77f7bc03e410,Nataliya Zajharova,5373484.499988,"M:\PN\Teams\Cemeteries\Markers\Marker Applications\Installation photos\Memorial\Zakharova, Nataliya.jpg",,0,2018-05-17 15:29:46.747,2018-05-17 15:29:46.747,9999-12-31 23:59:59.997000,d1208c44-51c2-4916-b239-c88e04cccfb7
86,6ef640b6-a4d5-4e83-8ad6-65cdac9fb443,efc069df-80b2-4c56-9799-5a2bc21c9f6b,222bb7a3-191c-42cc-bab8-11bd464a64af,Victor Shcherbakov,5373484.499988,"M:\PN\Teams\Cemeteries\Markers\Marker Applications\Installation photos\Memorial\Shcherbakov, Victor.jpg",,0,2018-05-25 16:18:20.130,2018-05-25 16:18:20.130,9999-12-31 23:59:59.997000,d1208c44-51c2-4916-b239-c88e04cccfb7
87,700f6fbc-15d5-425a-9233-e18681a04cb6,d6d0a086-3761-4f03-b66b-65e2dd5509ff,81c3d22e-514f-4726-a3ce-0c6192fdd3fa,Meuy Fou Saechao,5373484.499988,"M:\PN\Teams\Cemeteries\Markers\Marker Applications\Installation photos\Memorial\Saechao, Meuy Fou.JPG","Installed 3/3/17, inspected 3/17/17",0,2017-03-17 12:18:34.557,2017-03-17 12:18:34.557,9999-12-31 23:59:59.997000,d1208c44-51c2-4916-b239-c88e04cccfb7
88,70441b47-4477-4768-9876-21ddae03817d,39e4a02d-f43c-4e22-9cd9-c2cae87d083e,e0883f98-a16b-44fa-afe8-c80eb744f2f4,Nicole and Larry Pattee,5373484.499988,"M:\PN\Teams\Cemeteries\Markers\Marker Applications\Installation photos\Memorial\Pattee, Nicle and Larry.jpg",,0,2018-07-17 12:15:27.613,2018-07-17 12:15:27.613,9999-12-31 23:59:59.997000,d1208c44-51c2-4916-b239-c88e04cccfb7
89,70c7da52-c321-4d5e-942d-820ee3d0b3d3,1b288c61-ff91-4a3f-aa9b-ba4cc1c0128f,4e96bb4e-0f00-4021-bc9b-362f8c22a72b,Saida Nelson,5373484.499988,"M:\PN\Teams\Cemeteries\Markers\Marker Applications\Installation photos\Memorial\Nelson, Saida.JPG",,0,2017-05-03 15:48:05.960,2017-05-03 15:48:05.960,9999-12-31 23:59:59.997000,d1208c44-51c2-4916-b239-c88e04cccfb7
90,748cd9e4-a299-484d-933d-602eff0f0112,c4f0cfad-4281-4642-a599-643602af87b1,80aad530-2395-4224-b0c2-c4578124cbeb,Joan D. Caldwell,5373484.499988,"M:\PN\Teams\Cemeteries\Markers\Marker Applications\Installation photos\Memorial\Caldwell, Joan.jpg",,0,2018-01-11 10:01:38.253,2018-01-11 10:01:38.253,9999-12-31 23:59:59.997000,d1208c44-51c2-4916-b239-c88e04cccfb7
91,7789463a-7c70-41e0-bdf8-0607c97b865e,4b318afb-13b5-4e38-80bd-ad807e308d5e,8ee335fa-4ceb-461b-aafc-a133ea0910fd,Motrona Misyura,5373484.499988,"M:\PN\Teams\Cemeteries\Markers\Marker Applications\Installation photos\Memorial\Misyura, Montrona.jpg",,0,2018-01-12 16:06:55.670,2018-01-12 16:06:55.670,9999-12-31 23:59:59.997000,d1208c44-51c2-4916-b239-c88e04cccfb7
92,78198432-8f82-4aec-9baf-58c2ee42e3db,ccbacc18-ccb5-4d73-875c-3782e8543db6,e0883f98-a16b-44fa-afe8-c80eb744f2f4,Theresa Thomas-Johnson,5373484.499988,"M:\PN\Teams\Cemeteries\Markers\Marker Applications\Installation photos\Memorial\Thomas-Johnson, Theresa.jpg",,0,2018-05-01 14:22:36.083,2018-05-01 14:22:36.083,9999-12-31 23:59:59.997000,d1208c44-51c2-4916-b239-c88e04cccfb7
93,78367627-da0b-45df-8c3a-f3b692112fd7,afaf12cf-7e0d-483b-8709-b3347cd854a1,e0883f98-a16b-44fa-afe8-c80eb744f2f4,Donald and Helen Klopfenstein,5373484.499988,"M:\PN\Teams\Cemeteries\Markers\Marker Applications\Installation photos\Memorial\Klopfenstein, Donald and Helen.jpg",,0,2017-06-08 16:19:22.743,2017-06-08 16:19:22.743,9999-12-31 23:59:59.997000,d1208c44-51c2-4916-b239-c88e04cccfb7
94,7d4c2337-f818-4202-b3c9-75b4ca00cd13,82cebec1-8a56-4d34-88ab-9d81d3b77f6f,4e96bb4e-0f00-4021-bc9b-362f8c22a72b,Foo Poo Orn Saechao,5373484.499988,"M:\PN\Teams\Cemeteries\Markers\Marker Applications\Installation photos\Memorial\Saechao, Foo Poo Orn.JPG",,0,2017-05-03 15:45:17.130,2017-05-03 15:45:17.130,9999-12-31 23:59:59.997000,d1208c44-51c2-4916-b239-c88e04cccfb7
95,7eb24379-73ba-4f49-baf4-34758222f768,cfdfcd9e-c730-4635-b7f6-2f8973e292cc,d96874d9-558c-40de-a4e7-77f7bc03e410,Rada and Rajko Cosovic,5373484.499988,"M:\PN\Teams\Cemeteries\Markers\Marker Applications\Installation photos\Memorial\Cosovic, Rada and Rajko.JPG",Companion,0,2017-03-31 13:40:30.720,2017-03-31 13:40:30.720,9999-12-31 23:59:59.997000,d1208c44-51c2-4916-b239-c88e04cccfb7
96,807146fc-2bd3-4a69-b369-53be67dacaf6,fcf2ea78-7c4c-4f61-abfc-a515056ce022,80aad530-2395-4224-b0c2-c4578124cbeb,Laurie Michelle Mullins,5373484.499988,"M:\PN\Teams\Cemeteries\Markers\Marker Applications\Installation photos\Memorial\Mullins, Laurie Michelle.jpg",,0,2017-02-08 10:47:02.407,2017-02-08 10:47:02.407,9999-12-31 23:59:59.997000,d1208c44-51c2-4916-b239-c88e04cccfb7
97,808b0fcb-48a8-4979-a122-1dff4745d9f4,f3929f9b-baa9-4a81-a9a7-654ecfb8dfe2,832de24f-d35d-43b4-8504-22976ec9b0ba,Gregory Lorain,5373484.499988,"M:\PN\Teams\Cemeteries\Markers\Marker Applications\Installation photos\Memorial\Lorain, Gregory.jpeg",,0,2018-07-27 11:13:04.760,2018-07-27 11:13:04.760,9999-12-31 23:59:59.997000,d1208c44-51c2-4916-b239-c88e04cccfb7
98,80d955a1-9ac3-4b55-90aa-3554ee8c675c,60f86a2b-5d11-4cdd-9f3e-436217509913,00000000-0000-0000-0000-000000000000,Melvin and Beverly Sweet,5373484.499988,"M:\PN\Teams\Cemeteries\Markers\Marker Applications\Installation photos\Engraving\Sweet, Melvin and Beverly.jpg",,0,2018-08-01 15:32:01.103,2018-08-01 15:32:01.103,9999-12-31 23:59:59.997000,d1208c44-51c2-4916-b239-c88e04cccfb7
99,812e408b-8cae-49c5-98ba-c57a67c8b3aa,5907f60a-71b2-4a99-b832-0c16ed430144,80aad530-2395-4224-b0c2-c4578124cbeb,Malcom and Peggy Brewer,5373484.499988,"M:\PN\Teams\Cemeteries\Markers\Marker Applications\Installation photos\Memorial\Brewer, Malcom and Peggy.jpg",,0,2017-05-08 11:55:47.753,2017-05-08 11:55:47.753,9999-12-31 23:59:59.997000,d1208c44-51c2-4916-b239-c88e04cccfb7
100,8874a968-bbbd-4ee9-8101-59ae71ac192a,e0ea02b1-93d9-40cb-882e-4af24b7fd08d,80aad530-2395-4224-b0c2-c4578124cbeb,"Parker family, memorial only",5373484.499988,M:\PN\Teams\Cemeteries\Markers\Marker Applications\Installation photos\Memorial\Parker family.jpg,,0,2017-10-11 14:51:42.923,2017-10-11 14:51:42.923,9999-12-31 23:59:59.997000,d1208c44-51c2-4916-b239-c88e04cccfb7
101,8ab7ce06-59eb-4952-8e13-7655b861e942,5f5afbc8-55f1-47ef-8aa8-87913393af89,d96874d9-558c-40de-a4e7-77f7bc03e410,Chia Vang,5373484.499988,"M:\PN\Teams\Cemeteries\Markers\Marker Applications\Installation photos\Memorial\Vang, Chia.jpg",,0,2018-03-07 12:46:04.600,2018-03-07 12:46:04.600,9999-12-31 23:59:59.997000,d1208c44-51c2-4916-b239-c88e04cccfb7
102,8b8d9406-dd04-4bff-ad3a-ca18df3b1d4e,f4facf53-1379-4dac-bd5e-deac3885ac3b,e0883f98-a16b-44fa-afe8-c80eb744f2f4,Alba Orsi and Jim Leggett,5373484.499988,M:\PN\Teams\Cemeteries\Markers\Marker Applications\Installation photos\Memorial\Orsi and Leggett.JPG,,0,2017-03-23 16:38:49.870,2017-03-23 16:38:49.870,9999-12-31 23:59:59.997000,d1208c44-51c2-4916-b239-c88e04cccfb7
103,8ba5594b-17a6-45df-8d62-91295b04e86c,fdaf29f4-9e68-4b37-a9d7-0b076ae38847,6dc9b3da-7df2-4968-abfd-89cc5a846229,Pang Ziong Lo,5373484.499988,"M:\PN\Teams\Cemeteries\Markers\Marker Applications\Installation photos\Memorial\Lo, Pang.jpg",,0,2017-05-08 11:56:45.740,2017-05-08 11:56:45.740,9999-12-31 23:59:59.997000,d1208c44-51c2-4916-b239-c88e04cccfb7
104,8cfe775b-3449-41cd-9aee-b1753f081405,943765f5-bf98-4f61-99e7-405c4eadbe33,8121bd8a-eae7-461e-bf65-d68fac699221,Robert James Sturdevant,5373484.499988,"M:\PN\Teams\Cemeteries\Markers\Marker Applications\Installation photos\Memorial\Styrdavant, Robert.jpg",,0,2017-12-26 10:37:37.053,2017-12-26 10:37:37.053,9999-12-31 23:59:59.997000,d1208c44-51c2-4916-b239-c88e04cccfb7
105,8dbfdbeb-f372-405d-bf8a-ae308689cf2d,bfd5b815-7d9e-496d-a699-b5f3a20b20ec,8ee335fa-4ceb-461b-aafc-a133ea0910fd,Ilya and Tamara Gumennyy,5373484.499988,"M:\PN\Teams\Cemeteries\Markers\Marker Applications\Installation photos\Memorial\Gumennyy, Ilya and Tamara.JPG",,0,2017-05-24 13:10:55.290,2017-05-24 13:10:55.290,9999-12-31 23:59:59.997000,d1208c44-51c2-4916-b239-c88e04cccfb7
106,8de191af-61ea-4e67-88ae-9b2649851cef,e0a4a682-fc1b-4669-8f1a-f3e2ed9eed72,e0883f98-a16b-44fa-afe8-c80eb744f2f4,Major and Naomi Davis,5373484.499988,"M:\PN\Teams\Cemeteries\Markers\Marker Applications\Installation photos\Memorial\Davis, Major and Naomi.jpg",,0,2017-12-26 10:40:59.750,2017-12-26 10:40:59.750,9999-12-31 23:59:59.997000,d1208c44-51c2-4916-b239-c88e04cccfb7
107,9339bd6a-0dfd-4302-ac47-05458532c44a,28a77574-92d7-4015-b2fa-ecb975730963,f304b775-6a53-4cb5-b4e4-d45f1c926933,Richard M Tice,5373484.499988,"M:\PN\Teams\Cemeteries\Markers\Marker Applications\Installation photos\Memorial\Tice, Richard.jpg",Engraving,0,2017-06-08 16:18:28.657,2017-06-08 16:18:28.657,9999-12-31 23:59:59.997000,d1208c44-51c2-4916-b239-c88e04cccfb7
108,94854b49-7720-4d2b-aed9-1c92178c09c5,836fb401-c8a9-4a56-b069-b9c9df4126ec,a1097993-037e-4c45-91d5-40a0934f1caa,David and Diane Butler back,5373484.499988,"M:\PN\Teams\Cemeteries\Markers\Marker Applications\Installation photos\Memorial\Butler, David Diane back.JPG",,0,2017-09-12 10:29:54.583,2017-09-12 10:29:54.583,9999-12-31 23:59:59.997000,d1208c44-51c2-4916-b239-c88e04cccfb7
109,9493c06e-9719-4dd9-adfe-db89a25ea323,143f9f67-9342-4454-aea9-2b3650c243ce,e0883f98-a16b-44fa-afe8-c80eb744f2f4,New Marker,5373484.499988,,"Names on memorial are husband and wife: Dorothy Lee Moore and Tom Moore, Jr. Cremated remains of Tom Moore were mixed into the concrete border of the marker by Affordable Family Memorials",0,2014-08-18 14:46:47.560,2014-08-18 14:46:47.560,9999-12-31 23:59:59.997000,7d6c7c2b-5507-485f-a856-8c5eafaf2826
110,94a34eae-6a61-44ac-85a7-9760da47ca59,e143043c-1fdc-4bf8-8f1b-ffeaa151278d,bfce545a-85f6-4d51-b395-23b56614e692,Margaret and Russell Hedges,5373484.499988,"M:\PN\Teams\Cemeteries\Markers\Marker Applications\Installation photos\Memorial\Hedges, Margaret and Russell.jpg",memorial vase,0,2018-04-20 11:45:20.890,2018-04-20 11:45:20.890,9999-12-31 23:59:59.997000,d1208c44-51c2-4916-b239-c88e04cccfb7
111,954a0a72-672e-41b2-ba9a-0827818d68c5,2fc770ff-6788-4872-955b-c7a5b9ea8b45,e0883f98-a16b-44fa-afe8-c80eb744f2f4,Z R Joseph Noecker,5373484.499988,"M:\PN\Teams\Cemeteries\Markers\Marker Applications\Installation photos\Memorial\Noecker, Joseph.JPG",,0,2017-05-02 15:06:15.003,2017-05-02 15:06:15.003,9999-12-31 23:59:59.997000,d1208c44-51c2-4916-b239-c88e04cccfb7
112,9726a539-2776-455f-a64e-eefa3525a040,8cc0150e-54e2-47cb-a2fc-5068207d6c3a,d96874d9-558c-40de-a4e7-77f7bc03e410,Aleksandr and Sarkis Ovanesyants,5373484.499988,"M:\PN\Teams\Cemeteries\Markers\Marker Applications\Installation photos\Memorial\Ovanesyants, Aleksandr and Sarkis.JPG",,0,2017-05-02 15:07:18.170,2017-05-02 15:07:18.170,9999-12-31 23:59:59.997000,d1208c44-51c2-4916-b239-c88e04cccfb7
113,976b8f31-74c3-4c1e-9a95-dc24e90aa677,c1d2b614-8077-426b-b441-41fc1a43b804,d96874d9-558c-40de-a4e7-77f7bc03e410,Paul Joseph Simpson,5373484.499988,"M:\PN\Teams\Cemeteries\Markers\Marker Applications\Installation photos\Memorial\Simpson, Paul Joseph.JPG",,0,2017-05-02 15:08:46.750,2017-05-02 15:08:46.750,9999-12-31 23:59:59.997000,d1208c44-51c2-4916-b239-c88e04cccfb7
114,986b01e3-3f23-4ebb-b9e6-e431aafb81a8,69d59b20-9848-4f67-ad83-b303fe53d638,e0883f98-a16b-44fa-afe8-c80eb744f2f4,Arowyn Lee,5373484.499988,"M:\PN\Teams\Cemeteries\Markers\Marker Applications\Installation photos\Memorial\Lee, Arowyn.JPG",,0,2017-09-12 10:26:14.540,2017-09-12 10:26:14.540,9999-12-31 23:59:59.997000,d1208c44-51c2-4916-b239-c88e04cccfb7
115,9aebda20-380c-4786-9456-1f8c8cfa394c,3540f231-3d59-4677-9ed9-d3b2693e0166,ec4b0220-1911-40d5-8868-9aa2981f48ab,John Tuttle,5373484.499988,"M:\PN\Teams\Cemeteries\Markers\Marker Applications\Installation photos\Memorial\Tuttle, John.jpg",,0,2017-10-11 14:52:48.930,2017-10-11 14:52:48.930,9999-12-31 23:59:59.997000,d1208c44-51c2-4916-b239-c88e04cccfb7
116,9b931949-62ff-4552-babc-139bc4ee1803,08d17abc-ae98-4f44-b4fe-43935be8e04c,e0883f98-a16b-44fa-afe8-c80eb744f2f4,Larry and Ethel Lowe,5373484.499988,"M:\PN\Teams\Cemeteries\Markers\Marker Applications\Installation photos\Engraving\Lowe, Ethel.jpg",,0,2018-02-05 16:11:16.380,2018-02-05 16:11:16.380,9999-12-31 23:59:59.997000,d1208c44-51c2-4916-b239-c88e04cccfb7
117,9cf985c0-7b69-4445-90f7-05e2286b9feb,37e83611-5af1-4f15-8fef-e3a4ef808b67,80aad530-2395-4224-b0c2-c4578124cbeb,Hal and Pat Nippert,5373484.499988,"M:\PN\Teams\Cemeteries\Markers\Marker Applications\Installation photos\Memorial\Nippert, Hal and Pat.jpg","Memorial only, Harold's remins disintered and spread elsewhere.
Edited by : Rosie McGown on 1/11/2018",2,2018-01-11 09:59:28.087,2018-01-11 11:14:03.527,9999-12-31 23:59:59.997000,d1208c44-51c2-4916-b239-c88e04cccfb7
118,9d77ae98-cfa8-401c-876a-ede0676ff56e,84fa6e07-6c7b-4d4e-a593-81193dc84692,e31ecaee-73d5-4b62-a2db-5662213e7121,"Paul, Mary and Nancy Sanders",5373484.499988,"M:\PN\Teams\Cemeteries\Markers\Marker Applications\Installation photos\Memorial\Sanders, Nancy.jpeg",,1,2018-07-23 15:45:37.817,2018-07-23 16:06:30.373,9999-12-31 23:59:59.997000,d1208c44-51c2-4916-b239-c88e04cccfb7
119,9e015d0c-3254-4941-af19-8b63a60a135f,74bdaa73-ea0b-44ee-a6d7-c6c1e57485f4,5bf5acea-7c67-4e22-9dea-35c4c891dc8c,Joyce Klopfer,5373484.499988,"M:\PN\Teams\Cemeteries\Markers\Marker Applications\Installation photos\Memorial\Klopfer, Joyce.JPG",,0,2017-07-03 09:40:08.027,2017-07-03 09:40:08.027,9999-12-31 23:59:59.997000,d1208c44-51c2-4916-b239-c88e04cccfb7
120,9e1c61a5-3a83-429f-98cf-b6e8e6f59b86,1563da4c-198f-4abe-a0ae-b96cdeaffbd6,e0883f98-a16b-44fa-afe8-c80eb744f2f4,Lionel Domreis,5373484.499988,"M:\PN\Teams\Cemeteries\Markers\Marker Applications\Installation photos\Memorial\Domreis, Lionel.jpg",,0,2018-01-10 10:17:07.663,2018-01-10 10:17:07.663,9999-12-31 23:59:59.997000,d1208c44-51c2-4916-b239-c88e04cccfb7
121,9e3dbb35-2f07-48c7-85ad-531c7a4e1875,26bb2a8b-5566-4be1-abab-ea0ddf4dbb82,e0883f98-a16b-44fa-afe8-c80eb744f2f4,Steven and Betty Kaufman,5373484.499988,"M:\PN\Teams\Cemeteries\Markers\Marker Applications\Installation photos\Memorial\Kaufman, Steven and Betty.jpg",,0,2018-06-11 09:45:57.037,2018-06-11 09:45:57.037,9999-12-31 23:59:59.997000,d1208c44-51c2-4916-b239-c88e04cccfb7
122,9edba245-9351-48b4-91e2-f6f0094a092a,e28c8595-eda4-44cc-b698-c517e49ab3e1,0edfce5b-09ac-40c7-9111-5cb20bb4fac8,New Marker,5373484.499988,"M:\PN\Teams\Cemeteries\Markers\Marker Applications\Installation photos\Memorial\Lee, Sun.jpg",,0,2017-11-13 17:46:35.640,2017-11-13 17:46:35.640,9999-12-31 23:59:59.997000,d1208c44-51c2-4916-b239-c88e04cccfb7
123,a23dccd7-ed22-4c37-8c04-fe5b5bc9a1cf,889c145e-4403-4e58-8493-2c7928d79e4b,81c3d22e-514f-4726-a3ce-0c6192fdd3fa,Armando Carmen Camargo,5373484.499988,"M:\PN\Teams\Cemeteries\Markers\Marker Applications\Installation photos\Memorial\Camargo, Armando.jpg",,0,2018-01-26 13:31:27.373,2018-01-26 13:31:27.373,9999-12-31 23:59:59.997000,d1208c44-51c2-4916-b239-c88e04cccfb7
124,a2e63b28-2115-41d7-aa7a-efe597888026,53cc1f63-1427-4dde-95d8-143564ad3f28,d96874d9-558c-40de-a4e7-77f7bc03e410,Stanley Kiesel,5373484.499988,"M:\PN\Teams\Cemeteries\Markers\Marker Applications\Installation photos\Memorial\Kiesel, Stanley.jpg",,0,2017-10-27 10:08:26.830,2017-10-27 10:08:26.830,9999-12-31 23:59:59.997000,d1208c44-51c2-4916-b239-c88e04cccfb7
125,a2f1c41e-a028-4902-8ac2-93deae374a4d,5aba9be8-8863-4bd0-8203-a481f5a485cf,53d08ed4-3bd0-43fd-8dac-8bf3475f7c7e,June Muhonen,5373484.499988,"M:\PN\Teams\Cemeteries\Markers\Marker Applications\Installation photos\Memorial\Muhonen, June.JPG",,0,2017-05-03 16:19:04.147,2017-05-03 16:19:04.147,9999-12-31 23:59:59.997000,d1208c44-51c2-4916-b239-c88e04cccfb7
126,a2f94eff-0707-4322-8152-1a2928114fbd,f9c74a1b-d9d1-4680-9143-c9f4275e5226,5bf5acea-7c67-4e22-9dea-35c4c891dc8c,Marty Davis,5373484.499988,"M:\PN\Teams\Cemeteries\Markers\Marker Applications\Installation photos\Memorial\Davis, Marty.JPG",,0,2017-06-20 14:57:20.560,2017-06-20 14:57:20.560,9999-12-31 23:59:59.997000,d1208c44-51c2-4916-b239-c88e04cccfb7
127,a4193736-2d5f-4e3e-84bb-66c86cf528ad,e95bcc91-dd26-489d-9d1d-20774c4d7a66,ec4b0220-1911-40d5-8868-9aa2981f48ab,Jean Cole,5373484.499988,"M:\PN\Teams\Cemeteries\Markers\Marker Applications\Installation photos\Memorial\Cole, Jean-front.jpg",,0,2018-04-20 11:47:12.963,2018-04-20 11:47:12.963,9999-12-31 23:59:59.997000,d1208c44-51c2-4916-b239-c88e04cccfb7
128,a55d09c6-b01b-434c-9624-e4db9f90cd8c,d13fbf81-d258-41ad-82df-f417657c74e1,b8cedff7-0c51-4b83-b980-7316e2996c3b,C. Paul and Ruth W. Jones,5373484.499988,"M:\PN\Teams\Cemeteries\Markers\Marker Applications\Installation photos\Engraving\Jones, Ruth.jpg",,0,2017-08-02 13:31:27.370,2017-08-02 13:31:27.370,9999-12-31 23:59:59.997000,d1208c44-51c2-4916-b239-c88e04cccfb7
129,a67d0c57-36d8-4c5f-b32c-adc877198ef5,b2822977-df59-4cf8-ab2c-c6ff7117e831,53d08ed4-3bd0-43fd-8dac-8bf3475f7c7e,Sou Chio and Mey Wang Saechao,5373484.499988,"M:\PN\Teams\Cemeteries\Markers\Marker Applications\Installation photos\Memorial\Saechao, Sou Chio and Mey Wang.JPG",,0,2017-05-03 16:16:03.973,2017-05-03 16:16:03.973,9999-12-31 23:59:59.997000,d1208c44-51c2-4916-b239-c88e04cccfb7
130,a6bb1019-1da0-4a33-9474-3ca7c4917786,c72296b9-04c7-46d8-a434-e5e374cdea54,80aad530-2395-4224-b0c2-c4578124cbeb,New Marker,5373484.499988,"M:\PN\Teams\Cemeteries\Markers\Marker Applications\Installation photos\Memorial\DeLima, Elizabeth.jpg",,0,2017-02-08 10:44:48.557,2017-02-08 10:44:48.557,9999-12-31 23:59:59.997000,d1208c44-51c2-4916-b239-c88e04cccfb7
131,a6bd5da9-2db7-4b66-ac79-99f644da6b18,a9bffbbb-a8e8-47ce-83e5-a50b5a14fc9d,d96874d9-558c-40de-a4e7-77f7bc03e410,Rada and Rajko Cosovic,5373484.499988,"M:\PN\Teams\Cemeteries\Markers\Marker Applications\Installation photos\Memorial\Cosovic, Rada and Rajko.JPG",companion,0,2017-03-31 13:41:13.653,2017-03-31 13:41:13.653,9999-12-31 23:59:59.997000,d1208c44-51c2-4916-b239-c88e04cccfb7
132,a80cdafa-f989-4c48-95a1-abda7485bb7c,a5d776e3-70d3-49d9-a2d7-789c0c708fc3,80aad530-2395-4224-b0c2-c4578124cbeb,Thomas Klinski,5373484.499988,"M:\PN\Teams\Cemeteries\Markers\Marker Applications\Installation photos\Memorial\Klinski, Thomas.jpg",,0,2017-09-13 16:02:02.690,2017-09-13 16:02:02.690,9999-12-31 23:59:59.997000,d1208c44-51c2-4916-b239-c88e04cccfb7
133,a9ad151e-f50c-4f58-8371-dbf75a37220f,bc64d880-b8d8-4e94-accf-2599796a7042,d96874d9-558c-40de-a4e7-77f7bc03e410,Aleksandr and Sarkis Ovanesyants,5373484.499988,"M:\PN\Teams\Cemeteries\Markers\Marker Applications\Installation photos\Memorial\Ovanesyants, Aleksandr and Sarkis.JPG",,0,2017-05-02 15:07:57.330,2017-05-02 15:07:57.330,9999-12-31 23:59:59.997000,d1208c44-51c2-4916-b239-c88e04cccfb7
134,aa674910-a9e1-4a89-b228-cbff151536c8,8c1ebbcf-9b09-49be-ac2a-2b1850ef6aad,e0883f98-a16b-44fa-afe8-c80eb744f2f4,Herbert Newcomer,5373484.499988,"M:\PN\Teams\Cemeteries\Markers\Marker Applications\Installation photos\Memorial\Newcomer, Herbert.JPG",,0,2017-09-05 16:28:25.813,2017-09-05 16:28:25.813,9999-12-31 23:59:59.997000,d1208c44-51c2-4916-b239-c88e04cccfb7
135,aa75b69e-196c-411e-b8ee-9e4873c953db,034cf2fc-f95e-4adc-996c-748f97d41b99,832de24f-d35d-43b4-8504-22976ec9b0ba,Jeree Mills,5373484.499988,"M:\PN\Teams\Cemeteries\Markers\Marker Applications\Installation photos\Memorial\Mills, Jeree.jpeg",,0,2018-07-27 11:12:16.557,2018-07-27 11:12:16.557,9999-12-31 23:59:59.997000,d1208c44-51c2-4916-b239-c88e04cccfb7
136,aba71ae4-8494-41d8-8210-df058b42ff90,bcff3104-7d4b-4d9c-9f74-f99d0fb42497,e31ecaee-73d5-4b62-a2db-5662213e7121,Tony Sims,5373484.499988,"M:\PN\Teams\Cemeteries\Markers\Marker Applications\Installation photos\Memorial\Sims, Tony.jpg",,0,2018-06-11 09:56:41.210,2018-06-11 09:56:41.210,9999-12-31 23:59:59.997000,d1208c44-51c2-4916-b239-c88e04cccfb7
137,abaaed54-1ce2-4903-888c-d4f45f757ad4,5ec5e502-cdce-471b-8201-91b5a5702efb,e31ecaee-73d5-4b62-a2db-5662213e7121,Adam Young,5373484.499988,"M:\PN\Teams\Cemeteries\Markers\Marker Applications\Installation photos\Memorial\Young, Adam.jpg",,0,2018-07-17 12:14:52.263,2018-07-17 12:14:52.263,9999-12-31 23:59:59.997000,d1208c44-51c2-4916-b239-c88e04cccfb7
138,abe3b120-2dbf-43bc-81a8-df19c4c2bdf6,8ca36af6-8f1d-4a9e-8743-1524cb443fd0,dfca61c3-c793-4046-9e3b-aabc61ab4ae9,Blaine Daniel Ebberts,5373484.499988,"M:\PN\Teams\Cemeteries\Markers\Marker Applications\Installation photos\Memorial\Ebberts, Blaine.JPG",,0,2017-09-05 16:53:25.870,2017-09-05 16:53:25.870,9999-12-31 23:59:59.997000,d1208c44-51c2-4916-b239-c88e04cccfb7
139,ade823ed-f37a-4ef4-8eb0-c1bde6815c1d,7909a8c6-1149-48a2-891d-15822357fab3,a154f36f-7896-4cfe-b542-7fb6bb9828ec,Samuel Correa,5373484.499988,"M:\PN\Teams\Cemeteries\Markers\Marker Applications\Installation photos\Memorial\Correa, Samuel.jpg",,0,2018-06-20 09:28:20.843,2018-06-20 09:28:20.843,9999-12-31 23:59:59.997000,d1208c44-51c2-4916-b239-c88e04cccfb7
140,adeb3c3e-715d-4a98-8b14-6eacfbbc244e,82d085c4-4d56-458c-9603-a723d57b9493,5bf5acea-7c67-4e22-9dea-35c4c891dc8c,Lamb,5373484.499988,M:\PN\Teams\Cemeteries\Markers\Marker Applications\Installation photos\Memorial\Lamb.jpg,,0,2018-01-12 16:07:34.717,2018-01-12 16:07:34.717,9999-12-31 23:59:59.997000,d1208c44-51c2-4916-b239-c88e04cccfb7
141,ae70bfe0-5250-4bb6-ac6f-a153c32029f4,1563da4c-198f-4abe-a0ae-b96cdeaffbd6,e0883f98-a16b-44fa-afe8-c80eb744f2f4,Lydia Domreis,5373484.499988,"M:\PN\Teams\Cemeteries\Markers\Marker Applications\Installation photos\Memorial\Domreis, Lydia.jpg",,0,2018-01-10 10:17:38.240,2018-01-10 10:17:38.240,9999-12-31 23:59:59.997000,d1208c44-51c2-4916-b239-c88e04cccfb7
142,b047df73-c47b-43f1-a332-6b1b929d98aa,9768f348-f595-4ba6-890c-cecda5b5132b,d96874d9-558c-40de-a4e7-77f7bc03e410,Scott (Alex) Liemam,5373484.499988,"M:\PN\Teams\Cemeteries\Markers\Marker Applications\Installation photos\Memorial\Alex, Scott Liemam.JPG",,0,2017-09-15 12:58:12.527,2017-09-15 12:58:12.527,9999-12-31 23:59:59.997000,d1208c44-51c2-4916-b239-c88e04cccfb7
143,b10ba190-dc66-4b64-8d3d-6e56ec319a26,331e997e-ee2f-46db-8145-b5818062e006,5bf5acea-7c67-4e22-9dea-35c4c891dc8c,Leon and Viola Van Speybrock,5373484.499988,"M:\PN\Teams\Cemeteries\Markers\Marker Applications\Installation photos\Memorial\Van Spreybrock, Leon and Viola.jpg",,0,2018-01-12 16:08:25.060,2018-01-12 16:08:25.060,9999-12-31 23:59:59.997000,d1208c44-51c2-4916-b239-c88e04cccfb7
144,b3cef7c2-c741-4756-a8fd-b2757e282358,93b1dbb7-742c-4a9c-b98e-e4708bd0b7f9,e0883f98-a16b-44fa-afe8-c80eb744f2f4,Ingrid Ohlson,5373484.499988,"M:\PN\Teams\Cemeteries\Markers\Marker Applications\Installation photos\Engraving\Ohlson, Ingrid.jpg",,0,2017-10-16 12:47:05.920,2017-10-16 12:47:05.920,9999-12-31 23:59:59.997000,d1208c44-51c2-4916-b239-c88e04cccfb7
145,b40f4446-5507-49bb-8a41-1be860d87fb1,f1e77e70-7a25-46aa-bfc7-00f7f69f1587,d96874d9-558c-40de-a4e7-77f7bc03e410,Vasiliy and Nadezhda Ostapenko,5373484.499988,"M:\PN\Teams\Cemeteries\Markers\Marker Applications\Installation photos\Memorial\Ostapenko, Vasiliy and Nadezhda.jpg",,0,2018-05-17 15:30:46.463,2018-05-17 15:30:46.463,9999-12-31 23:59:59.997000,d1208c44-51c2-4916-b239-c88e04cccfb7
146,b4fe17e9-8c88-40e3-9dd1-f8a20020a91e,89937aae-55e6-4bc7-87b2-f95133f9212d,8ee335fa-4ceb-461b-aafc-a133ea0910fd,Ceniamin and Yuliya Kutyrev,5373484.499988,"M:\PN\Teams\Cemeteries\Markers\Marker Applications\Installation photos\Memorial\Kutyrev, Veniamin and Yuliya.JPG",,0,2017-05-24 13:09:58.910,2017-05-24 13:09:58.910,9999-12-31 23:59:59.997000,d1208c44-51c2-4916-b239-c88e04cccfb7
147,b5729ddc-95e8-4a6a-92a3-7c4da14c325a,8007e202-9386-48ba-96ce-a892441b2181,5bf5acea-7c67-4e22-9dea-35c4c891dc8c,Dennis Parrish,5373484.499988,"M:\PN\Teams\Cemeteries\Markers\Marker Applications\Installation photos\Memorial\Parrish, Dennis.JPG",,0,2017-07-03 09:42:21.473,2017-07-03 09:42:21.473,9999-12-31 23:59:59.997000,d1208c44-51c2-4916-b239-c88e04cccfb7
148,b5a7b7f3-9ca6-4965-8945-70746a550a3f,53ce9e6c-ed00-4f20-97b9-37f76da45766,d96874d9-558c-40de-a4e7-77f7bc03e410,Gwynne Skinner,5373484.499988,"M:\PN\Teams\Cemeteries\Markers\Marker Applications\Installation photos\Memorial\Skinner, Gwynne.jpg",,0,2018-01-12 16:09:11.660,2018-01-12 16:09:11.660,9999-12-31 23:59:59.997000,d1208c44-51c2-4916-b239-c88e04cccfb7
149,b67a0240-4298-452a-bfb1-f8acaa5ed962,29d1662b-0f7c-4416-83a4-e38b3d93698f,00000000-0000-0000-0000-000000000000,New Marker,5373484.499988,,,0,2014-08-08 08:43:15.193,2014-08-08 08:43:15.193,9999-12-31 23:59:59.997000,615670ba-3bd1-4a0b-a137-049c544df806
150,b6dd0ba8-8918-429c-9818-7c37e482625a,676ee440-3c60-4802-ad89-dfc3994cfcb8,eccb51be-7a4b-4263-bdcc-dea0e004fc9c,Ruth Rudnick,5373484.499988,"M:\PN\Teams\Cemeteries\Markers\Marker Applications\Installation photos\Memorial\Rudnick, Ruth.jpg",,0,2018-07-17 12:09:41.800,2018-07-17 12:09:41.800,9999-12-31 23:59:59.997000,d1208c44-51c2-4916-b239-c88e04cccfb7
151,bc065b60-62a1-4007-97b4-3c25109cce86,00dc2045-8dd4-4501-92ce-ff9e46020ac3,e0883f98-a16b-44fa-afe8-c80eb744f2f4,Kenneth and Winifred Birnbaum,5373484.499988,"M:\PN\Teams\Cemeteries\Markers\Marker Applications\Installation photos\Memorial\Birnbaum, Kenneth and Winifred.jpg",,0,2017-03-23 16:41:09.030,2017-03-23 16:41:09.030,9999-12-31 23:59:59.997000,d1208c44-51c2-4916-b239-c88e04cccfb7
152,bc1c2b09-1cec-4032-953f-647b87be25e1,5c9a6c39-c3b1-455d-9a50-f64e524e3d16,00000000-0000-0000-0000-000000000000,Elenor Sitea,5373484.499988,M:\PN\Teams\Cemeteries\Markers\Marker Applications\Installation photos\Engraving\Sieta and Jessing.jpg,,0,2017-09-14 13:32:54.970,2017-09-14 13:32:54.970,9999-12-31 23:59:59.997000,d1208c44-51c2-4916-b239-c88e04cccfb7
153,bdd06165-34c7-4322-8084-bf0c33180088,8bdbfabf-ce4b-4f07-b6cd-644bd816b730,f6f6c06a-d373-4eb7-8d7c-85773749b59d,Dick Harris,5373484.499988,"M:\PN\Teams\Cemeteries\Markers\Marker Applications\Installation photos\Memorial\Harris, Dick.JPG",,0,2017-05-02 15:04:05.753,2017-05-02 15:04:05.753,9999-12-31 23:59:59.997000,d1208c44-51c2-4916-b239-c88e04cccfb7
154,be00be73-6a5d-43aa-9b8c-782f9d8c355e,9e088904-0a9f-4456-b8dd-01e6e8650ac3,d96874d9-558c-40de-a4e7-77f7bc03e410,Yefim Riskin,5373484.499988,"M:\PN\Teams\Cemeteries\Markers\Marker Applications\Installation photos\Memorial\Riskin, Refim.JPG",,0,2017-09-05 16:51:29.490,2017-09-05 16:51:29.490,9999-12-31 23:59:59.997000,d1208c44-51c2-4916-b239-c88e04cccfb7
155,be176870-95ad-47a2-9d8c-9c06bd55ef69,23e7715e-625e-4173-b0a2-a90a40dd1b9f,bfce545a-85f6-4d51-b395-23b56614e692,Domka Ivanovna Vorobets,5373484.499988,"M:\PN\Teams\Cemeteries\Markers\Marker Applications\Installation photos\Memorial\Vorobets, Domka.jpg",,0,2018-03-29 13:49:41.413,2018-03-29 13:49:41.413,9999-12-31 23:59:59.997000,d1208c44-51c2-4916-b239-c88e04cccfb7
156,bfa79937-5cf5-4b0a-8396-1e3d03fd20aa,12d4578f-94a0-4946-ab23-ea507eeff0e5,e0883f98-a16b-44fa-afe8-c80eb744f2f4,Lyubov Diduk,5373484.499988,"M:\PN\Teams\Cemeteries\Markers\Marker Applications\Installation photos\Memorial\Diduk, Lyubov.JPG","vase block
Edited by : Rosie McGown on 4/14/2017",1,2017-04-14 12:52:22.070,2017-04-14 12:52:33.630,9999-12-31 23:59:59.997000,d1208c44-51c2-4916-b239-c88e04cccfb7
157,c053df89-72b4-4d4a-a08c-8ce3e96ecacb,f4f09d07-ad9a-4e0d-957d-2f1a1b572062,e0883f98-a16b-44fa-afe8-c80eb744f2f4,Doris Smith,5373484.499988,"M:\PN\Teams\Cemeteries\Markers\Marker Applications\Installation photos\Memorial\Smith, Doris.JPG",Memorial only,0,2017-04-14 12:55:27.390,2017-04-14 12:55:27.390,9999-12-31 23:59:59.997000,d1208c44-51c2-4916-b239-c88e04cccfb7
158,c0e8759c-e8dd-4adb-a3c9-ce89c98b56f9,05388369-6718-4aba-94ec-bd20b033cb5e,8ee335fa-4ceb-461b-aafc-a133ea0910fd,Lyubov Ostrianin,5373484.499988,"M:\PN\Teams\Cemeteries\Markers\Marker Applications\Installation photos\Memorial\Ostriyanin, Lyubov.jpg",,0,2018-01-11 13:42:07.393,2018-01-11 13:42:07.393,9999-12-31 23:59:59.997000,d1208c44-51c2-4916-b239-c88e04cccfb7
159,c14a301e-2f94-4947-aac8-afd496397a9f,836fb401-c8a9-4a56-b069-b9c9df4126ec,a1097993-037e-4c45-91d5-40a0934f1caa,David and Diane Butler,5373484.499988,"M:\PN\Teams\Cemeteries\Markers\Marker Applications\Installation photos\Memorial\Butler, David Diane.JPG",,0,2017-09-12 10:29:31.510,2017-09-12 10:29:31.510,9999-12-31 23:59:59.997000,d1208c44-51c2-4916-b239-c88e04cccfb7
160,c16b7f22-2eae-45fe-9aad-584f50c5ded3,99872c5f-e31a-4e2a-92f2-ef345c1266e1,e0883f98-a16b-44fa-afe8-c80eb744f2f4,Anthony Hewitt,5373484.499988,"M:\PN\Teams\Cemeteries\Markers\Marker Applications\Installation photos\Memorial\Hewitt, Anthony.jpg",,0,2018-03-29 13:50:59.697,2018-03-29 13:50:59.697,9999-12-31 23:59:59.997000,d1208c44-51c2-4916-b239-c88e04cccfb7
161,c3257dd8-7b7c-4c60-9cb3-fb15f1e93fd3,08a15497-acf0-4d19-b0dd-38b6d2ee3a07,53d08ed4-3bd0-43fd-8dac-8bf3475f7c7e,Nikolay Shinkaruk,5373484.499988,"M:\PN\Teams\Cemeteries\Markers\Marker Applications\Installation photos\Memorial\Shinkaruk, Nikolay.jpg",,0,2017-09-13 16:02:47.057,2017-09-13 16:02:47.057,9999-12-31 23:59:59.997000,d1208c44-51c2-4916-b239-c88e04cccfb7
162,c54f9e05-14d6-464c-b740-f90e20a5e4ed,ed3abcfd-d385-459e-a86d-8833845c1a83,80aad530-2395-4224-b0c2-c4578124cbeb,Ivan and Lenora Handy,5373484.499988,"M:\PN\Teams\Cemeteries\Markers\Marker Applications\Installation photos\Memorial\Handy, Ivan and Lenora.jpg",,0,2018-07-30 10:57:11.990,2018-07-30 10:57:11.990,9999-12-31 23:59:59.997000,d1208c44-51c2-4916-b239-c88e04cccfb7
163,c5cd7212-5688-4d8a-af7a-9e557f99f585,34c1787b-504c-4d5b-913b-5f6cfbb49457,eccb51be-7a4b-4263-bdcc-dea0e004fc9c,Frances E. Frye,5373484.499988,"M:\PN\Teams\Cemeteries\Markers\Marker Applications\Installation photos\Memorial\Nelson, Mary Frances Engrid.jpg",,0,2017-11-13 17:42:44.223,2017-11-13 17:42:44.223,9999-12-31 23:59:59.997000,d1208c44-51c2-4916-b239-c88e04cccfb7
164,c6527f6a-7ba7-49fa-ae6b-e2157de02ac1,677699b3-9fcb-46bf-995f-329f103408c1,e0883f98-a16b-44fa-afe8-c80eb744f2f4,New Marker,5373484.499988,,,0,2015-08-25 16:58:10.103,2015-08-25 16:58:10.103,9999-12-31 23:59:59.997000,7d6c7c2b-5507-485f-a856-8c5eafaf2826
165,cb4c405f-c3b9-47f7-a544-8bede40d5a8f,03c88568-fa90-48d4-b8d5-79d9031c7750,5bf5acea-7c67-4e22-9dea-35c4c891dc8c,James and Nona Layton,5373484.499988,"M:\PN\Teams\Cemeteries\Markers\Marker Applications\Installation photos\Memorial\Layton, James and Nona.jpg",,0,2018-01-12 16:05:56.140,2018-01-12 16:05:56.140,9999-12-31 23:59:59.997000,d1208c44-51c2-4916-b239-c88e04cccfb7
166,cb7216b5-9bb7-44b1-824c-7f37c1162943,35aec401-3f0d-4017-8a56-fea812b30219,53d08ed4-3bd0-43fd-8dac-8bf3475f7c7e,Ada Green,5373484.499988,"M:\PN\Teams\Cemeteries\Markers\Marker Applications\Installation photos\Memorial\Green, Ada.JPG",,0,2017-05-03 16:20:00.993,2017-05-03 16:20:00.993,9999-12-31 23:59:59.997000,d1208c44-51c2-4916-b239-c88e04cccfb7
167,cc7c4243-808a-4a9c-8ce4-fe85a9427cec,9645e599-5c76-442b-9a45-03aff234e661,e0883f98-a16b-44fa-afe8-c80eb744f2f4,Ione and Carol Holland,5373484.499988,"M:\PN\Teams\Cemeteries\Markers\Marker Applications\Installation photos\Memorial\Holland, Ione.jpg",,0,2018-05-25 16:21:35.307,2018-05-25 16:21:35.307,9999-12-31 23:59:59.997000,d1208c44-51c2-4916-b239-c88e04cccfb7
168,cce073fd-fdab-4396-a7ee-e5502401cc37,8ca36af6-8f1d-4a9e-8743-1524cb443fd0,bfce545a-85f6-4d51-b395-23b56614e692,Alfred and Virginia Ebberts,5373484.499988,"M:\PN\Teams\Cemeteries\Markers\Marker Applications\Installation photos\Memorial\Ebberts, Alfred and Virginia.JPG",,0,2017-02-08 13:04:39.103,2017-02-08 13:04:39.103,9999-12-31 23:59:59.997000,d1208c44-51c2-4916-b239-c88e04cccfb7
169,cd5388d4-ce2c-4309-a1b8-b71064dda6a2,c9a66963-f1c5-458d-bac7-6f92dad86884,4e96bb4e-0f00-4021-bc9b-362f8c22a72b,Woun Sio Saechao and Meuy Gio Saeyang,5373484.499988,"M:\PN\Teams\Cemeteries\Markers\Marker Applications\Installation photos\Memorial\Saechao, Woun Sio and Sawyang, Meuy Cio.jpg",,0,2018-05-25 16:17:36.680,2018-05-25 16:17:36.680,9999-12-31 23:59:59.997000,d1208c44-51c2-4916-b239-c88e04cccfb7
170,cefaf152-2677-43a7-a485-3df6d3e81db8,e47d7ed5-cc3f-4642-afa4-a481a832789b,e0883f98-a16b-44fa-afe8-c80eb744f2f4,Jay Patrick Flynn,5373484.499988,"M:\PN\Teams\Cemeteries\Markers\Marker Applications\Installation photos\Engraving\Flynn, Jay.jpg",,0,2017-11-13 17:44:49.820,2017-11-13 17:44:49.820,9999-12-31 23:59:59.997000,d1208c44-51c2-4916-b239-c88e04cccfb7
171,d054c5dd-7131-4b66-9ee1-d6c7fc3f0533,4585df16-9edb-4286-8f1a-f72048c2c9ca,3f8c4a61-de5a-4288-b588-5ae5053c5c89,Jesse Strickland,5373484.499988,"M:\PN\Teams\Cemeteries\Markers\Marker Applications\Installation photos\Memorial\Strickland, Jesse.jpg",,0,2017-11-13 17:43:57.810,2017-11-13 17:43:57.810,9999-12-31 23:59:59.997000,d1208c44-51c2-4916-b239-c88e04cccfb7
172,d0d10e2a-b414-4afe-b544-05a76092ee34,cb0d5ff9-d511-44cf-a2f6-dd932af87fc9,80aad530-2395-4224-b0c2-c4578124cbeb,Denise and Thomas Goebel,5373484.499988,"M:\PN\Teams\Cemeteries\Markers\Marker Applications\Installation photos\Memorial\Gobel, Denise and Thomas.jpg",,0,2018-07-30 11:57:28.850,2018-07-30 11:57:28.850,9999-12-31 23:59:59.997000,d1208c44-51c2-4916-b239-c88e04cccfb7
173,d347ed4e-1f03-4ca1-9377-771fa93f1cdf,5dfdf996-39d6-483d-8cf6-4b95b8e54f55,00000000-0000-0000-0000-000000000000,Vanessa Nelson,5373484.499988,"M:\PN\Teams\Cemeteries\Markers\Marker Applications\Installation photos\Engraving\Nelson, Vanessa.jpg",Niche,0,2017-10-11 14:57:37.570,2017-10-11 14:57:37.570,9999-12-31 23:59:59.997000,d1208c44-51c2-4916-b239-c88e04cccfb7
174,d3e48199-659a-4887-88f6-11f55d2f5def,b0d45f02-76aa-4203-bf51-3ccc1fd5949f,832de24f-d35d-43b4-8504-22976ec9b0ba,David Adams,5373484.499988,"M:\PN\Teams\Cemeteries\Markers\Marker Applications\Installation photos\Memorial\Adams, David.jpg",,0,2018-05-22 12:42:12.313,2018-05-22 12:42:12.313,9999-12-31 23:59:59.997000,d1208c44-51c2-4916-b239-c88e04cccfb7
175,d4f6f35d-e4dc-4a99-bf49-7fa910a5bc98,bcc867bb-030c-4c24-9874-8cae001d9be0,a154f36f-7896-4cfe-b542-7fb6bb9828ec,Lynn Channing Lundquise,5373484.499988,"M:\PN\Teams\Cemeteries\Markers\Marker Applications\Installation photos\Memorial\Lundquist, Lynn Channing.JPG",,0,2017-05-02 10:12:53.707,2017-05-02 10:12:53.707,9999-12-31 23:59:59.997000,d1208c44-51c2-4916-b239-c88e04cccfb7
176,d5ebd2bc-0af8-49ef-a076-d522884df658,78ec1997-cff9-4c4a-852f-0ad449e5c509,e0883f98-a16b-44fa-afe8-c80eb744f2f4,Alexandr Koba,5373484.499988,"M:\PN\Teams\Cemeteries\Markers\Marker Applications\Installation photos\Memorial\Koba, Alexsander.JPG",,0,2017-03-31 13:35:33.043,2017-03-31 13:35:33.043,9999-12-31 23:59:59.997000,d1208c44-51c2-4916-b239-c88e04cccfb7
177,d7520cf8-5c9f-4a12-acc8-bebb449f344b,b291904a-3dc8-4f77-a855-d53902666ab8,53d08ed4-3bd0-43fd-8dac-8bf3475f7c7e,Sou Seng Saepharn,5373484.499988,"M:\PN\Teams\Cemeteries\Markers\Marker Applications\Installation photos\Memorial\Saepharn, Sou Seng.JPG",,0,2017-05-03 15:46:59.623,2017-05-03 15:46:59.623,9999-12-31 23:59:59.997000,d1208c44-51c2-4916-b239-c88e04cccfb7
178,d99596c2-0781-462a-8cf1-47b0e6d9bf72,cde060ef-14b1-409d-89b7-a2fffdb0beed,d96874d9-558c-40de-a4e7-77f7bc03e410,Anna Babiy,5373484.499988,"M:\PN\Teams\Cemeteries\Markers\Marker Applications\Installation photos\Memorial\Babiy, Anna.jpg",,0,2018-05-09 07:16:47.353,2018-05-09 07:16:47.353,9999-12-31 23:59:59.997000,d1208c44-51c2-4916-b239-c88e04cccfb7
179,d9eeb22d-94aa-41d5-9ca0-4058ddcdcfbf,417c8d44-b5cb-4a9b-a7cb-a7fc78b2e493,4e96bb4e-0f00-4021-bc9b-362f8c22a72b,Mikhail and Anna Sasin,5373484.499988,"M:\PN\Teams\Cemeteries\Markers\Marker Applications\Installation photos\Memorial\Sasin, Mikhail and Anna.jpg",,0,2018-07-05 10:56:27.093,2018-07-05 10:56:27.093,9999-12-31 23:59:59.997000,d1208c44-51c2-4916-b239-c88e04cccfb7
180,da7aa19d-b676-42e2-934f-b04bc39421ae,0605209f-7957-4623-82a3-8bacdc10bfbd,80aad530-2395-4224-b0c2-c4578124cbeb,Malcom and Peggy Brewer,5373484.499988,"M:\PN\Teams\Cemeteries\Markers\Marker Applications\Installation photos\Memorial\Brewer, Malcom and Peggy.jpg",,0,2017-05-08 11:54:13.340,2017-05-08 11:54:13.340,9999-12-31 23:59:59.997000,d1208c44-51c2-4916-b239-c88e04cccfb7
181,dbb91e63-7f1f-48a1-b7cc-8d91cd8acfc8,eb18f634-cf08-46f5-8fb7-e22ff83d23ae,00000000-0000-0000-0000-000000000000,F. David Shipley,5373484.499988,"M:\PN\Teams\Cemeteries\Markers\Marker Applications\Installation photos\Engraving\Shipley, David.jpg",,0,2018-02-05 13:16:39.043,2018-02-05 13:16:39.043,9999-12-31 23:59:59.997000,d1208c44-51c2-4916-b239-c88e04cccfb7
182,dd1bade0-55a8-4afe-8e9e-d7a0a26d36f0,0d3f4915-2a43-43e9-98b9-05bc03b6472d,00000000-0000-0000-0000-000000000000,Marlene Dale,5373484.499988,"M:\PN\Teams\Cemeteries\Markers\Marker Applications\Installation photos\Memorial\Dale, Marlene.jpg",engraving,0,2018-07-30 10:58:47.467,2018-07-30 10:58:47.467,9999-12-31 23:59:59.997000,d1208c44-51c2-4916-b239-c88e04cccfb7
183,de67f0e0-ca75-431c-b8d8-95310f7b2adb,d1b5299c-57a5-49b1-9f3a-cefd87b73a22,d96874d9-558c-40de-a4e7-77f7bc03e410,Della Burgess,5373484.499988,"M:\PN\Teams\Cemeteries\Markers\Marker Applications\Installation photos\Memorial\Burgess, Dela.jpg",,0,2018-04-20 11:37:31.333,2018-04-20 11:37:31.333,9999-12-31 23:59:59.997000,d1208c44-51c2-4916-b239-c88e04cccfb7
184,df458a3e-3181-4a7e-a7c7-0db86431f3a6,3377e7f8-0345-4878-bf54-fdc7d27cd4e6,a1097993-037e-4c45-91d5-40a0934f1caa,Mary and Donald Bieker,5373484.499988,"M:\PN\Teams\Cemeteries\Markers\Marker Applications\Installation photos\Memorial\Bieker, Mary and Donald.JPG",,0,2017-03-23 12:55:38.080,2017-03-23 12:55:38.080,9999-12-31 23:59:59.997000,d1208c44-51c2-4916-b239-c88e04cccfb7
185,e02efc31-7e00-4e89-8b10-4af3569e5dbb,30238ff2-2fff-4c43-af39-bb6e654afc57,d96874d9-558c-40de-a4e7-77f7bc03e410,Vera Yurchenko,5373484.499988,"M:\PN\Teams\Cemeteries\Markers\Marker Applications\Installation photos\Memorial\Yurchenko, Vera.JPG",,0,2017-09-05 16:50:38.587,2017-09-05 16:50:38.587,9999-12-31 23:59:59.997000,d1208c44-51c2-4916-b239-c88e04cccfb7
186,e1a30d36-33c3-4b27-a380-644dd0252e59,c4d04001-e8da-423d-b2ec-98fc975719e5,8ee335fa-4ceb-461b-aafc-a133ea0910fd,Nadezhda Zybenskiy,5373484.499988,"M:\PN\Teams\Cemeteries\Markers\Marker Applications\Installation photos\Memorial\Zybenskiy, Nadezhda.jpg",,0,2018-01-22 14:44:42.483,2018-01-22 14:44:42.483,9999-12-31 23:59:59.997000,d1208c44-51c2-4916-b239-c88e04cccfb7
187,e1d656c9-7f9e-4b16-9401-493ca3dbd295,728f2342-a8ea-40dd-90b8-0cd0017bd779,4b3aa8fc-15f8-497b-bde3-fd36b02c5a87,Alexis Moon Davis,5373484.499988,"M:\PN\Teams\Cemeteries\Markers\Marker Applications\Installation photos\Memorial\Davis, Alexis Moon.jpg",,0,2018-05-29 14:10:52.253,2018-05-29 14:10:52.253,9999-12-31 23:59:59.997000,d1208c44-51c2-4916-b239-c88e04cccfb7
188,e2182eed-dd18-4814-91d6-6eb2c00b38a2,db7f91af-1196-4632-8ea0-848a3ad8da81,80aad530-2395-4224-b0c2-c4578124cbeb,Pablo Dominguez Amezcua,5373484.499988,"M:\PN\Teams\Cemeteries\Markers\Marker Applications\Installation photos\Memorial\Diminguez Amezuca, Pablo.jpg",,0,2017-10-11 14:56:22.203,2017-10-11 14:56:22.203,9999-12-31 23:59:59.997000,d1208c44-51c2-4916-b239-c88e04cccfb7
189,e463e52e-14f0-403b-9582-8e4dc1fb194f,945a7328-29dd-4659-846d-dfe43b125c87,00000000-0000-0000-0000-000000000000,Frank Jessing,5373484.499988,M:\PN\Teams\Cemeteries\Markers\Marker Applications\Installation photos\Engraving\Sieta and Jessing.jpg,,0,2017-09-14 13:31:41.273,2017-09-14 13:31:41.273,9999-12-31 23:59:59.997000,d1208c44-51c2-4916-b239-c88e04cccfb7
190,e4a52340-f7e5-459d-a20d-c0e31a59e45a,6c4045aa-9e4e-42bc-86a0-6db7d2504b85,a154f36f-7896-4cfe-b542-7fb6bb9828ec,Stwinter Winter,5373484.499988,"M:\PN\Teams\Cemeteries\Markers\Marker Applications\Installation photos\Memorial\Winter, Stwinter.jpg",,0,2018-03-01 08:47:56.073,2018-03-01 08:47:56.073,9999-12-31 23:59:59.997000,d1208c44-51c2-4916-b239-c88e04cccfb7
191,e75d6a2c-d428-4b95-924c-045986b95749,e0122f76-c2a5-4ba0-8d68-c2d39d4ed6b8,e0883f98-a16b-44fa-afe8-c80eb744f2f4,Kelly Lourenco,5373484.499988,"M:\PN\Teams\Cemeteries\Markers\Marker Applications\Installation photos\Memorial\Lourenko, Kelly.JPG",,1,2017-09-05 16:33:01.910,2017-09-05 16:43:21.667,9999-12-31 23:59:59.997000,d1208c44-51c2-4916-b239-c88e04cccfb7
192,e7c0f27a-ac87-409b-b38a-441ce4213fc1,29d1662b-0f7c-4416-83a4-e38b3d93698f,00000000-0000-0000-0000-000000000000,New Marker,5373484.499988,,,0,2014-08-08 08:43:15.193,2014-08-08 08:43:15.193,9999-12-31 23:59:59.997000,615670ba-3bd1-4a0b-a137-049c544df806
193,eb857920-0f95-4b0a-81f4-f10f78fe480e,fd5d2bc7-ee88-4a4f-a0bd-892903b73507,e31ecaee-73d5-4b62-a2db-5662213e7121,Random Person,5373484.499988,"M:\PN\Teams\Cemeteries\Markers\Marker Applications\Installation photos\Memorial\Person, Random.JPG",,0,2017-06-26 13:07:18.873,2017-06-26 13:07:18.873,9999-12-31 23:59:59.997000,d1208c44-51c2-4916-b239-c88e04cccfb7
194,ebc480e6-3037-4a94-9669-d82730f74f59,8fb5232a-b5d6-4769-b098-45c1f58d8338,80aad530-2395-4224-b0c2-c4578124cbeb,Clausen James and Shirely,5373484.499988,"M:\PN\Teams\Cemeteries\Markers\Marker Applications\Installation photos\Memorial\Clausen, James and Shirley.jpg",,0,2018-07-23 09:04:53.967,2018-07-23 09:04:53.967,9999-12-31 23:59:59.997000,d1208c44-51c2-4916-b239-c88e04cccfb7
195,eef602ba-0394-4f8a-bfb5-b6e698ce36a0,14597645-e39b-4eba-b9ed-65592d8b1238,00000000-0000-0000-0000-000000000000,David Bade,5373484.499988,"M:\PN\Teams\Cemeteries\Markers\Marker Applications\Installation photos\Engraving\Bade, David.jpg",,0,2017-08-02 13:55:02.873,2017-08-02 13:55:02.873,9999-12-31 23:59:59.997000,d1208c44-51c2-4916-b239-c88e04cccfb7
196,f06f3beb-3a3f-42d9-a22d-a55db84802ea,9e078cb1-fb7b-4aa9-a42d-e4e4b6b98429,80aad530-2395-4224-b0c2-c4578124cbeb,Tim Sell and Marjorie Mitchell,5373484.499988,"M:\PN\Teams\Cemeteries\Markers\Marker Applications\Installation photos\Memorial\Sell, Mitchell.jpg",,0,2017-12-07 08:48:47.417,2017-12-07 08:48:47.417,9999-12-31 23:59:59.997000,d1208c44-51c2-4916-b239-c88e04cccfb7
197,f17c7ffd-8951-40cd-8c85-fadf98322955,d87d3c1c-337e-433f-9993-5f11f93c6917,e0883f98-a16b-44fa-afe8-c80eb744f2f4,16x28 marker set 3/5/2002,5373484.499988,,,0,2014-10-01 16:37:46.243,2014-10-01 16:37:46.243,9999-12-31 23:59:59.997000,7d6c7c2b-5507-485f-a856-8c5eafaf2826
198,f262eb2d-d2cb-402e-8717-9a28c8acc9f0,2cb46e17-672a-4d67-938c-a178d5e79190,d96874d9-558c-40de-a4e7-77f7bc03e410,Yelena Pakhnyuk,5373484.499988,"M:\PN\Teams\Cemeteries\Markers\Marker Applications\Installation photos\Memorial\Pakhnyuk, Yelena.jpg",,0,2018-05-29 14:08:04.690,2018-05-29 14:08:04.690,9999-12-31 23:59:59.997000,d1208c44-51c2-4916-b239-c88e04cccfb7
199,f3787afe-2144-4144-a392-e9c0223602ff,12f967a9-4bfc-47eb-82ef-a4ae735c70f3,3f8c4a61-de5a-4288-b588-5ae5053c5c89,Doris Slater Goldman,5373484.499988,"M:\PN\Teams\Cemeteries\Markers\Marker Applications\Installation photos\Memorial\Goldman, Doris.jpg",,0,2017-02-08 13:02:21.180,2017-02-08 13:02:21.180,9999-12-31 23:59:59.997000,d1208c44-51c2-4916-b239-c88e04cccfb7
200,f3e00aa9-9c4c-4368-a21d-b7dbbaf27ba1,a79026c7-ee19-4ee3-892b-4e2535a2273e,e0883f98-a16b-44fa-afe8-c80eb744f2f4,Sharon and Allan McInnis,5373484.499988,"M:\PN\Teams\Cemeteries\Markers\Marker Applications\Installation photos\Memorial\McInnis, Sharon and Allan.jpg",,0,2018-05-01 13:32:52.290,2018-05-01 13:32:52.290,9999-12-31 23:59:59.997000,d1208c44-51c2-4916-b239-c88e04cccfb7
201,f42c13f6-ba08-43ad-a0a9-221aa964bb72,a4f1b5e4-f40d-45d5-aaf7-0e8c58fdf536,d96874d9-558c-40de-a4e7-77f7bc03e410,Larry Corder,5373484.499988,"M:\PN\Teams\Cemeteries\Markers\Marker Applications\Installation photos\Memorial\Corder, Larry.JPG",,0,2017-06-26 13:06:05.097,2017-06-26 13:06:05.097,9999-12-31 23:59:59.997000,d1208c44-51c2-4916-b239-c88e04cccfb7
202,f4576558-0126-4956-a3ba-a3348de42719,f4403e69-452e-4864-862a-0e208c1eb144,e31ecaee-73d5-4b62-a2db-5662213e7121,Elsie Perry,5373484.499988,"M:\PN\Teams\Cemeteries\Markers\Marker Applications\Installation photos\Memorial\Perry, Elsie.jpg",,0,2018-01-10 15:51:59.200,2018-01-10 15:51:59.200,9999-12-31 23:59:59.997000,d1208c44-51c2-4916-b239-c88e04cccfb7
203,f4f9ebde-d392-46e3-8b21-8bfc07727eea,9fefe384-ff56-43f3-961c-2243c9baff3a,53d08ed4-3bd0-43fd-8dac-8bf3475f7c7e,Evaristo Reyes and Zoila Relles Chacon,5373484.499988,"M:\PN\Teams\Cemeteries\Markers\Marker Applications\Installation photos\Memorial\Reyes, Evaristo.jpg",,0,2018-05-25 16:20:54.260,2018-05-25 16:20:54.260,9999-12-31 23:59:59.997000,d1208c44-51c2-4916-b239-c88e04cccfb7
204,f605a896-06f2-4f22-9cf8-605292b61355,c109ad79-ec04-4385-b96e-d63f7c0211e0,80aad530-2395-4224-b0c2-c4578124cbeb,New Marker,5373484.499988,"M:\PN\Teams\Cemeteries\Markers\Marker Applications\Installation photos\Memorial\Wilson, Kenneth.jpg",Kenneth G Wilson,0,2017-06-08 16:09:24.697,2017-06-08 16:09:24.697,9999-12-31 23:59:59.997000,d1208c44-51c2-4916-b239-c88e04cccfb7
205,f9570e17-c3cb-46b3-9f2c-212ef6c64897,4b7d1d68-94f0-4a87-8fca-7f602473ab1d,53d08ed4-3bd0-43fd-8dac-8bf3475f7c7e,Sou Chio and Mey Wang Saechao,5373484.499988,"M:\PN\Teams\Cemeteries\Markers\Marker Applications\Installation photos\Memorial\Saechao, Sou Chio and Mey Wang.JPG",,0,2017-05-03 15:51:14.367,2017-05-03 15:51:14.367,9999-12-31 23:59:59.997000,d1208c44-51c2-4916-b239-c88e04cccfb7
206,f9c6218b-6ec6-42d8-9625-16f9da6cb460,cff8d441-cc46-4234-a36d-1f3880b0066f,0edfce5b-09ac-40c7-9111-5cb20bb4fac8,Donald Odermann,5373484.499988,"M:\PN\Teams\Cemeteries\Markers\Marker Applications\Installation photos\Memorial\Odermann, Donald.jpg",,0,2018-07-25 09:31:59.140,2018-07-25 09:31:59.140,9999-12-31 23:59:59.997000,d1208c44-51c2-4916-b239-c88e04cccfb7
207,f9e7e084-d2f3-4ef0-9a76-126535e4a01c,bcef1e1d-09b6-4021-aa51-b7c546efa09f,4e96bb4e-0f00-4021-bc9b-362f8c22a72b,Pacifico and Dinah Travilla,5373484.499988,"M:\PN\Teams\Cemeteries\Markers\Marker Applications\Installation photos\Memorial\Travilla, Pacifico, Dinah, Noel.jpg",,0,2018-05-29 14:09:22.130,2018-05-29 14:09:22.130,9999-12-31 23:59:59.997000,d1208c44-51c2-4916-b239-c88e04cccfb7
208,fda7fb86-6202-4f73-a74a-aaae02536c80,cec6ad56-2436-4d7d-9903-310af5bceaa9,d96874d9-558c-40de-a4e7-77f7bc03e410,William Tuttle,5373484.499988,"M:\PN\Teams\Cemeteries\Markers\Marker Applications\Installation photos\Memorial\Tuttle, William.JPG",,0,2017-04-14 12:50:57.110,2017-04-14 12:50:57.110,9999-12-31 23:59:59.997000,d1208c44-51c2-4916-b239-c88e04cccfb7
