,Register_ID,Role_ID,Version,Date_Created,Date_Modified,Date_Deleted,User_ID
0,02e16820-a544-435f-ae74-56e9bcde4352,04234902-287c-41da-b0df-ec12740c651d,0,2017-06-12 11:18:37.630,2017-06-12 11:18:37.630,9999-12-31 23:59:59.997000,00000000-0000-0000-0000-000000000001
1,02e16820-a544-435f-ae74-56e9bcde4352,0801b07e-b22d-4271-bceb-935dc9abcf8a,0,2017-06-12 11:18:37.630,2017-06-12 11:18:37.630,9999-12-31 23:59:59.997000,00000000-0000-0000-0000-000000000001
2,02e16820-a544-435f-ae74-56e9bcde4352,12f9ffa7-3426-43c8-afd1-331a0a77cdb9,0,2017-06-12 11:18:37.630,2017-06-12 11:18:37.630,9999-12-31 23:59:59.997000,00000000-0000-0000-0000-000000000001
3,02e16820-a544-435f-ae74-56e9bcde4352,16755ee6-0277-40bf-8a77-ea74ee9176d2,0,2017-06-12 11:18:37.630,2017-06-12 11:18:37.630,9999-12-31 23:59:59.997000,00000000-0000-0000-0000-000000000001
4,02e16820-a544-435f-ae74-56e9bcde4352,1ed27acb-6da4-4e97-911c-824dbbac4bda,0,2017-06-12 11:18:37.630,2017-06-12 11:18:37.630,9999-12-31 23:59:59.997000,00000000-0000-0000-0000-000000000001
5,02e16820-a544-435f-ae74-56e9bcde4352,2365e293-892f-44eb-bf1f-113d9b6557e0,0,2017-06-12 11:18:37.630,2017-06-12 11:18:37.630,9999-12-31 23:59:59.997000,00000000-0000-0000-0000-000000000001
6,02e16820-a544-435f-ae74-56e9bcde4352,2995b722-3faa-4fef-a379-4957f5e0ebba,0,2017-06-12 11:18:37.630,2017-06-12 11:18:37.630,9999-12-31 23:59:59.997000,00000000-0000-0000-0000-000000000001
7,02e16820-a544-435f-ae74-56e9bcde4352,2d7837f0-35c2-4a06-a421-b21dee0f6daf,0,2017-06-12 11:18:37.630,2017-06-12 11:18:37.630,9999-12-31 23:59:59.997000,00000000-0000-0000-0000-000000000001
8,02e16820-a544-435f-ae74-56e9bcde4352,2fef278a-54e1-4070-bc2d-c01dfbbe383f,0,2017-06-12 11:18:37.630,2017-06-12 11:18:37.630,9999-12-31 23:59:59.997000,00000000-0000-0000-0000-000000000001
9,02e16820-a544-435f-ae74-56e9bcde4352,3054d1e0-ec1a-4939-ac8a-f3faf4695c91,0,2017-06-12 11:18:37.630,2017-06-12 11:18:37.630,9999-12-31 23:59:59.997000,00000000-0000-0000-0000-000000000001
10,02e16820-a544-435f-ae74-56e9bcde4352,8b2ec2c0-52f8-422b-b18c-f699b964c43a,0,2017-06-12 11:18:37.630,2017-06-12 11:18:37.630,9999-12-31 23:59:59.997000,00000000-0000-0000-0000-000000000001
11,02e16820-a544-435f-ae74-56e9bcde4352,ac26ac21-1f6d-4a04-b0df-ae4d95332417,0,2017-06-12 11:18:37.630,2017-06-12 11:18:37.630,9999-12-31 23:59:59.997000,00000000-0000-0000-0000-000000000001
12,02e16820-a544-435f-ae74-56e9bcde4352,bba706ae-6fc8-4f1a-9fee-3ea267a9f5bc,0,2017-06-12 11:18:37.647,2017-06-12 11:18:37.647,9999-12-31 23:59:59.997000,00000000-0000-0000-0000-000000000001
13,02e16820-a544-435f-ae74-56e9bcde4352,c7941921-3a80-4ed9-89ee-c5cfcd2e1f7e,0,2017-06-12 11:18:37.647,2017-06-12 11:18:37.647,9999-12-31 23:59:59.997000,00000000-0000-0000-0000-000000000001
14,1ab03ab8-0fb0-465f-b61f-c940ab3a1005,04234902-287c-41da-b0df-ec12740c651d,0,2018-07-10 13:12:55.043,2018-07-10 13:12:55.043,9999-12-31 23:59:59.997000,00000000-0000-0000-0000-000000000001
15,1ab03ab8-0fb0-465f-b61f-c940ab3a1005,0801b07e-b22d-4271-bceb-935dc9abcf8a,0,2018-07-10 13:12:55.043,2018-07-10 13:12:55.043,9999-12-31 23:59:59.997000,00000000-0000-0000-0000-000000000001
16,1ab03ab8-0fb0-465f-b61f-c940ab3a1005,12f9ffa7-3426-43c8-afd1-331a0a77cdb9,0,2018-07-10 13:12:55.043,2018-07-10 13:12:55.043,9999-12-31 23:59:59.997000,00000000-0000-0000-0000-000000000001
17,1ab03ab8-0fb0-465f-b61f-c940ab3a1005,16755ee6-0277-40bf-8a77-ea74ee9176d2,0,2018-07-10 13:12:55.043,2018-07-10 13:12:55.043,9999-12-31 23:59:59.997000,00000000-0000-0000-0000-000000000001
18,1ab03ab8-0fb0-465f-b61f-c940ab3a1005,1ed27acb-6da4-4e97-911c-824dbbac4bda,0,2018-07-10 13:12:55.043,2018-07-10 13:12:55.043,9999-12-31 23:59:59.997000,00000000-0000-0000-0000-000000000001
19,1ab03ab8-0fb0-465f-b61f-c940ab3a1005,2365e293-892f-44eb-bf1f-113d9b6557e0,0,2018-07-10 13:12:55.043,2018-07-10 13:12:55.043,9999-12-31 23:59:59.997000,00000000-0000-0000-0000-000000000001
20,1ab03ab8-0fb0-465f-b61f-c940ab3a1005,2995b722-3faa-4fef-a379-4957f5e0ebba,0,2018-07-10 13:12:55.043,2018-07-10 13:12:55.043,9999-12-31 23:59:59.997000,00000000-0000-0000-0000-000000000001
21,1ab03ab8-0fb0-465f-b61f-c940ab3a1005,2d7837f0-35c2-4a06-a421-b21dee0f6daf,0,2018-07-10 13:12:55.043,2018-07-10 13:12:55.043,9999-12-31 23:59:59.997000,00000000-0000-0000-0000-000000000001
22,1ab03ab8-0fb0-465f-b61f-c940ab3a1005,2fef278a-54e1-4070-bc2d-c01dfbbe383f,0,2018-07-10 13:12:55.043,2018-07-10 13:12:55.043,9999-12-31 23:59:59.997000,00000000-0000-0000-0000-000000000001
23,1ab03ab8-0fb0-465f-b61f-c940ab3a1005,3054d1e0-ec1a-4939-ac8a-f3faf4695c91,0,2018-07-10 13:12:55.043,2018-07-10 13:12:55.043,9999-12-31 23:59:59.997000,00000000-0000-0000-0000-000000000001
24,1ab03ab8-0fb0-465f-b61f-c940ab3a1005,8b2ec2c0-52f8-422b-b18c-f699b964c43a,0,2018-07-10 13:12:55.043,2018-07-10 13:12:55.043,9999-12-31 23:59:59.997000,00000000-0000-0000-0000-000000000001
25,1ab03ab8-0fb0-465f-b61f-c940ab3a1005,ac26ac21-1f6d-4a04-b0df-ae4d95332417,0,2018-07-10 13:12:55.043,2018-07-10 13:12:55.043,9999-12-31 23:59:59.997000,00000000-0000-0000-0000-000000000001
26,1ab03ab8-0fb0-465f-b61f-c940ab3a1005,bba706ae-6fc8-4f1a-9fee-3ea267a9f5bc,0,2018-07-10 13:12:55.043,2018-07-10 13:12:55.043,9999-12-31 23:59:59.997000,00000000-0000-0000-0000-000000000001
27,1ab03ab8-0fb0-465f-b61f-c940ab3a1005,c7941921-3a80-4ed9-89ee-c5cfcd2e1f7e,0,2018-07-10 13:12:55.043,2018-07-10 13:12:55.043,9999-12-31 23:59:59.997000,00000000-0000-0000-0000-000000000001
28,4a2c3d4f-11a7-4a7e-94dc-9975d55fd7d4,a76f44e3-b309-48f4-8c7a-1c4ac10ce9e5,0,2018-03-12 11:59:55.087,2018-03-12 11:59:55.087,9999-12-31 23:59:59.997000,00000000-0000-0000-0000-000000000001
29,5849e801-2567-499b-94bb-673891104346,014d3fbb-0a42-4147-bd30-6c2c01d111af,0,2018-01-16 18:13:20.000,2018-01-16 18:13:20.000,9999-12-31 23:59:59.997000,00000000-0000-0000-0000-000000000001
30,5849e801-2567-499b-94bb-673891104346,197c0789-8f0a-4c9e-9a05-2be55c1c6064,0,2018-01-16 18:13:20.000,2018-01-16 18:13:20.000,9999-12-31 23:59:59.997000,00000000-0000-0000-0000-000000000001
31,5849e801-2567-499b-94bb-673891104346,2492e0a2-14cb-43b8-bd5f-938f65a2d990,0,2018-01-16 18:13:20.000,2018-01-16 18:13:20.000,9999-12-31 23:59:59.997000,00000000-0000-0000-0000-000000000001
32,5849e801-2567-499b-94bb-673891104346,36795868-d3b6-410d-86fa-2ed68b52d7b0,0,2018-01-16 18:13:20.000,2018-01-16 18:13:20.000,9999-12-31 23:59:59.997000,00000000-0000-0000-0000-000000000001
33,5849e801-2567-499b-94bb-673891104346,4b22eec6-b0f2-4f14-8fea-d4a0495cfd11,0,2018-01-16 18:13:20.000,2018-01-16 18:13:20.000,9999-12-31 23:59:59.997000,00000000-0000-0000-0000-000000000001
34,5849e801-2567-499b-94bb-673891104346,5cedfa80-8415-40df-ac99-27b13d2ab20c,0,2018-01-16 18:13:20.000,2018-01-16 18:13:20.000,9999-12-31 23:59:59.997000,00000000-0000-0000-0000-000000000001
35,5849e801-2567-499b-94bb-673891104346,a76f44e3-b309-48f4-8c7a-1c4ac10ce9e5,0,2018-01-16 18:13:20.000,2018-01-16 18:13:20.000,9999-12-31 23:59:59.997000,00000000-0000-0000-0000-000000000001
36,5849e801-2567-499b-94bb-673891104346,a770dab0-b3d3-4f5c-82b2-47d2706018b5,0,2018-01-16 18:13:20.000,2018-01-16 18:13:20.000,9999-12-31 23:59:59.997000,00000000-0000-0000-0000-000000000001
37,5849e801-2567-499b-94bb-673891104346,a966bfa8-b90b-401d-b13b-50f9ded73591,0,2018-01-16 18:13:20.000,2018-01-16 18:13:20.000,9999-12-31 23:59:59.997000,00000000-0000-0000-0000-000000000001
38,5849e801-2567-499b-94bb-673891104346,b20f2091-4f0e-400b-a81f-96af93fe929b,0,2018-01-16 18:13:20.000,2018-01-16 18:13:20.000,9999-12-31 23:59:59.997000,00000000-0000-0000-0000-000000000001
39,5849e801-2567-499b-94bb-673891104346,b56a7505-6a10-49e8-95f2-4aa31b1592f0,0,2018-01-16 18:13:20.000,2018-01-16 18:13:20.000,9999-12-31 23:59:59.997000,00000000-0000-0000-0000-000000000001
40,5849e801-2567-499b-94bb-673891104346,b8d9c766-2419-44c1-b4f0-68ac8715d00b,0,2018-01-16 18:13:20.000,2018-01-16 18:13:20.000,9999-12-31 23:59:59.997000,00000000-0000-0000-0000-000000000001
41,5849e801-2567-499b-94bb-673891104346,d54ab425-2c8b-4bee-baa2-9eeac6967f54,0,2018-01-16 18:13:20.000,2018-01-16 18:13:20.000,9999-12-31 23:59:59.997000,00000000-0000-0000-0000-000000000001
42,5849e801-2567-499b-94bb-673891104346,da9ac5bf-72f8-41c9-847a-929da34eeaee,0,2018-01-16 18:13:20.000,2018-01-16 18:13:20.000,9999-12-31 23:59:59.997000,00000000-0000-0000-0000-000000000001
43,5bd82e52-39dc-4d2d-ad7e-4a3ee831ac10,61321c2c-51ee-40a4-8bc9-720d79ac2f15,0,2017-06-12 11:18:37.647,2017-06-12 11:18:37.647,9999-12-31 23:59:59.997000,00000000-0000-0000-0000-000000000001
44,5bd82e52-39dc-4d2d-ad7e-4a3ee831ac10,a6dd442b-88b7-474d-9737-b2d7c25e57d3,0,2017-06-12 11:18:37.647,2017-06-12 11:18:37.647,9999-12-31 23:59:59.997000,00000000-0000-0000-0000-000000000001
45,5bd82e52-39dc-4d2d-ad7e-4a3ee831ac10,fd544247-48ea-48be-9c91-87dc39acd498,0,2017-06-12 11:18:37.647,2017-06-12 11:18:37.647,9999-12-31 23:59:59.997000,00000000-0000-0000-0000-000000000001
46,5dee734e-189a-4929-b15e-0b714bcc95b5,04234902-287c-41da-b0df-ec12740c651d,0,2017-06-12 11:18:37.600,2017-06-12 11:18:37.600,9999-12-31 23:59:59.997000,00000000-0000-0000-0000-000000000001
47,5dee734e-189a-4929-b15e-0b714bcc95b5,0801b07e-b22d-4271-bceb-935dc9abcf8a,0,2017-06-12 11:18:37.600,2017-06-12 11:18:37.600,9999-12-31 23:59:59.997000,00000000-0000-0000-0000-000000000001
48,5dee734e-189a-4929-b15e-0b714bcc95b5,12f9ffa7-3426-43c8-afd1-331a0a77cdb9,0,2017-06-12 11:18:37.600,2017-06-12 11:18:37.600,9999-12-31 23:59:59.997000,00000000-0000-0000-0000-000000000001
49,5dee734e-189a-4929-b15e-0b714bcc95b5,16755ee6-0277-40bf-8a77-ea74ee9176d2,0,2017-06-12 11:18:37.600,2017-06-12 11:18:37.600,9999-12-31 23:59:59.997000,00000000-0000-0000-0000-000000000001
50,5dee734e-189a-4929-b15e-0b714bcc95b5,1ed27acb-6da4-4e97-911c-824dbbac4bda,0,2017-06-12 11:18:37.600,2017-06-12 11:18:37.600,9999-12-31 23:59:59.997000,00000000-0000-0000-0000-000000000001
51,5dee734e-189a-4929-b15e-0b714bcc95b5,2365e293-892f-44eb-bf1f-113d9b6557e0,0,2017-06-12 11:18:37.600,2017-06-12 11:18:37.600,9999-12-31 23:59:59.997000,00000000-0000-0000-0000-000000000001
52,5dee734e-189a-4929-b15e-0b714bcc95b5,2995b722-3faa-4fef-a379-4957f5e0ebba,0,2017-06-12 11:18:37.600,2017-06-12 11:18:37.600,9999-12-31 23:59:59.997000,00000000-0000-0000-0000-000000000001
53,5dee734e-189a-4929-b15e-0b714bcc95b5,2d7837f0-35c2-4a06-a421-b21dee0f6daf,0,2017-06-12 11:18:37.600,2017-06-12 11:18:37.600,9999-12-31 23:59:59.997000,00000000-0000-0000-0000-000000000001
54,5dee734e-189a-4929-b15e-0b714bcc95b5,2fef278a-54e1-4070-bc2d-c01dfbbe383f,0,2017-06-12 11:18:37.600,2017-06-12 11:18:37.600,9999-12-31 23:59:59.997000,00000000-0000-0000-0000-000000000001
55,5dee734e-189a-4929-b15e-0b714bcc95b5,3054d1e0-ec1a-4939-ac8a-f3faf4695c91,0,2017-06-12 11:18:37.600,2017-06-12 11:18:37.600,9999-12-31 23:59:59.997000,00000000-0000-0000-0000-000000000001
56,5dee734e-189a-4929-b15e-0b714bcc95b5,8b2ec2c0-52f8-422b-b18c-f699b964c43a,0,2017-06-12 11:18:37.600,2017-06-12 11:18:37.600,9999-12-31 23:59:59.997000,00000000-0000-0000-0000-000000000001
57,5dee734e-189a-4929-b15e-0b714bcc95b5,ac26ac21-1f6d-4a04-b0df-ae4d95332417,0,2017-06-12 11:18:37.600,2017-06-12 11:18:37.600,9999-12-31 23:59:59.997000,00000000-0000-0000-0000-000000000001
58,5dee734e-189a-4929-b15e-0b714bcc95b5,bba706ae-6fc8-4f1a-9fee-3ea267a9f5bc,0,2017-06-12 11:18:37.613,2017-06-12 11:18:37.613,9999-12-31 23:59:59.997000,00000000-0000-0000-0000-000000000001
59,5dee734e-189a-4929-b15e-0b714bcc95b5,c7941921-3a80-4ed9-89ee-c5cfcd2e1f7e,0,2017-06-12 11:18:37.613,2017-06-12 11:18:37.613,9999-12-31 23:59:59.997000,00000000-0000-0000-0000-000000000001
60,5fc4593f-ea3a-4cab-8a12-19791e49c779,04234902-287c-41da-b0df-ec12740c651d,0,2017-06-12 11:18:37.660,2017-06-12 11:18:37.660,9999-12-31 23:59:59.997000,00000000-0000-0000-0000-000000000001
61,5fc4593f-ea3a-4cab-8a12-19791e49c779,0801b07e-b22d-4271-bceb-935dc9abcf8a,0,2017-06-12 11:18:37.660,2017-06-12 11:18:37.660,9999-12-31 23:59:59.997000,00000000-0000-0000-0000-000000000001
62,5fc4593f-ea3a-4cab-8a12-19791e49c779,12f9ffa7-3426-43c8-afd1-331a0a77cdb9,0,2017-06-12 11:18:37.660,2017-06-12 11:18:37.660,9999-12-31 23:59:59.997000,00000000-0000-0000-0000-000000000001
63,5fc4593f-ea3a-4cab-8a12-19791e49c779,16755ee6-0277-40bf-8a77-ea74ee9176d2,0,2017-06-12 11:18:37.660,2017-06-12 11:18:37.660,9999-12-31 23:59:59.997000,00000000-0000-0000-0000-000000000001
64,5fc4593f-ea3a-4cab-8a12-19791e49c779,1ed27acb-6da4-4e97-911c-824dbbac4bda,0,2017-06-12 11:18:37.660,2017-06-12 11:18:37.660,9999-12-31 23:59:59.997000,00000000-0000-0000-0000-000000000001
65,5fc4593f-ea3a-4cab-8a12-19791e49c779,2365e293-892f-44eb-bf1f-113d9b6557e0,0,2017-06-12 11:18:37.660,2017-06-12 11:18:37.660,9999-12-31 23:59:59.997000,00000000-0000-0000-0000-000000000001
66,5fc4593f-ea3a-4cab-8a12-19791e49c779,2995b722-3faa-4fef-a379-4957f5e0ebba,0,2017-06-12 11:18:37.660,2017-06-12 11:18:37.660,9999-12-31 23:59:59.997000,00000000-0000-0000-0000-000000000001
67,5fc4593f-ea3a-4cab-8a12-19791e49c779,2d7837f0-35c2-4a06-a421-b21dee0f6daf,0,2017-06-12 11:18:37.660,2017-06-12 11:18:37.660,9999-12-31 23:59:59.997000,00000000-0000-0000-0000-000000000001
68,5fc4593f-ea3a-4cab-8a12-19791e49c779,2fef278a-54e1-4070-bc2d-c01dfbbe383f,0,2017-06-12 11:18:37.660,2017-06-12 11:18:37.660,9999-12-31 23:59:59.997000,00000000-0000-0000-0000-000000000001
69,5fc4593f-ea3a-4cab-8a12-19791e49c779,3054d1e0-ec1a-4939-ac8a-f3faf4695c91,0,2017-06-12 11:18:37.660,2017-06-12 11:18:37.660,9999-12-31 23:59:59.997000,00000000-0000-0000-0000-000000000001
70,5fc4593f-ea3a-4cab-8a12-19791e49c779,8b2ec2c0-52f8-422b-b18c-f699b964c43a,0,2017-06-12 11:18:37.660,2017-06-12 11:18:37.660,9999-12-31 23:59:59.997000,00000000-0000-0000-0000-000000000001
71,5fc4593f-ea3a-4cab-8a12-19791e49c779,ac26ac21-1f6d-4a04-b0df-ae4d95332417,0,2017-06-12 11:18:37.660,2017-06-12 11:18:37.660,9999-12-31 23:59:59.997000,00000000-0000-0000-0000-000000000001
72,5fc4593f-ea3a-4cab-8a12-19791e49c779,bba706ae-6fc8-4f1a-9fee-3ea267a9f5bc,0,2017-06-12 11:18:37.660,2017-06-12 11:18:37.660,9999-12-31 23:59:59.997000,00000000-0000-0000-0000-000000000001
73,5fc4593f-ea3a-4cab-8a12-19791e49c779,c7941921-3a80-4ed9-89ee-c5cfcd2e1f7e,0,2017-06-12 11:18:37.660,2017-06-12 11:18:37.660,9999-12-31 23:59:59.997000,00000000-0000-0000-0000-000000000001
74,79ba925f-6d8e-44a8-b49a-01b7505a7e51,2ad71908-b456-4165-b415-f883980a7761,0,2017-06-12 11:18:37.613,2017-06-12 11:18:37.613,9999-12-31 23:59:59.997000,00000000-0000-0000-0000-000000000001
75,79ba925f-6d8e-44a8-b49a-01b7505a7e51,2ba18b98-d35f-4a9b-bc91-2a24a2a2439b,0,2017-06-12 11:18:37.613,2017-06-12 11:18:37.613,9999-12-31 23:59:59.997000,00000000-0000-0000-0000-000000000001
76,79ba925f-6d8e-44a8-b49a-01b7505a7e51,2d9a58cd-7173-4c31-b619-e160609072e6,0,2017-06-12 11:18:37.613,2017-06-12 11:18:37.613,9999-12-31 23:59:59.997000,00000000-0000-0000-0000-000000000001
77,79ba925f-6d8e-44a8-b49a-01b7505a7e51,d0083a3d-8b62-4a8f-8bb2-e58882d70054,0,2017-06-12 11:18:37.613,2017-06-12 11:18:37.613,9999-12-31 23:59:59.997000,00000000-0000-0000-0000-000000000001
78,889aa268-536b-4aa4-ac3c-125848669822,054f5858-f181-41fc-9645-07a2dfe37959,0,2017-06-29 12:49:03.803,2017-06-29 12:49:03.803,9999-12-31 23:59:59.997000,00000000-0000-0000-0000-000000000001
79,889aa268-536b-4aa4-ac3c-125848669822,2c5c19fa-2fa3-4ac7-b069-8c2b391f47a8,0,2017-06-29 12:49:03.803,2017-06-29 12:49:03.803,9999-12-31 23:59:59.997000,00000000-0000-0000-0000-000000000001
80,889aa268-536b-4aa4-ac3c-125848669822,3107a2c9-7190-4ad3-a19d-570fc2210aa1,0,2017-06-29 12:49:03.803,2017-06-29 12:49:03.803,9999-12-31 23:59:59.997000,00000000-0000-0000-0000-000000000001
81,889aa268-536b-4aa4-ac3c-125848669822,42b6e07b-f02a-42cb-a008-4714e799a0a2,0,2017-06-29 12:49:03.803,2017-06-29 12:49:03.803,9999-12-31 23:59:59.997000,00000000-0000-0000-0000-000000000001
82,889aa268-536b-4aa4-ac3c-125848669822,5333b561-a869-445d-9e02-4c0eec2b1ce5,0,2017-06-29 12:49:03.803,2017-06-29 12:49:03.803,9999-12-31 23:59:59.997000,00000000-0000-0000-0000-000000000001
83,889aa268-536b-4aa4-ac3c-125848669822,61321c2c-51ee-40a4-8bc9-720d79ac2f15,0,2017-06-29 12:49:03.803,2017-06-29 12:49:03.803,9999-12-31 23:59:59.997000,00000000-0000-0000-0000-000000000001
84,889aa268-536b-4aa4-ac3c-125848669822,8b3c6481-5ea4-4a4e-b7d2-9f0df46c959f,0,2017-06-29 12:49:03.803,2017-06-29 12:49:03.803,9999-12-31 23:59:59.997000,00000000-0000-0000-0000-000000000001
85,889aa268-536b-4aa4-ac3c-125848669822,a6dd442b-88b7-474d-9737-b2d7c25e57d3,0,2017-06-29 12:49:03.803,2017-06-29 12:49:03.803,9999-12-31 23:59:59.997000,00000000-0000-0000-0000-000000000001
86,889aa268-536b-4aa4-ac3c-125848669822,ab717fc7-e56a-4dc8-8b50-affecc3ceeeb,0,2017-06-29 12:49:03.803,2017-06-29 12:49:03.803,9999-12-31 23:59:59.997000,00000000-0000-0000-0000-000000000001
87,889aa268-536b-4aa4-ac3c-125848669822,befc6449-c7f9-4e38-9853-3932c1bff2b7,0,2017-06-29 12:49:03.803,2017-06-29 12:49:03.803,9999-12-31 23:59:59.997000,00000000-0000-0000-0000-000000000001
88,889aa268-536b-4aa4-ac3c-125848669822,c5579477-f5d1-49e7-aa1c-4d22688deb2b,0,2017-06-29 12:49:03.803,2017-06-29 12:49:03.803,9999-12-31 23:59:59.997000,00000000-0000-0000-0000-000000000001
89,889aa268-536b-4aa4-ac3c-125848669822,e3fe25e1-46cf-4479-8a17-ba00fcf4d2a4,0,2017-06-29 12:49:03.803,2017-06-29 12:49:03.803,9999-12-31 23:59:59.997000,00000000-0000-0000-0000-000000000001
90,889aa268-536b-4aa4-ac3c-125848669822,f6487441-97a3-4bf1-9226-71ace5c12ea2,0,2017-06-29 12:49:03.803,2017-06-29 12:49:03.803,9999-12-31 23:59:59.997000,00000000-0000-0000-0000-000000000001
91,889aa268-536b-4aa4-ac3c-125848669822,fd544247-48ea-48be-9c91-87dc39acd498,0,2017-06-29 12:49:03.803,2017-06-29 12:49:03.803,9999-12-31 23:59:59.997000,00000000-0000-0000-0000-000000000001
92,8dae1d1e-998f-4712-b800-cfd5f9a1ef14,054f5858-f181-41fc-9645-07a2dfe37959,0,2018-05-17 11:58:54.697,2018-05-17 11:58:54.697,9999-12-31 23:59:59.997000,00000000-0000-0000-0000-000000000001
93,8dae1d1e-998f-4712-b800-cfd5f9a1ef14,2c5c19fa-2fa3-4ac7-b069-8c2b391f47a8,0,2018-05-17 11:58:54.697,2018-05-17 11:58:54.697,9999-12-31 23:59:59.997000,00000000-0000-0000-0000-000000000001
94,8dae1d1e-998f-4712-b800-cfd5f9a1ef14,3107a2c9-7190-4ad3-a19d-570fc2210aa1,0,2018-05-17 11:58:54.697,2018-05-17 11:58:54.697,9999-12-31 23:59:59.997000,00000000-0000-0000-0000-000000000001
95,8dae1d1e-998f-4712-b800-cfd5f9a1ef14,42b6e07b-f02a-42cb-a008-4714e799a0a2,0,2018-05-17 11:58:54.697,2018-05-17 11:58:54.697,9999-12-31 23:59:59.997000,00000000-0000-0000-0000-000000000001
96,8dae1d1e-998f-4712-b800-cfd5f9a1ef14,5333b561-a869-445d-9e02-4c0eec2b1ce5,0,2018-05-17 11:58:54.697,2018-05-17 11:58:54.697,9999-12-31 23:59:59.997000,00000000-0000-0000-0000-000000000001
97,8dae1d1e-998f-4712-b800-cfd5f9a1ef14,61321c2c-51ee-40a4-8bc9-720d79ac2f15,0,2018-05-17 11:58:54.697,2018-05-17 11:58:54.697,9999-12-31 23:59:59.997000,00000000-0000-0000-0000-000000000001
98,8dae1d1e-998f-4712-b800-cfd5f9a1ef14,8b3c6481-5ea4-4a4e-b7d2-9f0df46c959f,0,2018-05-17 11:58:54.697,2018-05-17 11:58:54.697,9999-12-31 23:59:59.997000,00000000-0000-0000-0000-000000000001
99,8dae1d1e-998f-4712-b800-cfd5f9a1ef14,a6dd442b-88b7-474d-9737-b2d7c25e57d3,0,2018-05-17 11:58:54.697,2018-05-17 11:58:54.697,9999-12-31 23:59:59.997000,00000000-0000-0000-0000-000000000001
100,8dae1d1e-998f-4712-b800-cfd5f9a1ef14,ab717fc7-e56a-4dc8-8b50-affecc3ceeeb,0,2018-05-17 11:58:54.697,2018-05-17 11:58:54.697,9999-12-31 23:59:59.997000,00000000-0000-0000-0000-000000000001
101,8dae1d1e-998f-4712-b800-cfd5f9a1ef14,befc6449-c7f9-4e38-9853-3932c1bff2b7,0,2018-05-17 11:58:54.697,2018-05-17 11:58:54.697,9999-12-31 23:59:59.997000,00000000-0000-0000-0000-000000000001
102,8dae1d1e-998f-4712-b800-cfd5f9a1ef14,c5579477-f5d1-49e7-aa1c-4d22688deb2b,0,2018-05-17 11:58:54.697,2018-05-17 11:58:54.697,9999-12-31 23:59:59.997000,00000000-0000-0000-0000-000000000001
103,8dae1d1e-998f-4712-b800-cfd5f9a1ef14,e3fe25e1-46cf-4479-8a17-ba00fcf4d2a4,0,2018-05-17 11:58:54.697,2018-05-17 11:58:54.697,9999-12-31 23:59:59.997000,00000000-0000-0000-0000-000000000001
104,8dae1d1e-998f-4712-b800-cfd5f9a1ef14,f6487441-97a3-4bf1-9226-71ace5c12ea2,0,2018-05-17 11:58:54.697,2018-05-17 11:58:54.697,9999-12-31 23:59:59.997000,00000000-0000-0000-0000-000000000001
105,8dae1d1e-998f-4712-b800-cfd5f9a1ef14,fd544247-48ea-48be-9c91-87dc39acd498,0,2018-05-17 11:58:54.697,2018-05-17 11:58:54.697,9999-12-31 23:59:59.997000,00000000-0000-0000-0000-000000000001
106,93a8aa72-330b-42e1-b945-392a68ec35c8,04234902-287c-41da-b0df-ec12740c651d,0,2017-07-06 08:29:19.667,2017-07-06 08:29:19.667,9999-12-31 23:59:59.997000,00000000-0000-0000-0000-000000000001
107,93a8aa72-330b-42e1-b945-392a68ec35c8,0801b07e-b22d-4271-bceb-935dc9abcf8a,0,2017-07-06 08:29:19.667,2017-07-06 08:29:19.667,9999-12-31 23:59:59.997000,00000000-0000-0000-0000-000000000001
108,93a8aa72-330b-42e1-b945-392a68ec35c8,12f9ffa7-3426-43c8-afd1-331a0a77cdb9,0,2017-07-06 08:29:19.667,2017-07-06 08:29:19.667,9999-12-31 23:59:59.997000,00000000-0000-0000-0000-000000000001
109,93a8aa72-330b-42e1-b945-392a68ec35c8,16755ee6-0277-40bf-8a77-ea74ee9176d2,0,2017-07-06 08:29:19.667,2017-07-06 08:29:19.667,9999-12-31 23:59:59.997000,00000000-0000-0000-0000-000000000001
110,93a8aa72-330b-42e1-b945-392a68ec35c8,1ed27acb-6da4-4e97-911c-824dbbac4bda,0,2017-07-06 08:29:19.667,2017-07-06 08:29:19.667,9999-12-31 23:59:59.997000,00000000-0000-0000-0000-000000000001
111,93a8aa72-330b-42e1-b945-392a68ec35c8,2365e293-892f-44eb-bf1f-113d9b6557e0,0,2017-07-06 08:29:19.667,2017-07-06 08:29:19.667,9999-12-31 23:59:59.997000,00000000-0000-0000-0000-000000000001
112,93a8aa72-330b-42e1-b945-392a68ec35c8,2995b722-3faa-4fef-a379-4957f5e0ebba,0,2017-07-06 08:29:19.667,2017-07-06 08:29:19.667,9999-12-31 23:59:59.997000,00000000-0000-0000-0000-000000000001
113,93a8aa72-330b-42e1-b945-392a68ec35c8,2d7837f0-35c2-4a06-a421-b21dee0f6daf,0,2017-07-06 08:29:19.667,2017-07-06 08:29:19.667,9999-12-31 23:59:59.997000,00000000-0000-0000-0000-000000000001
114,93a8aa72-330b-42e1-b945-392a68ec35c8,2fef278a-54e1-4070-bc2d-c01dfbbe383f,0,2017-07-06 08:29:19.667,2017-07-06 08:29:19.667,9999-12-31 23:59:59.997000,00000000-0000-0000-0000-000000000001
115,93a8aa72-330b-42e1-b945-392a68ec35c8,3054d1e0-ec1a-4939-ac8a-f3faf4695c91,0,2017-07-06 08:29:19.667,2017-07-06 08:29:19.667,9999-12-31 23:59:59.997000,00000000-0000-0000-0000-000000000001
116,93a8aa72-330b-42e1-b945-392a68ec35c8,8b2ec2c0-52f8-422b-b18c-f699b964c43a,0,2017-07-06 08:29:19.667,2017-07-06 08:29:19.667,9999-12-31 23:59:59.997000,00000000-0000-0000-0000-000000000001
117,93a8aa72-330b-42e1-b945-392a68ec35c8,ac26ac21-1f6d-4a04-b0df-ae4d95332417,0,2017-07-06 08:29:19.667,2017-07-06 08:29:19.667,9999-12-31 23:59:59.997000,00000000-0000-0000-0000-000000000001
118,93a8aa72-330b-42e1-b945-392a68ec35c8,bba706ae-6fc8-4f1a-9fee-3ea267a9f5bc,0,2017-07-06 08:29:19.667,2017-07-06 08:29:19.667,9999-12-31 23:59:59.997000,00000000-0000-0000-0000-000000000001
119,93a8aa72-330b-42e1-b945-392a68ec35c8,c7941921-3a80-4ed9-89ee-c5cfcd2e1f7e,0,2017-07-06 08:29:19.667,2017-07-06 08:29:19.667,9999-12-31 23:59:59.997000,00000000-0000-0000-0000-000000000001
120,94a6284b-2001-423e-bbc9-c889ea4ba17f,04234902-287c-41da-b0df-ec12740c651d,0,2017-06-12 11:18:37.647,2017-06-12 11:18:37.647,9999-12-31 23:59:59.997000,00000000-0000-0000-0000-000000000001
121,94a6284b-2001-423e-bbc9-c889ea4ba17f,0801b07e-b22d-4271-bceb-935dc9abcf8a,0,2017-06-12 11:18:37.647,2017-06-12 11:18:37.647,9999-12-31 23:59:59.997000,00000000-0000-0000-0000-000000000001
122,94a6284b-2001-423e-bbc9-c889ea4ba17f,12f9ffa7-3426-43c8-afd1-331a0a77cdb9,0,2017-06-12 11:18:37.647,2017-06-12 11:18:37.647,9999-12-31 23:59:59.997000,00000000-0000-0000-0000-000000000001
123,94a6284b-2001-423e-bbc9-c889ea4ba17f,16755ee6-0277-40bf-8a77-ea74ee9176d2,0,2017-06-12 11:18:37.647,2017-06-12 11:18:37.647,9999-12-31 23:59:59.997000,00000000-0000-0000-0000-000000000001
124,94a6284b-2001-423e-bbc9-c889ea4ba17f,1ed27acb-6da4-4e97-911c-824dbbac4bda,0,2017-06-12 11:18:37.647,2017-06-12 11:18:37.647,9999-12-31 23:59:59.997000,00000000-0000-0000-0000-000000000001
125,94a6284b-2001-423e-bbc9-c889ea4ba17f,2365e293-892f-44eb-bf1f-113d9b6557e0,0,2017-06-12 11:18:37.647,2017-06-12 11:18:37.647,9999-12-31 23:59:59.997000,00000000-0000-0000-0000-000000000001
126,94a6284b-2001-423e-bbc9-c889ea4ba17f,2995b722-3faa-4fef-a379-4957f5e0ebba,0,2017-06-12 11:18:37.647,2017-06-12 11:18:37.647,9999-12-31 23:59:59.997000,00000000-0000-0000-0000-000000000001
127,94a6284b-2001-423e-bbc9-c889ea4ba17f,2d7837f0-35c2-4a06-a421-b21dee0f6daf,0,2017-06-12 11:18:37.647,2017-06-12 11:18:37.647,9999-12-31 23:59:59.997000,00000000-0000-0000-0000-000000000001
128,94a6284b-2001-423e-bbc9-c889ea4ba17f,2fef278a-54e1-4070-bc2d-c01dfbbe383f,0,2017-06-12 11:18:37.647,2017-06-12 11:18:37.647,9999-12-31 23:59:59.997000,00000000-0000-0000-0000-000000000001
129,94a6284b-2001-423e-bbc9-c889ea4ba17f,3054d1e0-ec1a-4939-ac8a-f3faf4695c91,0,2017-06-12 11:18:37.647,2017-06-12 11:18:37.647,9999-12-31 23:59:59.997000,00000000-0000-0000-0000-000000000001
130,94a6284b-2001-423e-bbc9-c889ea4ba17f,8b2ec2c0-52f8-422b-b18c-f699b964c43a,0,2017-06-12 11:18:37.647,2017-06-12 11:18:37.647,9999-12-31 23:59:59.997000,00000000-0000-0000-0000-000000000001
131,94a6284b-2001-423e-bbc9-c889ea4ba17f,ac26ac21-1f6d-4a04-b0df-ae4d95332417,0,2017-06-12 11:18:37.647,2017-06-12 11:18:37.647,9999-12-31 23:59:59.997000,00000000-0000-0000-0000-000000000001
132,94a6284b-2001-423e-bbc9-c889ea4ba17f,bba706ae-6fc8-4f1a-9fee-3ea267a9f5bc,0,2017-06-12 11:18:37.647,2017-06-12 11:18:37.647,9999-12-31 23:59:59.997000,00000000-0000-0000-0000-000000000001
133,94a6284b-2001-423e-bbc9-c889ea4ba17f,c7941921-3a80-4ed9-89ee-c5cfcd2e1f7e,0,2017-06-12 11:18:37.647,2017-06-12 11:18:37.647,9999-12-31 23:59:59.997000,00000000-0000-0000-0000-000000000001
134,95ea1489-701a-4863-8c06-001babe21422,04234902-287c-41da-b0df-ec12740c651d,0,2018-08-03 17:03:23.837,2018-08-03 17:03:23.837,9999-12-31 23:59:59.997000,00000000-0000-0000-0000-000000000001
135,95ea1489-701a-4863-8c06-001babe21422,0801b07e-b22d-4271-bceb-935dc9abcf8a,0,2018-08-03 17:03:23.837,2018-08-03 17:03:23.837,9999-12-31 23:59:59.997000,00000000-0000-0000-0000-000000000001
136,95ea1489-701a-4863-8c06-001babe21422,12f9ffa7-3426-43c8-afd1-331a0a77cdb9,0,2018-08-03 17:03:23.837,2018-08-03 17:03:23.837,9999-12-31 23:59:59.997000,00000000-0000-0000-0000-000000000001
137,95ea1489-701a-4863-8c06-001babe21422,16755ee6-0277-40bf-8a77-ea74ee9176d2,0,2018-08-03 17:03:23.837,2018-08-03 17:03:23.837,9999-12-31 23:59:59.997000,00000000-0000-0000-0000-000000000001
138,95ea1489-701a-4863-8c06-001babe21422,1ed27acb-6da4-4e97-911c-824dbbac4bda,0,2018-08-03 17:03:23.837,2018-08-03 17:03:23.837,9999-12-31 23:59:59.997000,00000000-0000-0000-0000-000000000001
139,95ea1489-701a-4863-8c06-001babe21422,2365e293-892f-44eb-bf1f-113d9b6557e0,0,2018-08-03 17:03:23.837,2018-08-03 17:03:23.837,9999-12-31 23:59:59.997000,00000000-0000-0000-0000-000000000001
140,95ea1489-701a-4863-8c06-001babe21422,2995b722-3faa-4fef-a379-4957f5e0ebba,0,2018-08-03 17:03:23.837,2018-08-03 17:03:23.837,9999-12-31 23:59:59.997000,00000000-0000-0000-0000-000000000001
141,95ea1489-701a-4863-8c06-001babe21422,2d7837f0-35c2-4a06-a421-b21dee0f6daf,0,2018-08-03 17:03:23.837,2018-08-03 17:03:23.837,9999-12-31 23:59:59.997000,00000000-0000-0000-0000-000000000001
142,95ea1489-701a-4863-8c06-001babe21422,2fef278a-54e1-4070-bc2d-c01dfbbe383f,0,2018-08-03 17:03:23.837,2018-08-03 17:03:23.837,9999-12-31 23:59:59.997000,00000000-0000-0000-0000-000000000001
143,95ea1489-701a-4863-8c06-001babe21422,3054d1e0-ec1a-4939-ac8a-f3faf4695c91,0,2018-08-03 17:03:23.837,2018-08-03 17:03:23.837,9999-12-31 23:59:59.997000,00000000-0000-0000-0000-000000000001
144,95ea1489-701a-4863-8c06-001babe21422,8b2ec2c0-52f8-422b-b18c-f699b964c43a,0,2018-08-03 17:03:23.837,2018-08-03 17:03:23.837,9999-12-31 23:59:59.997000,00000000-0000-0000-0000-000000000001
145,95ea1489-701a-4863-8c06-001babe21422,ac26ac21-1f6d-4a04-b0df-ae4d95332417,0,2018-08-03 17:03:23.837,2018-08-03 17:03:23.837,9999-12-31 23:59:59.997000,00000000-0000-0000-0000-000000000001
146,95ea1489-701a-4863-8c06-001babe21422,bba706ae-6fc8-4f1a-9fee-3ea267a9f5bc,0,2018-08-03 17:03:23.837,2018-08-03 17:03:23.837,9999-12-31 23:59:59.997000,00000000-0000-0000-0000-000000000001
147,95ea1489-701a-4863-8c06-001babe21422,c7941921-3a80-4ed9-89ee-c5cfcd2e1f7e,0,2018-08-03 17:03:23.837,2018-08-03 17:03:23.837,9999-12-31 23:59:59.997000,00000000-0000-0000-0000-000000000001
148,ad1baf46-8a69-401d-8a48-a58851ac4e88,014d3fbb-0a42-4147-bd30-6c2c01d111af,0,2013-12-03 13:04:53.283,2013-12-03 13:04:53.283,9999-12-31 23:59:59.997000,00000000-0000-0000-0000-000000000001
149,ad1baf46-8a69-401d-8a48-a58851ac4e88,197c0789-8f0a-4c9e-9a05-2be55c1c6064,0,2013-12-03 13:04:53.283,2013-12-03 13:04:53.283,9999-12-31 23:59:59.997000,00000000-0000-0000-0000-000000000001
150,ad1baf46-8a69-401d-8a48-a58851ac4e88,2492e0a2-14cb-43b8-bd5f-938f65a2d990,0,2013-12-03 13:04:53.283,2013-12-03 13:04:53.283,9999-12-31 23:59:59.997000,00000000-0000-0000-0000-000000000001
151,ad1baf46-8a69-401d-8a48-a58851ac4e88,4b22eec6-b0f2-4f14-8fea-d4a0495cfd11,0,2013-12-03 13:04:53.300,2013-12-03 13:04:53.300,9999-12-31 23:59:59.997000,00000000-0000-0000-0000-000000000001
152,ad1baf46-8a69-401d-8a48-a58851ac4e88,5cedfa80-8415-40df-ac99-27b13d2ab20c,0,2013-12-03 13:04:53.300,2013-12-03 13:04:53.300,9999-12-31 23:59:59.997000,00000000-0000-0000-0000-000000000001
153,ad1baf46-8a69-401d-8a48-a58851ac4e88,a76f44e3-b309-48f4-8c7a-1c4ac10ce9e5,0,2013-12-03 13:04:53.300,2013-12-03 13:04:53.300,9999-12-31 23:59:59.997000,00000000-0000-0000-0000-000000000001
154,ad1baf46-8a69-401d-8a48-a58851ac4e88,a770dab0-b3d3-4f5c-82b2-47d2706018b5,0,2013-12-03 13:04:53.300,2013-12-03 13:04:53.300,9999-12-31 23:59:59.997000,00000000-0000-0000-0000-000000000001
155,ad1baf46-8a69-401d-8a48-a58851ac4e88,a966bfa8-b90b-401d-b13b-50f9ded73591,0,2013-12-03 13:04:53.300,2013-12-03 13:04:53.300,9999-12-31 23:59:59.997000,00000000-0000-0000-0000-000000000001
156,ad1baf46-8a69-401d-8a48-a58851ac4e88,b20f2091-4f0e-400b-a81f-96af93fe929b,0,2013-12-03 13:04:53.300,2013-12-03 13:04:53.300,9999-12-31 23:59:59.997000,00000000-0000-0000-0000-000000000001
157,ad1baf46-8a69-401d-8a48-a58851ac4e88,b56a7505-6a10-49e8-95f2-4aa31b1592f0,0,2013-12-03 13:04:53.300,2013-12-03 13:04:53.300,9999-12-31 23:59:59.997000,00000000-0000-0000-0000-000000000001
158,ad1baf46-8a69-401d-8a48-a58851ac4e88,b8d9c766-2419-44c1-b4f0-68ac8715d00b,0,2013-12-03 13:04:53.300,2013-12-03 13:04:53.300,9999-12-31 23:59:59.997000,00000000-0000-0000-0000-000000000001
159,ad1baf46-8a69-401d-8a48-a58851ac4e88,d54ab425-2c8b-4bee-baa2-9eeac6967f54,0,2013-12-03 13:04:53.300,2013-12-03 13:04:53.300,9999-12-31 23:59:59.997000,00000000-0000-0000-0000-000000000001
160,ad1baf46-8a69-401d-8a48-a58851ac4e88,da9ac5bf-72f8-41c9-847a-929da34eeaee,0,2013-12-03 13:04:53.300,2013-12-03 13:04:53.300,9999-12-31 23:59:59.997000,00000000-0000-0000-0000-000000000001
161,ad1baf46-8a69-401d-8a48-a58851ac4e88,eb49ee44-be7d-4893-9d89-3548a428601a,0,2013-12-03 13:04:53.300,2013-12-03 13:04:53.300,9999-12-31 23:59:59.997000,00000000-0000-0000-0000-000000000001
162,be30dd46-3812-4137-bea8-e6f1ad142c51,04234902-287c-41da-b0df-ec12740c651d,0,2017-06-12 11:18:37.600,2017-06-12 11:18:37.600,9999-12-31 23:59:59.997000,00000000-0000-0000-0000-000000000001
163,be30dd46-3812-4137-bea8-e6f1ad142c51,0801b07e-b22d-4271-bceb-935dc9abcf8a,0,2017-06-12 11:18:37.600,2017-06-12 11:18:37.600,9999-12-31 23:59:59.997000,00000000-0000-0000-0000-000000000001
164,be30dd46-3812-4137-bea8-e6f1ad142c51,12f9ffa7-3426-43c8-afd1-331a0a77cdb9,0,2017-06-12 11:18:37.600,2017-06-12 11:18:37.600,9999-12-31 23:59:59.997000,00000000-0000-0000-0000-000000000001
165,be30dd46-3812-4137-bea8-e6f1ad142c51,16755ee6-0277-40bf-8a77-ea74ee9176d2,0,2017-06-12 11:18:37.600,2017-06-12 11:18:37.600,9999-12-31 23:59:59.997000,00000000-0000-0000-0000-000000000001
166,be30dd46-3812-4137-bea8-e6f1ad142c51,1ed27acb-6da4-4e97-911c-824dbbac4bda,0,2017-06-12 11:18:37.600,2017-06-12 11:18:37.600,9999-12-31 23:59:59.997000,00000000-0000-0000-0000-000000000001
167,be30dd46-3812-4137-bea8-e6f1ad142c51,2365e293-892f-44eb-bf1f-113d9b6557e0,0,2017-06-12 11:18:37.600,2017-06-12 11:18:37.600,9999-12-31 23:59:59.997000,00000000-0000-0000-0000-000000000001
168,be30dd46-3812-4137-bea8-e6f1ad142c51,2995b722-3faa-4fef-a379-4957f5e0ebba,0,2017-06-12 11:18:37.600,2017-06-12 11:18:37.600,9999-12-31 23:59:59.997000,00000000-0000-0000-0000-000000000001
169,be30dd46-3812-4137-bea8-e6f1ad142c51,2d7837f0-35c2-4a06-a421-b21dee0f6daf,0,2017-06-12 11:18:37.600,2017-06-12 11:18:37.600,9999-12-31 23:59:59.997000,00000000-0000-0000-0000-000000000001
170,be30dd46-3812-4137-bea8-e6f1ad142c51,2fef278a-54e1-4070-bc2d-c01dfbbe383f,0,2017-06-12 11:18:37.600,2017-06-12 11:18:37.600,9999-12-31 23:59:59.997000,00000000-0000-0000-0000-000000000001
171,be30dd46-3812-4137-bea8-e6f1ad142c51,3054d1e0-ec1a-4939-ac8a-f3faf4695c91,0,2017-06-12 11:18:37.600,2017-06-12 11:18:37.600,9999-12-31 23:59:59.997000,00000000-0000-0000-0000-000000000001
172,be30dd46-3812-4137-bea8-e6f1ad142c51,8b2ec2c0-52f8-422b-b18c-f699b964c43a,0,2017-06-12 11:18:37.600,2017-06-12 11:18:37.600,9999-12-31 23:59:59.997000,00000000-0000-0000-0000-000000000001
173,be30dd46-3812-4137-bea8-e6f1ad142c51,ac26ac21-1f6d-4a04-b0df-ae4d95332417,0,2017-06-12 11:18:37.600,2017-06-12 11:18:37.600,9999-12-31 23:59:59.997000,00000000-0000-0000-0000-000000000001
174,be30dd46-3812-4137-bea8-e6f1ad142c51,bba706ae-6fc8-4f1a-9fee-3ea267a9f5bc,0,2017-06-12 11:18:37.600,2017-06-12 11:18:37.600,9999-12-31 23:59:59.997000,00000000-0000-0000-0000-000000000001
175,be30dd46-3812-4137-bea8-e6f1ad142c51,c7941921-3a80-4ed9-89ee-c5cfcd2e1f7e,0,2017-06-12 11:18:37.600,2017-06-12 11:18:37.600,9999-12-31 23:59:59.997000,00000000-0000-0000-0000-000000000001
176,c4caf0a6-6536-486c-8695-6715427f267c,2ba18b98-d35f-4a9b-bc91-2a24a2a2439b,0,2017-06-12 11:18:37.647,2017-06-12 11:18:37.647,9999-12-31 23:59:59.997000,00000000-0000-0000-0000-000000000001
177,caccc32a-695c-4a80-b281-011642f652f1,2ad71908-b456-4165-b415-f883980a7761,0,2018-08-03 09:24:53.630,2018-08-03 09:24:53.630,9999-12-31 23:59:59.997000,00000000-0000-0000-0000-000000000001
178,caccc32a-695c-4a80-b281-011642f652f1,2ba18b98-d35f-4a9b-bc91-2a24a2a2439b,0,2018-08-03 09:24:53.630,2018-08-03 09:24:53.630,9999-12-31 23:59:59.997000,00000000-0000-0000-0000-000000000001
179,caccc32a-695c-4a80-b281-011642f652f1,2ba36603-5b5b-4a3f-b56e-5f92dce625e8,0,2018-08-03 09:24:53.630,2018-08-03 09:24:53.630,9999-12-31 23:59:59.997000,00000000-0000-0000-0000-000000000001
180,caccc32a-695c-4a80-b281-011642f652f1,2d9a58cd-7173-4c31-b619-e160609072e6,0,2018-08-03 09:24:53.630,2018-08-03 09:24:53.630,9999-12-31 23:59:59.997000,00000000-0000-0000-0000-000000000001
181,caccc32a-695c-4a80-b281-011642f652f1,3b1d983f-3bd1-4693-bf96-a2490c4b5bf0,0,2018-08-03 09:24:53.660,2018-08-03 09:24:53.660,9999-12-31 23:59:59.997000,00000000-0000-0000-0000-000000000001
182,caccc32a-695c-4a80-b281-011642f652f1,3c37095b-984e-406c-86fa-5fd7b468f23b,0,2018-08-03 09:24:53.660,2018-08-03 09:24:53.660,9999-12-31 23:59:59.997000,00000000-0000-0000-0000-000000000001
183,caccc32a-695c-4a80-b281-011642f652f1,72fa2682-1652-4534-a381-3c0dde761f45,0,2018-08-03 09:24:53.660,2018-08-03 09:24:53.660,9999-12-31 23:59:59.997000,00000000-0000-0000-0000-000000000001
184,caccc32a-695c-4a80-b281-011642f652f1,755e17d4-0827-4866-ad52-fe092e3ac91e,0,2018-08-03 09:24:53.660,2018-08-03 09:24:53.660,9999-12-31 23:59:59.997000,00000000-0000-0000-0000-000000000001
185,caccc32a-695c-4a80-b281-011642f652f1,c3c84175-ebdb-47b2-921d-4bb5241be20a,0,2018-08-03 09:24:53.677,2018-08-03 09:24:53.677,9999-12-31 23:59:59.997000,00000000-0000-0000-0000-000000000001
186,caccc32a-695c-4a80-b281-011642f652f1,c69a81ff-40f1-4e07-8767-74d607fab3f2,0,2018-08-03 09:24:53.677,2018-08-03 09:24:53.677,9999-12-31 23:59:59.997000,00000000-0000-0000-0000-000000000001
187,caccc32a-695c-4a80-b281-011642f652f1,cf50f956-3eae-4f57-b232-f4efbaf027ba,0,2018-08-03 09:24:53.677,2018-08-03 09:24:53.677,9999-12-31 23:59:59.997000,00000000-0000-0000-0000-000000000001
188,caccc32a-695c-4a80-b281-011642f652f1,d0083a3d-8b62-4a8f-8bb2-e58882d70054,0,2018-08-03 09:24:53.677,2018-08-03 09:24:53.677,9999-12-31 23:59:59.997000,00000000-0000-0000-0000-000000000001
189,caccc32a-695c-4a80-b281-011642f652f1,dc54b9f4-2d31-48dc-8b07-d126e20d3fba,0,2018-08-03 09:24:53.677,2018-08-03 09:24:53.677,9999-12-31 23:59:59.997000,00000000-0000-0000-0000-000000000001
190,caccc32a-695c-4a80-b281-011642f652f1,eeaa8e9d-05fa-4595-92a7-dbcc716a829d,0,2018-08-03 09:24:53.677,2018-08-03 09:24:53.677,9999-12-31 23:59:59.997000,00000000-0000-0000-0000-000000000001
191,e5ddbeb7-ee81-459f-9599-d2c1ec0cd09a,054f5858-f181-41fc-9645-07a2dfe37959,0,2017-08-17 10:01:03.497,2017-08-17 10:01:03.497,9999-12-31 23:59:59.997000,00000000-0000-0000-0000-000000000001
192,e5ddbeb7-ee81-459f-9599-d2c1ec0cd09a,2c5c19fa-2fa3-4ac7-b069-8c2b391f47a8,0,2017-08-17 10:01:03.513,2017-08-17 10:01:03.513,9999-12-31 23:59:59.997000,00000000-0000-0000-0000-000000000001
193,e5ddbeb7-ee81-459f-9599-d2c1ec0cd09a,3107a2c9-7190-4ad3-a19d-570fc2210aa1,0,2017-08-17 10:01:03.513,2017-08-17 10:01:03.513,9999-12-31 23:59:59.997000,00000000-0000-0000-0000-000000000001
194,e5ddbeb7-ee81-459f-9599-d2c1ec0cd09a,42b6e07b-f02a-42cb-a008-4714e799a0a2,0,2017-08-17 10:01:03.513,2017-08-17 10:01:03.513,9999-12-31 23:59:59.997000,00000000-0000-0000-0000-000000000001
195,e5ddbeb7-ee81-459f-9599-d2c1ec0cd09a,5333b561-a869-445d-9e02-4c0eec2b1ce5,0,2017-08-17 10:01:03.497,2017-08-17 10:01:03.497,9999-12-31 23:59:59.997000,00000000-0000-0000-0000-000000000001
196,e5ddbeb7-ee81-459f-9599-d2c1ec0cd09a,61321c2c-51ee-40a4-8bc9-720d79ac2f15,0,2017-08-17 10:01:03.480,2017-08-17 10:01:03.480,9999-12-31 23:59:59.997000,00000000-0000-0000-0000-000000000001
197,e5ddbeb7-ee81-459f-9599-d2c1ec0cd09a,8b3c6481-5ea4-4a4e-b7d2-9f0df46c959f,0,2017-08-17 10:01:03.497,2017-08-17 10:01:03.497,9999-12-31 23:59:59.997000,00000000-0000-0000-0000-000000000001
198,e5ddbeb7-ee81-459f-9599-d2c1ec0cd09a,a6dd442b-88b7-474d-9737-b2d7c25e57d3,0,2017-08-17 10:01:03.513,2017-08-17 10:01:03.513,9999-12-31 23:59:59.997000,00000000-0000-0000-0000-000000000001
199,e5ddbeb7-ee81-459f-9599-d2c1ec0cd09a,ab717fc7-e56a-4dc8-8b50-affecc3ceeeb,0,2017-08-17 10:01:03.513,2017-08-17 10:01:03.513,9999-12-31 23:59:59.997000,00000000-0000-0000-0000-000000000001
200,e5ddbeb7-ee81-459f-9599-d2c1ec0cd09a,befc6449-c7f9-4e38-9853-3932c1bff2b7,0,2017-08-17 10:01:03.513,2017-08-17 10:01:03.513,9999-12-31 23:59:59.997000,00000000-0000-0000-0000-000000000001
201,e5ddbeb7-ee81-459f-9599-d2c1ec0cd09a,c5579477-f5d1-49e7-aa1c-4d22688deb2b,0,2017-08-17 10:01:03.513,2017-08-17 10:01:03.513,9999-12-31 23:59:59.997000,00000000-0000-0000-0000-000000000001
202,e5ddbeb7-ee81-459f-9599-d2c1ec0cd09a,e3fe25e1-46cf-4479-8a17-ba00fcf4d2a4,0,2017-08-17 10:01:03.513,2017-08-17 10:01:03.513,9999-12-31 23:59:59.997000,00000000-0000-0000-0000-000000000001
203,e5ddbeb7-ee81-459f-9599-d2c1ec0cd09a,f6487441-97a3-4bf1-9226-71ace5c12ea2,0,2017-08-17 10:01:03.497,2017-08-17 10:01:03.497,9999-12-31 23:59:59.997000,00000000-0000-0000-0000-000000000001
204,e5ddbeb7-ee81-459f-9599-d2c1ec0cd09a,fd544247-48ea-48be-9c91-87dc39acd498,0,2017-08-17 10:01:03.497,2017-08-17 10:01:03.497,9999-12-31 23:59:59.997000,00000000-0000-0000-0000-000000000001
205,ea67e2fa-e768-4cd1-8df5-afba55880eec,054f5858-f181-41fc-9645-07a2dfe37959,0,2017-06-12 11:18:37.630,2017-06-12 11:18:37.630,9999-12-31 23:59:59.997000,00000000-0000-0000-0000-000000000001
206,ea67e2fa-e768-4cd1-8df5-afba55880eec,2c5c19fa-2fa3-4ac7-b069-8c2b391f47a8,0,2017-06-12 11:18:37.630,2017-06-12 11:18:37.630,9999-12-31 23:59:59.997000,00000000-0000-0000-0000-000000000001
207,ea67e2fa-e768-4cd1-8df5-afba55880eec,3107a2c9-7190-4ad3-a19d-570fc2210aa1,0,2017-06-12 11:18:37.630,2017-06-12 11:18:37.630,9999-12-31 23:59:59.997000,00000000-0000-0000-0000-000000000001
208,ea67e2fa-e768-4cd1-8df5-afba55880eec,42b6e07b-f02a-42cb-a008-4714e799a0a2,0,2017-06-12 11:18:37.630,2017-06-12 11:18:37.630,9999-12-31 23:59:59.997000,00000000-0000-0000-0000-000000000001
209,ea67e2fa-e768-4cd1-8df5-afba55880eec,5333b561-a869-445d-9e02-4c0eec2b1ce5,0,2017-06-12 11:18:37.630,2017-06-12 11:18:37.630,9999-12-31 23:59:59.997000,00000000-0000-0000-0000-000000000001
210,ea67e2fa-e768-4cd1-8df5-afba55880eec,61321c2c-51ee-40a4-8bc9-720d79ac2f15,0,2017-06-12 11:18:37.630,2017-06-12 11:18:37.630,9999-12-31 23:59:59.997000,00000000-0000-0000-0000-000000000001
211,ea67e2fa-e768-4cd1-8df5-afba55880eec,8b3c6481-5ea4-4a4e-b7d2-9f0df46c959f,0,2017-06-12 11:18:37.630,2017-06-12 11:18:37.630,9999-12-31 23:59:59.997000,00000000-0000-0000-0000-000000000001
212,ea67e2fa-e768-4cd1-8df5-afba55880eec,a6dd442b-88b7-474d-9737-b2d7c25e57d3,0,2017-06-12 11:18:37.630,2017-06-12 11:18:37.630,9999-12-31 23:59:59.997000,00000000-0000-0000-0000-000000000001
213,ea67e2fa-e768-4cd1-8df5-afba55880eec,ab717fc7-e56a-4dc8-8b50-affecc3ceeeb,0,2017-06-12 11:18:37.630,2017-06-12 11:18:37.630,9999-12-31 23:59:59.997000,00000000-0000-0000-0000-000000000001
214,ea67e2fa-e768-4cd1-8df5-afba55880eec,befc6449-c7f9-4e38-9853-3932c1bff2b7,0,2017-06-12 11:18:37.630,2017-06-12 11:18:37.630,9999-12-31 23:59:59.997000,00000000-0000-0000-0000-000000000001
215,ea67e2fa-e768-4cd1-8df5-afba55880eec,c5579477-f5d1-49e7-aa1c-4d22688deb2b,0,2017-06-12 11:18:37.630,2017-06-12 11:18:37.630,9999-12-31 23:59:59.997000,00000000-0000-0000-0000-000000000001
216,ea67e2fa-e768-4cd1-8df5-afba55880eec,e3fe25e1-46cf-4479-8a17-ba00fcf4d2a4,0,2017-06-12 11:18:37.630,2017-06-12 11:18:37.630,9999-12-31 23:59:59.997000,00000000-0000-0000-0000-000000000001
217,ea67e2fa-e768-4cd1-8df5-afba55880eec,f6487441-97a3-4bf1-9226-71ace5c12ea2,0,2017-06-12 11:18:37.630,2017-06-12 11:18:37.630,9999-12-31 23:59:59.997000,00000000-0000-0000-0000-000000000001
218,ea67e2fa-e768-4cd1-8df5-afba55880eec,fd544247-48ea-48be-9c91-87dc39acd498,0,2017-06-12 11:18:37.630,2017-06-12 11:18:37.630,9999-12-31 23:59:59.997000,00000000-0000-0000-0000-000000000001
219,fcf8f992-48cf-4cdf-b8e1-2900c679ed51,0016c700-eb97-4c6d-b5b9-5ad7cda225bd,0,2017-01-10 13:04:36.443,2017-01-10 13:04:36.443,9999-12-31 23:59:59.997000,00000000-0000-0000-0000-000000000001
220,fcf8f992-48cf-4cdf-b8e1-2900c679ed51,1a83c4e8-bb4b-42d5-b994-20c696079f04,0,2017-01-10 13:04:36.443,2017-01-10 13:04:36.443,9999-12-31 23:59:59.997000,00000000-0000-0000-0000-000000000001
221,fcf8f992-48cf-4cdf-b8e1-2900c679ed51,1dc8bc09-30ff-4a5a-aa88-5c1687091f8e,0,2017-01-10 13:04:36.443,2017-01-10 13:04:36.443,9999-12-31 23:59:59.997000,00000000-0000-0000-0000-000000000001
222,fcf8f992-48cf-4cdf-b8e1-2900c679ed51,33c5204e-4e07-4722-bb67-bf8e183ef220,0,2017-01-10 13:04:36.443,2017-01-10 13:04:36.443,9999-12-31 23:59:59.997000,00000000-0000-0000-0000-000000000001
223,fcf8f992-48cf-4cdf-b8e1-2900c679ed51,36795868-d3b6-410d-86fa-2ed68b52d7b0,0,2017-01-10 13:04:36.443,2017-01-10 13:04:36.443,9999-12-31 23:59:59.997000,00000000-0000-0000-0000-000000000001
224,fcf8f992-48cf-4cdf-b8e1-2900c679ed51,37be0644-17d6-496d-af58-eb5c7147c580,0,2017-01-10 13:04:36.443,2017-01-10 13:04:36.443,9999-12-31 23:59:59.997000,00000000-0000-0000-0000-000000000001
225,fcf8f992-48cf-4cdf-b8e1-2900c679ed51,3ac969c6-6dc8-4f6d-95f2-bcfe38ff58df,0,2017-01-10 13:04:36.443,2017-01-10 13:04:36.443,9999-12-31 23:59:59.997000,00000000-0000-0000-0000-000000000001
226,fcf8f992-48cf-4cdf-b8e1-2900c679ed51,7c3cdc9d-1173-4c76-9529-eb98ff387d00,0,2017-01-10 13:04:36.443,2017-01-10 13:04:36.443,9999-12-31 23:59:59.997000,00000000-0000-0000-0000-000000000001
227,fcf8f992-48cf-4cdf-b8e1-2900c679ed51,8a54c04a-a83d-4e12-8bca-23f480894e7c,0,2017-01-10 13:04:36.443,2017-01-10 13:04:36.443,9999-12-31 23:59:59.997000,00000000-0000-0000-0000-000000000001
228,fcf8f992-48cf-4cdf-b8e1-2900c679ed51,aa4090ce-d5ee-4d03-b289-6dab4819a145,0,2017-01-10 13:04:36.443,2017-01-10 13:04:36.443,9999-12-31 23:59:59.997000,00000000-0000-0000-0000-000000000001
229,fcf8f992-48cf-4cdf-b8e1-2900c679ed51,f053ef28-451c-4079-959f-9370049d8327,0,2017-01-10 13:04:36.443,2017-01-10 13:04:36.443,9999-12-31 23:59:59.997000,00000000-0000-0000-0000-000000000001
230,fcf8f992-48cf-4cdf-b8e1-2900c679ed51,f1987285-9250-4661-8ec1-2aaf07ab8fe2,0,2017-01-10 13:04:36.443,2017-01-10 13:04:36.443,9999-12-31 23:59:59.997000,00000000-0000-0000-0000-000000000001
231,fcf8f992-48cf-4cdf-b8e1-2900c679ed51,f5a3fbcf-bdbd-42d7-b77a-e28248f5b1fb,0,2017-01-10 13:04:36.443,2017-01-10 13:04:36.443,9999-12-31 23:59:59.997000,00000000-0000-0000-0000-000000000001
232,fcf8f992-48cf-4cdf-b8e1-2900c679ed51,f8db9a96-40c2-4cc8-b8a7-6b8683558b10,0,2017-01-10 13:04:36.443,2017-01-10 13:04:36.443,9999-12-31 23:59:59.997000,00000000-0000-0000-0000-000000000001
