,pkRelationship,Descr
0,1,Mother
1,2,Father
2,3,Brother
3,4,Sister
4,5,Grandmother
5,6,Grandfather
6,7,Uncle
7,8,Aunt
8,9,Cousin
9,10,Niece
10,11,Nephew
11,12,Son
12,13,Daughter
13,14,<Not Applicable>
14,15,Husband
15,16,Wife
16,17,Spouse
17,18,Caretaker
