,QC_ID,Date,Crematorium_ID,Cemetery_ID,Memo,Version,Date_Created,Date_Modified,Date_Deleted,User_ID
0,768b8f9b-faf4-481b-a322-3fa9a922a95e,5373484.499988,,11111111-1111-1111-1111-111111111108,Price Inquiry for Lone Fir cremation placements,1,2016-08-02 10:34:35.383,2016-08-02 10:35:40.220,9999-12-31 23:59:59.997000,7d6c7c2b-5507-485f-a856-8c5eafaf2826
1,90c07088-322e-4263-87f5-4b1a846298ef,2456559.8071412034,,11111111-1111-1111-1111-111111111103,Request to confirm CIR was sent,2,2013-09-24 07:23:15.107,2013-09-24 07:23:55.697,9999-12-31 23:59:59.997000,7d6c7c2b-5507-485f-a856-8c5eafaf2826
2,90e73814-eef5-40e5-b49b-5010244727c5,5373484.499988,,11111111-1111-1111-1111-111111111101,,1,2018-08-01 16:00:01.563,2018-08-02 13:39:38.833,9999-12-31 23:59:59.997000,d1208c44-51c2-4916-b239-c88e04cccfb7
3,dc64dc65-7334-4f5d-a869-1b0fdb09cb60,2458054.1805324075,,11111111-1111-1111-1111-111111111101,,1,2017-10-27 16:20:19.600,2017-10-30 12:54:25.670,9999-12-31 23:59:59.997000,d1208c44-51c2-4916-b239-c88e04cccfb7
